0-0 1-27 2-27 3-6 4-14 5-3 6-4 7-5 8-27 9-8 10-9 11-10 12-8 13-12 14-8 15-3 16-14 17-15 18-1 19-1 20-8 21-22 22-4 23-8 24-21 25-23 26-3 27-14 28-27 
0-0 1-3 2-0 3-3 4-0 5-0 6-3 7-0 8-0 9-2 10-4 
0-0 1-1 2-7 3-3 4-5 5-4 6-5 7-0 8-8 9-9 10-10 11-11 12-12 13-13 14-14 15-15 16-16 17-17 18-19 19-16 20-19 21-8 22-16 23-15 24-16 25-23 26-24 
0-0 1-17 2-17 3-17 4-2 5-12 6-11 7-17 8-6 9-13 10-16 11-7 12-17 13-2 14-12 15-7 16-2 17-9 18-10 19-17 
0-0 1-4 2-0 3-24 4-5 5-6 6-7 7-24 8-0 9-0 10-1 11-3 12-16 13-16 14-10 15-11 16-11 17-24 18-13 19-16 20-1 21-16 22-17 23-0 24-22 25-20 26-21 27-22 28-16 29-24 
0-0 1-11 2-0 3-1 4-2 5-3 6-10 7-9 8-8 9-4 10-6 11-7 12-10 13-3 14-3 15-3 16-11 
0-0 1-14 2-13 3-15 4-0 5-21 6-19 7-0 8-2 9-6 10-15 11-21 12-2 13-2 14-11 15-15 16-2 17-12 18-21 19-0 20-5 21-12 22-21 
0-0 1-3 2-1 3-5 4-5 5-7 6-8 7-14 8-13 9-9 10-10 11-6 12-15 13-12 14-15 
0-1 1-12 2-2 3-12 4-10 5-4 6-19 7-6 8-7 9-3 10-9 11-10 12-11 13-12 14-13 15-12 16-10 17-15 18-16 19-12 20-10 21-10 22-14 23-10 24-18 25-10 26-10 27-17 28-20 
0-0 1-3 2-1 3-3 4-2 5-3 
0-16 1-3 2-7 3-1 4-9 5-17 6-11 7-7 8-11 9-9 10-17 11-19 12-14 13-15 14-20 15-11 16-9 17-17 18-22 19-24 20-22 21-22 22-23 23-25 
0-2 1-2 2-19 3-2 4-0 5-9 6-9 7-7 8-14 9-9 10-19 11-14 12-5 13-9 14-9 15-14 16-9 17-10 18-13 19-2 20-18 21-14 22-9 23-14 24-19 
0-2 1-10 2-2 3-10 4-5 5-10 6-2 7-8 8-9 9-10 10-8 11-12 12-13 
0-0 1-2 2-3 3-4 4-5 5-6 6-7 7-0 8-12 9-1 10-8 11-9 12-5 13-19 14-14 15-5 16-19 17-5 18-17 19-19 
0-0 1-1 2-2 3-2 4-12 5-1 6-2 7-12 8-5 9-6 10-2 11-7 12-2 13-9 14-10 15-12 
0-10 1-0 2-9 3-13 4-1 5-13 6-8 7-13 8-8 9-11 10-9 11-3 12-12 13-13 
0-0 1-0 2-3 3-5 4-2 5-9 6-7 7-6 8-2 9-8 10-11 11-9 12-10 13-11 
0-11 1-6 2-11 3-7 4-8 5-10 6-11 7-2 8-11 9-5 10-13 11-11 12-14 13-16 14-4 15-11 16-15 17-11 18-2 19-1 20-0 21-0 22-17 
0-4 1-6 2-8 3-8 4-6 5-11 6-12 7-3 8-18 9-6 10-2 11-15 12-16 13-17 14-17 15-18 
0-0 1-1 2-2 3-3 4-0 5-5 6-7 7-8 8-7 9-10 10-11 11-12 12-13 13-15 14-0 15-14 16-16 
0-5 1-3 2-3 3-1 4-5 5-2 6-3 7-5 8-4 9-5 
0-1 1-3 2-16 3-8 4-7 5-13 6-0 7-7 8-10 9-7 10-12 11-7 12-14 13-15 14-16 
0-0 1-1 2-2 3-2 4-5 5-7 6-5 7-5 8-14 9-14 10-15 11-12 12-13 13-17 14-14 15-2 16-2 17-23 18-23 19-19 20-20 21-24 
0-0 1-1 2-3 3-4 4-7 5-3 6-2 7-3 8-7 
0-0 1-1 2-8 3-5 4-16 5-7 6-8 7-0 8-1 9-13 10-4 11-8 12-0 13-11 14-18 15-11 16-18 
0-13 1-1 2-2 3-13 4-1 5-22 6-3 7-5 8-7 9-13 10-14 11-13 12-8 13-16 14-13 15-19 16-17 17-9 18-8 19-5 20-22 
0-0 1-1 2-3 3-2 4-3 5-4 6-5 7-6 8-7 9-18 10-9 11-3 12-13 13-7 14-5 15-12 16-19 17-1 18-11 19-18 20-0 21-19 
0-0 1-1 2-22 3-1 4-5 5-6 6-22 7-7 8-5 9-22 10-19 11-5 12-22 13-2 14-12 15-5 16-22 17-2 18-21 19-18 20-22 
0-0 1-1 2-9 3-0 4-0 5-3 6-5 7-6 8-15 9-0 10-3 11-10 12-14 13-15 14-9 15-9 16-9 17-9 18-15 19-13 20-15 
0-23 1-12 2-12 3-2 4-3 5-20 6-12 7-12 8-10 9-7 10-10 11-6 12-0 13-8 14-10 15-9 16-12 17-10 18-12 19-12 20-17 21-1 22-10 23-21 24-14 25-15 26-10 27-21 28-16 29-23 
0-0 1-1 2-2 3-5 4-4 5-5 
0-9 1-5 2-11 3-9 4-1 5-25 6-4 7-11 8-9 9-14 10-5 11-8 12-9 13-11 14-12 15-3 16-11 17-9 18-15 19-25 20-24 21-9 22-18 23-25 24-8 25-19 26-20 27-10 28-25 
0-8 1-1 2-2 3-3 4-0 5-5 6-8 7-2 8-7 9-8 10-6 11-8 12-9 13-11 
0-0 1-3 2-11 3-6 4-11 5-9 6-8 7-11 8-11 9-10 10-11 11-11 12-16 13-11 14-15 15-11 16-13 17-12 18-17 
0-3 1-8 2-4 3-2 4-6 5-18 6-7 7-2 8-1 9-2 10-8 11-2 12-0 13-2 14-8 15-8 16-9 17-10 18-14 19-3 20-13 21-11 22-18 23-15 24-16 25-17 26-18 
0-19 1-1 2-4 3-6 4-8 5-3 6-9 7-5 8-19 9-6 10-5 11-14 12-13 13-3 14-2 15-16 16-17 17-16 18-19 19-5 20-20 21-21 22-22 
0-1 1-6 2-3 3-0 4-3 5-3 6-10 7-3 8-8 9-10 10-16 11-18 12-3 13-12 14-16 15-3 16-19 17-5 18-6 19-6 20-20 21-25 22-20 23-3 24-22 25-26 
0-0 1-1 
0-0 1-1 
0-0 1-1 2-0 3-1 
0-0 1-1 2-0 3-1 
0-0 1-1 2-0 3-1 
0-2 1-3 2-1 3-3 4-4 5-14 6-5 7-3 8-7 9-7 10-10 11-8 12-10 13-10 14-11 15-12 16-7 17-8 18-10 19-0 20-13 21-10 22-11 23-18 24-19 
0-0 1-1 
0-0 1-1 
0-0 1-8 2-1 3-2 4-3 5-4 6-5 7-5 8-7 9-8 10-9 11-10 12-10 13-8 14-11 15-12 
0-5 1-0 2-1 3-10 4-2 5-3 6-10 7-4 8-5 9-6 10-7 11-8 12-6 13-9 14-10 15-6 16-12 17-11 18-13 
0-0 1-1 
0-2 1-4 2-17 3-5 4-10 5-8 6-9 7-10 8-8 9-12 10-10 11-14 12-15 13-16 14-5 15-15 16-1 17-21 
0-0 1-10 2-11 3-6 4-6 5-10 6-10 7-19 8-7 9-9 10-3 11-12 12-15 13-10 14-19 15-16 16-6 17-19 18-21 19-20 20-23 
0-8 1-9 2-12 3-23 4-3 5-1 6-3 7-20 8-21 9-23 10-22 11-20 12-11 13-11 14-8 15-5 16-23 
0-3 1-3 2-0 3-3 
0-0 1-1 
0-4 1-19 2-18 3-22 4-19 5-9 6-6 7-7 8-4 9-9 10-8 11-4 12-9 13-14 14-9 15-16 16-17 17-18 18-19 19-19 20-0 21-20 22-22 
0-0 1-1 2-0 3-4 4-1 5-3 6-4 
0-0 1-1 2-2 3-3 4-4 5-5 6-6 7-7 8-8 9-9 10-14 11-10 12-11 13-14 14-13 15-12 16-14 
0-9 1-3 2-7 3-4 4-5 5-17 6-5 7-7 8-0 9-7 10-2 11-10 12-9 13-11 14-12 15-13 16-0 17-5 18-15 19-11 20-14 21-0 22-9 23-17 
0-0 1-3 2-1 3-2 4-3 5-4 6-16 7-5 8-13 9-6 10-7 11-10 12-3 13-9 14-13 15-7 16-6 17-2 18-13 19-7 20-11 21-14 22-16 
0-0 1-9 2-2 3-3 4-3 5-0 6-3 7-3 8-8 9-9 
0-1 1-0 2-13 3-2 4-4 5-11 6-7 7-13 8-8 9-10 10-10 11-11 12-12 13-13 
0-1 1-1 2-0 3-1 
0-0 1-7 2-1 3-2 4-3 5-4 6-7 7-4 8-5 9-6 10-7 11-11 12-9 13-7 14-8 15-2 16-4 17-15 18-6 19-18 20-6 21-6 22-21 23-20 24-22 25-24 26-26 
0-2 1-2 2-2 3-2 4-2 
0-0 1-2 2-14 3-2 4-6 5-4 6-6 7-14 8-6 9-0 10-12 11-6 12-6 13-6 14-1 15-14 
0-0 1-1 2-2 3-3 4-4 5-2 6-5 7-6 
0-6 1-12 2-12 3-9 4-0 5-12 6-4 7-5 8-9 9-10 10-11 11-12 12-12 13-14 14-3 15-16 16-18 17-19 18-18 19-7 20-21 21-22 22-23 
0-1 1-4 2-1 3-2 4-0 5-1 6-7 7-4 8-4 9-5 10-1 11-6 12-7 13-4 14-9 15-10 
0-0 1-4 2-9 3-0 4-5 5-6 6-9 7-7 8-5 9-9 10-10 11-11 12-12 13-13 14-3 15-9 16-15 17-19 18-16 19-11 20-3 21-11 22-5 23-19 
0-3 1-13 2-13 3-5 4-13 5-8 6-12 7-5 8-0 9-3 10-2 11-3 12-4 13-5 14-3 15-10 16-5 17-7 18-13 
0-9 1-1 2-0 3-4 4-5 5-16 6-6 7-4 8-8 9-9 10-0 11-16 12-12 13-16 14-15 15-18 16-16 17-19 18-20 
0-0 1-9 2-1 3-2 4-4 5-13 6-5 7-6 8-15 9-7 10-5 11-9 12-10 13-17 14-11 15-9 16-14 17-15 18-15 19-16 20-17 21-20 22-15 23-19 24-22 25-21 26-22 
0-0 1-1 2-2 3-3 4-4 5-5 6-6 7-7 8-8 9-12 10-9 11-0 12-12 13-10 14-11 15-12 16-14 17-13 18-16 
0-0 1-2 2-3 3-2 4-9 5-12 6-6 7-9 8-7 9-8 10-9 11-10 12-7 13-0 14-0 15-13 
0-3 1-3 2-0 3-3 4-2 5-3 6-1 
0-0 1-15 2-1 3-2 4-15 5-4 6-3 7-15 8-15 9-5 10-15 11-15 12-8 13-2 14-8 15-2 16-10 17-11 18-2 19-15 20-15 21-15 22-14 23-15 
0-0 1-1 2-2 3-0 4-4 5-3 6-5 7-6 8-8 9-7 10-9 11-10 12-13 13-11 14-12 15-14 
0-7 1-6 2-1 3-23 4-10 5-15 6-23 7-1 8-1 9-4 10-23 11-7 12-9 13-10 14-5 15-12 16-1 17-8 18-13 19-14 20-6 21-7 22-22 23-10 24-7 25-23 
0-0 1-1 2-2 3-3 4-7 5-5 6-11 7-0 8-8 9-11 10-12 11-13 
0-0 1-1 2-15 3-5 4-7 5-3 6-5 7-5 8-4 9-9 10-5 11-17 12-7 13-9 14-5 15-8 16-9 17-5 18-13 19-12 20-11 21-14 22-16 23-9 24-5 25-20 26-19 27-21 
0-5 1-4 2-2 3-2 4-0 5-5 6-1 7-5 
0-0 1-16 2-1 3-5 4-3 5-10 6-6 7-7 8-8 9-9 10-10 11-3 12-15 13-10 14-9 15-13 16-3 17-3 18-12 19-19 20-20 
0-0 1-1 
0-0 1-1 
0-0 1-1 2-2 3-4 4-7 5-7 6-10 7-7 8-7 9-9 10-7 11-13 12-12 13-3 14-18 15-16 16-5 17-15 18-19 
0-0 1-1 2-23 3-12 4-3 5-7 6-5 7-3 8-2 9-20 10-9 11-3 12-11 13-10 14-12 15-13 16-14 17-15 18-1 19-17 20-18 21-5 22-3 23-22 24-12 25-20 26-23 
0-3 1-4 2-12 3-5 4-12 5-1 6-6 7-7 8-6 9-2 10-12 11-12 12-12 13-1 14-9 15-12 16-11 17-12 
0-2 1-1 2-0 3-3 4-4 5-13 6-5 7-13 8-11 9-13 10-17 11-18 12-19 13-20 14-9 15-10 16-11 17-5 18-15 19-21 
0-5 1-7 2-9 3-20 4-3 5-4 6-10 7-11 8-5 9-23 10-13 11-20 12-8 13-5 14-17 15-8 16-1 17-1 18-1 19-8 20-20 21-22 22-21 23-23 
0-0 1-1 2-14 3-14 4-8 5-6 6-7 7-14 8-6 9-6 10-6 11-0 12-9 13-14 14-12 15-14 16-14 17-4 18-0 19-14 20-6 21-14 22-14 23-13 24-14 
0-20 1-17 2-18 3-10 4-17 5-12 6-18 7-13 8-17 9-15 10-16 11-18 12-15 13-17 14-18 15-19 16-5 17-11 18-0 19-2 20-4 21-7 22-20 
0-12 1-2 2-5 3-2 4-3 5-0 6-4 7-5 8-5 9-7 10-3 11-10 12-3 13-3 14-11 15-14 
0-3 1-5 2-21 3-1 4-1 5-6 6-1 7-2 8-8 9-21 10-9 11-16 12-10 13-21 14-0 15-12 16-16 17-13 18-14 19-1 20-3 21-4 22-16 23-3 24-18 25-20 26-21 
0-0 1-1 2-2 3-2 4-3 5-3 6-4 7-2 8-5 
0-0 1-1 2-2 3-2 4-21 5-5 6-23 7-12 8-4 9-12 10-15 11-12 12-3 13-9 14-2 15-12 16-11 17-12 18-13 19-3 20-24 21-12 22-15 23-7 24-17 25-16 26-17 27-12 28-19 29-25 
0-2 1-3 2-2 3-17 4-6 5-2 6-2 7-9 8-9 9-2 10-2 11-10 12-17 13-16 14-9 15-4 16-17 
0-15 1-10 2-15 3-15 4-1 5-0 6-6 7-4 8-2 9-6 10-7 11-15 12-4 13-3 14-6 15-12 16-8 17-14 18-15 
0-3 1-4 2-4 3-6 4-26 5-1 6-9 7-11 8-19 9-10 10-12 11-26 12-13 13-1 14-18 15-15 16-16 17-17 18-19 19-1 20-20 21-21 22-19 23-23 24-25 25-26 
0-0 1-10 2-1 3-2 4-3 5-5 6-10 7-9 8-10 
0-0 1-1 2-2 3-2 4-4 5-2 6-5 7-2 8-3 9-5 10-5 11-5 12-10 
0-0 1-1 2-3 3-4 4-3 5-10 6-3 7-5 8-10 9-7 10-6 11-3 12-6 13-3 14-9 15-10 
0-0 1-11 2-1 3-14 4-11 5-2 6-3 7-14 8-11 9-6 10-4 11-0 12-11 13-5 14-7 15-8 16-15 17-0 18-14 19-3 20-3 21-15 22-11 23-13 24-4 25-16 26-12 27-17 28-19 
0-1 1-0 2-1 
0-0 1-1 2-2 3-9 4-3 5-4 6-28 7-16 8-22 9-12 10-9 11-14 12-9 13-23 14-16 15-4 16-18 17-28 18-9 19-5 20-2 21-23 22-24 23-25 24-26 25-27 26-28 
0-0 1-1 
0-0 1-2 2-3 3-4 4-5 5-6 6-10 7-1 8-27 9-8 10-4 11-10 12-0 13-11 14-13 15-27 16-14 17-16 18-10 19-17 20-27 21-19 22-10 23-22 24-23 25-27 
0-1 1-2 2-0 3-5 4-11 5-1 6-4 7-15 8-0 9-1 10-9 11-20 12-10 13-5 14-1 15-15 16-14 17-11 18-25 19-1 20-8 21-19 22-21 23-22 24-1 25-23 26-24 27-27 
0-0 1-8 2-3 3-4 4-5 5-6 6-8 7-5 8-7 9-9 10-3 11-9 12-5 13-6 14-10 15-17 
0-12 1-0 2-12 3-12 4-12 5-12 6-3 7-12 8-4 9-5 10-6 11-12 12-7 13-12 14-12 15-2 16-9 17-10 18-11 19-12 
0-0 1-8 2-9 3-26 4-10 5-6 6-7 7-3 8-8 9-28 10-12 11-0 12-14 13-11 14-26 15-16 16-6 17-11 18-11 19-15 20-16 21-17 22-21 23-11 24-26 25-25 26-19 27-27 28-28 
0-3 1-0 2-1 3-2 4-3 5-5 6-5 7-11 8-7 9-8 10-9 11-2 12-5 13-3 14-3 15-9 16-9 17-14 
0-0 1-7 2-1 3-2 4-3 5-4 6-5 7-6 8-11 9-7 10-8 11-6 12-11 13-7 14-15 15-13 16-11 17-7 18-14 19-16 
0-2 1-0 2-1 3-16 4-16 5-3 6-13 7-3 8-4 9-5 10-5 11-13 12-5 13-8 14-9 15-16 
0-4 1-3 2-4 3-4 4-6 5-7 6-8 7-9 8-10 
0-0 1-1 2-2 3-3 4-4 
0-5 1-1 2-3 3-5 4-5 5-4 6-7 7-7 8-3 9-7 
0-0 1-1 
0-0 1-18 2-1 3-2 4-17 5-6 6-6 7-3 8-3 9-5 10-5 11-4 12-7 13-8 14-10 15-11 16-2 17-13 18-6 19-17 20-5 21-18 22-11 23-18 
0-0 1-11 2-1 3-2 4-3 5-4 6-6 7-3 8-6 9-6 10-6 11-9 12-10 13-11 
0-0 1-1 2-1 3-2 4-5 5-6 6-1 7-9 8-2 9-14 10-12 11-12 12-19 13-1 14-19 15-15 16-17 17-19 18-16 19-19 20-19 21-20 22-1 
0-6 1-9 2-6 3-19 4-8 5-9 6-19 7-1 8-5 9-1 10-6 11-15 12-6 13-9 14-10 15-6 16-19 17-12 18-6 19-19 20-6 21-15 22-6 23-19 24-15 25-16 26-6 27-19 28-9 29-19 
0-0 1-1 2-2 3-4 4-22 5-16 6-9 7-10 8-11 9-9 10-6 11-15 12-8 13-9 14-18 15-18 16-18 17-9 18-8 19-22 20-24 21-9 22-16 23-26 
0-8 1-8 2-1 3-2 4-8 5-13 6-3 7-8 8-4 9-5 10-8 11-13 12-9 13-13 
0-0 1-6 2-14 3-2 4-14 5-14 6-2 7-4 8-5 9-6 10-1 11-2 12-7 13-8 14-6 15-7 16-4 17-9 18-7 19-10 20-14 
0-0 1-1 2-5 3-1 4-12 5-5 6-5 7-4 8-5 9-5 10-6 11-3 12-8 13-5 14-10 15-11 16-12 
0-7 1-13 2-13 3-7 4-7 5-0 6-13 7-2 8-1 9-4 10-7 11-3 12-5 13-8 14-9 15-7 16-13 17-12 18-7 19-13 20-11 21-13 
0-2 1-0 2-1 3-2 4-6 5-1 6-2 7-4 8-15 9-9 10-2 11-24 12-5 13-16 14-9 15-2 16-12 17-1 18-11 19-19 20-9 21-20 22-21 23-2 24-22 25-24 
0-0 1-2 2-1 3-2 4-14 5-3 6-9 7-14 8-11 9-14 10-4 11-11 12-9 13-11 14-5 15-11 16-9 17-8 18-11 19-9 20-13 21-14 
0-0 1-2 2-11 3-0 4-2 5-4 6-9 7-0 8-9 9-9 10-8 11-10 12-5 13-9 14-9 15-14 
0-0 1-1 2-6 3-4 4-12 5-4 6-8 7-9 8-7 9-12 10-4 11-3 12-8 13-2 14-14 15-8 16-8 17-18 18-19 
0-4 1-3 2-17 3-6 4-5 5-1 6-1 7-10 8-1 9-22 10-9 11-11 12-13 13-18 14-15 15-13 16-17 17-18 18-19 19-20 20-21 21-22 
0-7 1-1 2-2 3-3 4-4 5-5 6-6 7-7 8-14 9-14 10-11 11-8 12-11 13-10 14-11 15-12 16-22 17-11 18-11 19-14 20-11 21-11 22-2 23-24 
0-4 1-4 2-0 3-0 4-5 5-6 6-7 7-2 8-9 9-6 10-7 11-5 12-13 13-1 14-15 15-16 
0-3 1-2 2-1 3-0 4-3 5-0 6-9 7-6 8-7 9-3 10-8 11-5 12-10 13-11 
0-7 1-5 2-7 3-3 4-9 5-5 6-5 7-6 8-8 9-5 10-18 11-17 12-5 13-5 14-15 15-15 16-14 17-5 18-12 19-15 20-13 21-5 
0-17 1-0 2-1 3-2 4-11 5-11 6-6 7-5 8-17 9-7 10-8 11-15 12-9 13-12 14-13 15-14 16-12 17-10 18-11 19-1 20-16 21-17 
0-0 1-1 2-2 3-3 4-4 
0-7 1-3 2-27 3-1 4-0 5-0 6-3 7-4 8-5 9-9 10-17 11-15 12-1 13-12 14-14 15-15 16-1 17-15 18-18 19-18 20-19 21-25 22-4 23-3 24-23 25-19 26-25 27-26 28-29 
0-1 1-8 2-6 3-1 4-3 5-3 6-3 7-4 8-8 
0-0 1-1 2-5 3-1 4-2 5-3 6-4 7-5 8-2 9-6 10-11 11-12 12-11 13-14 
0-0 1-3 2-0 3-1 4-2 5-5 6-0 7-7 8-8 9-0 10-18 11-17 12-8 13-0 14-21 15-20 16-8 17-0 18-12 19-11 20-8 21-0 22-20 23-14 24-3 25-22 
0-3 1-12 2-2 3-0 4-6 5-1 6-2 7-6 8-6 9-2 10-9 11-9 12-11 13-12 
0-0 1-1 2-4 3-1 4-1 5-0 6-1 7-1 8-6 9-0 10-1 11-3 12-1 13-5 14-6 15-0 16-8 
0-0 1-3 2-1 3-2 4-3 5-3 6-4 7-13 8-12 9-8 10-12 11-3 12-10 13-11 14-3 15-9 16-13 
0-0 1-21 2-1 3-3 4-21 5-2 6-3 7-4 8-3 9-9 10-4 11-8 12-9 13-3 14-9 15-7 16-10 17-11 18-3 19-1 20-3 21-14 22-0 23-9 24-7 25-17 26-18 27-9 28-13 29-21 
0-0 1-3 2-3 3-3 4-0 5-5 6-7 7-0 8-6 9-0 10-1 11-11 12-12 13-9 14-0 15-10 16-0 17-9 18-14 19-17 20-9 21-0 22-19 23-20 
0-0 1-9 2-16 3-3 4-2 5-8 6-5 7-0 8-6 9-7 10-9 11-10 12-10 13-5 14-3 15-12 16-5 17-3 18-15 19-16 20-3 21-16 22-18 
0-0 1-4 2-3 3-1 4-3 5-6 6-7 
0-0 1-8 2-0 3-0 4-0 5-5 6-4 7-6 8-5 9-7 10-0 11-10 12-0 13-11 14-12 
0-7 1-22 2-1 3-3 4-4 5-3 6-3 7-4 8-7 9-2 10-9 11-1 12-22 13-10 14-3 15-12 16-13 17-14 18-5 19-7 20-7 21-18 22-7 23-22 24-21 25-8 26-22 
0-0 1-3 2-1 3-3 4-4 5-5 
0-8 1-21 2-3 3-3 4-4 5-5 6-6 7-3 8-8 9-10 10-21 11-8 12-9 13-11 14-21 15-21 16-15 17-16 18-11 19-12 20-13 21-3 22-3 23-22 24-23 25-24 
0-0 1-6 2-1 3-1 4-4 5-3 6-4 7-6 8-7 9-8 
0-0 1-1 2-2 3-4 4-3 5-4 
0-20 1-18 2-1 3-2 4-3 5-4 6-18 7-10 8-2 9-8 10-11 11-9 12-11 13-2 14-5 15-15 16-11 17-18 18-17 19-18 20-19 21-20 
0-0 1-2 2-3 3-4 4-12 5-5 6-3 7-7 8-8 9-9 10-12 11-8 12-12 13-7 14-7 15-12 
0-0 1-1 2-2 3-3 4-18 5-18 6-4 7-6 8-18 9-8 10-18 11-18 12-6 13-11 14-1 15-15 16-14 17-12 18-15 19-6 20-18 21-19 22-20 23-21 24-18 25-23 26-24 27-25 
0-0 1-0 2-2 3-3 4-4 5-6 6-6 7-4 8-4 9-8 
0-4 1-5 2-4 3-5 4-9 5-9 6-10 7-4 8-0 9-19 10-12 11-9 12-3 13-4 14-9 15-19 16-21 17-22 
0-0 1-6 2-1 3-2 4-15 5-15 6-15 7-6 8-4 9-5 10-9 11-6 12-8 13-6 14-6 15-6 16-6 17-2 18-6 19-6 20-11 21-6 22-3 23-6 24-6 25-9 26-15 
0-2 1-1 2-0 3-22 4-0 5-22 6-7 7-8 8-10 9-11 10-11 11-14 12-13 13-17 14-17 15-4 16-19 17-17 18-11 19-19 20-21 21-20 22-22 
0-0 1-1 
0-0 1-1 2-2 3-3 4-4 5-7 6-7 7-7 8-6 9-6 10-7 11-11 12-7 13-7 14-10 15-9 16-12 17-13 18-7 19-1 20-18 21-17 22-23 23-24 24-25 
0-5 1-7 2-0 3-1 4-2 5-14 6-3 7-1 8-8 9-10 10-11 11-13 12-12 13-14 
0-0 1-19 2-25 3-2 4-3 5-4 6-5 7-6 8-19 9-18 10-21 11-12 12-2 13-14 14-3 15-8 16-19 17-20 18-19 19-19 20-24 21-25 22-16 23-25 
0-0 1-1 2-6 3-2 4-4 5-19 6-4 7-19 8-6 9-6 10-8 11-9 12-6 13-6 14-6 15-19 16-15 17-13 18-14 19-6 20-8 21-19 22-15 23-17 24-18 25-19 
0-3 1-3 2-1 3-6 4-3 5-3 6-3 7-0 8-3 9-10 10-11 11-13 12-3 13-3 14-5 15-3 16-3 17-15 18-17 
0-0 1-1 2-2 3-9 4-10 5-6 6-2 7-5 8-6 9-11 
0-6 1-3 2-1 3-11 4-17 5-8 6-6 7-10 8-12 9-13 10-6 11-15 12-11 13-16 14-7 15-14 16-11 17-20 18-23 
0-0 1-1 2-5 3-0 4-2 5-2 6-2 7-0 8-8 9-2 10-10 
0-3 1-4 2-3 3-4 4-3 5-4 6-4 7-3 8-4 9-5 10-6 
0-0 1-0 2-1 3-2 4-3 5-12 6-4 7-2 8-6 9-8 10-6 11-7 12-8 13-12 14-11 15-10 16-12 
0-0 1-1 2-6 3-6 4-6 5-0 6-4 7-2 8-0 9-6 10-5 11-6 
0-0 1-4 2-16 3-0 4-7 5-9 6-17 7-11 8-0 9-13 10-9 11-11 12-0 13-15 14-17 
0-0 1-2 2-1 3-19 4-4 5-0 6-6 7-7 8-8 9-9 10-10 11-5 12-12 13-8 14-0 15-13 16-14 17-19 
0-6 1-1 2-1 3-1 4-0 5-1 6-4 7-1 8-5 9-6 
0-2 1-12 2-3 3-1 4-8 5-10 6-10 7-12 8-6 9-9 10-10 11-12 12-3 13-10 14-12 15-11 16-3 17-12 
0-11 1-6 2-8 3-3 4-4 5-9 6-5 7-8 8-9 9-10 10-11 
0-1 1-9 2-1 3-2 4-3 5-4 6-7 7-17 8-6 9-6 10-6 11-9 12-11 13-12 14-9 15-14 16-15 17-16 18-17 
0-0 1-2 2-13 3-8 4-18 5-1 6-18 7-13 8-3 9-8 10-8 11-7 12-8 13-0 14-11 15-13 16-8 17-0 18-14 19-0 20-0 21-17 22-18 
0-0 1-2 2-8 3-3 4-4 5-6 6-5 7-7 8-8 
0-1 1-9 2-0 3-2 4-3 5-26 6-17 7-6 8-7 9-9 10-26 11-11 12-0 13-12 14-1 15-15 16-1 17-17 18-14 19-5 20-5 21-5 22-17 23-23 24-25 25-26 
0-0 1-0 2-1 3-2 4-0 
0-10 1-10 2-1 3-10 4-3 5-10 6-10 7-9 8-5 9-2 10-10 11-8 12-10 
0-12 1-3 2-0 3-4 4-9 5-7 6-1 7-10 8-12 
0-0 1-1 2-2 3-0 4-4 5-5 6-6 7-7 8-8 9-5 10-16 11-11 12-6 13-16 14-5 15-13 16-15 17-0 18-16 19-5 20-0 21-22 22-10 23-11 24-16 25-19 26-20 27-5 28-20 29-23 
0-0 1-5 2-1 3-2 4-3 5-3 6-7 7-5 8-7 9-5 10-6 11-5 12-9 13-7 14-10 15-12 16-5 17-11 18-7 
0-20 1-2 2-13 3-26 4-7 5-4 6-7 7-0 8-7 9-9 10-8 11-6 12-0 13-15 14-20 15-14 16-16 17-6 18-0 19-21 20-18 21-6 22-3 23-24 24-6 25-6 26-0 27-3 28-26 
0-0 1-10 2-2 3-8 4-10 5-10 6-10 7-10 8-11 9-8 10-1 11-4 12-6 13-7 14-10 15-5 16-12 
0-4 1-5 2-5 3-5 4-2 5-5 6-3 7-0 8-1 9-5 10-8 11-7 12-8 
0-21 1-1 2-0 3-3 4-4 5-5 6-3 7-4 8-8 9-9 10-16 11-17 12-18 13-12 14-14 15-13 16-21 
0-6 1-4 2-2 3-9 4-6 5-3 6-14 7-8 8-0 9-7 10-8 11-12 12-0 13-4 14-12 15-0 16-14 17-16 
0-11 1-19 2-3 3-19 4-10 5-3 6-11 7-12 8-16 9-3 10-11 11-2 12-3 13-19 14-11 15-6 16-19 17-4 18-3 19-3 20-16 21-5 22-3 23-19 24-8 25-7 26-19 
0-2 1-2 2-1 3-2 4-3 5-2 6-2 7-0 8-5 
0-3 1-4 2-5 3-8 4-6 5-10 6-10 7-8 8-11 9-12 10-4 11-14 12-15 13-8 14-2 15-12 16-2 17-8 18-2 19-8 20-8 21-8 22-17 
0-7 1-0 2-1 3-3 4-4 5-3 6-7 7-6 8-7 
0-2 1-1 2-6 3-3 4-0 5-6 6-8 7-9 8-7 9-9 10-6 11-11 12-12 
0-3 1-3 2-0 3-3 
0-1 1-2 2-13 3-12 4-5 5-5 6-11 7-5 8-6 9-9 10-8 11-13 12-10 13-11 14-11 15-13 
0-3 1-19 2-4 3-2 4-0 5-1 6-6 7-6 8-6 9-8 10-7 11-10 12-10 13-8 14-16 15-2 16-15 17-6 18-6 19-8 20-6 21-12 22-20 23-21 
0-0 1-1 2-12 3-6 4-2 5-8 6-1 7-6 8-10 9-4 10-8 11-12 
0-24 1-7 2-9 3-5 4-24 5-9 6-7 7-9 8-16 9-17 10-9 11-24 12-12 13-6 14-9 15-14 16-4 17-9 18-4 19-9 20-17 21-18 22-19 23-0 24-21 25-0 26-24 27-22 28-24 
0-11 1-1 2-2 3-3 4-3 5-4 6-6 7-19 8-9 9-16 10-5 11-14 12-15 13-16 14-20 15-17 16-13 17-20 
0-0 1-1 2-5 3-24 4-7 5-24 6-2 7-4 8-5 9-4 10-23 11-7 12-12 13-21 14-11 15-18 16-12 17-21 18-7 19-18 20-11 21-20 22-5 23-20 24-0 25-23 26-24 
0-3 1-3 2-0 3-1 4-1 5-3 6-2 7-3 
0-2 1-2 2-26 3-0 4-4 5-6 6-1 7-13 8-5 9-1 10-8 11-7 12-1 13-8 14-10 15-9 16-11 17-15 18-16 19-17 20-18 21-1 22-8 23-25 24-22 25-1 26-13 27-3 28-26 
0-3 1-2 2-3 3-4 4-3 5-5 6-6 7-21 8-3 9-12 10-3 11-12 12-3 13-17 14-2 15-0 16-21 17-2 18-3 19-14 20-3 21-3 22-15 23-10 24-16 25-17 26-20 27-21 
0-0 1-1 2-2 3-3 4-4 5-3 6-7 7-7 
0-17 1-14 2-13 3-15 4-17 5-2 6-3 7-3 8-4 9-8 10-4 11-17 12-4 13-1 14-1 15-9 16-0 17-16 18-17 19-11 20-4 21-9 22-17 
0-9 1-10 2-9 3-12 4-15 5-11 6-11 7-2 8-2 9-2 10-9 11-1 12-5 13-6 14-1 15-7 16-20 17-16 18-20 19-0 20-17 21-19 22-1 23-17 24-18 25-17 
0-0 1-1 2-5 3-5 4-6 5-8 6-7 7-9 8-10 9-12 10-11 11-12 
0-0 1-1 2-10 3-4 4-2 5-19 6-3 7-6 8-7 9-11 10-8 11-6 12-10 13-11 14-13 15-12 16-15 17-16 18-15 19-11 20-18 21-11 22-17 23-19 
0-0 1-1 2-0 3-2 4-0 5-4 6-3 7-0 
0-0 1-1 2-20 3-20 4-5 5-5 6-20 7-4 8-5 9-6 10-12 11-20 12-13 13-5 14-11 15-9 16-10 17-9 18-16 19-20 20-9 21-5 22-15 23-16 24-7 25-19 26-9 27-20 
0-0 1-1 2-2 3-3 4-5 5-4 6-0 7-8 8-5 9-9 10-11 
0-1 1-9 2-1 3-2 4-3 5-3 6-4 7-5 8-7 9-6 10-11 11-9 12-10 13-11 14-9 15-12 16-13 
0-0 1-3 2-5 3-6 4-7 5-8 
0-0 1-1 2-1 3-6 4-6 5-5 6-4 7-6 
0-0 1-1 2-3 3-2 4-4 5-6 6-7 7-10 8-5 9-8 10-7 11-5 12-9 13-12 
0-0 1-1 2-2 3-8 4-3 5-8 6-6 7-6 8-14 9-11 10-14 11-6 12-10 13-8 14-6 15-13 16-14 17-6 18-15 19-16 
0-0 1-1 2-1 3-0 4-1 5-4 
0-2 1-2 2-0 3-2 4-1 5-7 
0-1 1-8 2-1 3-2 4-3 5-5 6-6 7-7 8-8 
0-4 1-4 2-0 3-11 4-2 5-4 6-4 7-5 8-0 9-0 10-7 11-8 12-9 13-10 14-11 
0-0 1-14 2-2 3-18 4-3 5-18 6-14 7-6 8-7 9-1 10-1 11-2 12-1 13-10 14-18 15-6 16-14 17-18 
0-0 1-0 2-0 3-2 4-3 5-10 6-10 7-0 8-8 9-0 10-1 11-0 12-2 13-2 14-10 15-4 16-10 
0-0 1-11 2-1 3-2 4-3 5-5 6-2 7-9 8-3 9-9 10-8 11-9 12-10 13-17 14-14 15-11 16-11 17-14 18-15 19-17 
0-10 1-2 2-14 3-5 4-11 5-1 6-14 7-4 8-6 9-11 10-7 11-2 12-9 13-10 14-11 15-8 16-11 17-11 18-12 19-14 
0-0 1-1 2-2 3-3 4-4 
0-7 1-2 2-2 3-3 4-3 5-0 6-3 7-6 8-7 9-5 10-8 11-10 
0-0 1-2 2-3 3-2 4-6 5-6 6-5 7-7 8-12 9-18 10-9 11-19 12-11 13-12 14-6 15-13 16-9 17-10 18-19 19-7 20-10 21-16 22-19 23-17 24-9 25-19 26-12 27-20 28-21 
0-0 1-1 2-2 3-3 4-4 5-5 6-6 7-7 8-8 9-10 10-9 11-11 
0-3 1-10 2-4 3-5 4-1 5-11 6-16 7-7 8-8 9-10 10-14 11-7 12-9 13-14 14-15 15-14 16-17 
0-2 1-7 2-2 3-2 4-9 5-7 6-3 7-0 8-0 9-17 10-14 11-3 12-20 13-7 14-0 15-12 16-0 17-18 18-20 19-20 
0-1 1-4 2-0 3-1 4-1 5-3 6-4 7-1 8-4 9-10 10-1 11-9 12-10 13-1 14-0 15-12 16-10 17-1 18-7 19-16 20-15 21-10 22-19 23-20 
0-0 1-1 2-2 3-11 4-3 5-14 6-4 7-8 8-11 9-5 10-6 11-7 12-10 13-9 14-12 15-13 16-14 
0-2 1-2 2-3 3-3 4-0 5-3 
0-0 1-4 2-0 3-8 4-6 5-7 6-8 7-9 8-10 9-9 10-8 11-1 12-1 13-11 
0-7 1-10 2-6 3-1 4-2 5-11 6-1 7-1 8-11 
0-1 1-2 2-3 3-4 4-2 5-8 6-5 7-1 8-13 9-9 10-11 11-9 12-4 13-2 14-2 15-18 16-15 17-16 18-6 19-19 20-2 21-22 22-21 23-23 
0-2 1-3 2-6 3-9 4-10 5-9 6-2 7-13 8-16 
0-8 1-13 2-3 3-4 4-5 5-4 6-6 7-7 8-4 9-13 10-8 11-9 12-6 13-4 14-4 15-4 16-10 17-13 
0-3 1-0 2-3 3-7 4-8 5-12 6-10 7-11 8-9 9-2 10-3 11-3 12-1 13-13 
0-0 1-10 2-1 3-2 4-3 5-5 6-10 7-9 8-10 
0-0 1-0 2-6 3-3 4-5 5-0 6-4 7-6 
0-19 1-1 2-11 3-8 4-12 5-4 6-2 7-2 8-19 9-8 10-3 11-6 12-19 13-12 14-11 15-18 16-19 17-16 18-8 19-14 20-5 21-12 22-15 23-19 
0-9 1-9 2-1 3-9 4-9 5-6 6-9 7-9 8-5 9-0 10-7 11-9 12-2 13-1 14-9 
0-0 1-1 2-7 3-7 4-2 5-3 6-11 7-6 8-11 
0-2 1-3 2-2 3-2 4-2 5-9 6-5 7-11 8-2 9-0 10-0 11-11 
0-0 1-1 2-2 3-4 4-5 5-7 6-6 7-7 8-9 9-10 10-11 11-12 
0-1 1-0 2-1 
0-8 1-4 2-1 3-2 4-3 5-5 6-13 7-0 8-0 9-6 10-0 11-8 12-9 13-13 
0-2 1-1 2-4 3-22 4-5 5-1 6-22 7-15 8-8 9-9 10-15 11-12 12-14 13-13 14-1 15-22 16-15 17-18 18-9 19-20 20-22 21-19 22-20 23-21 24-22 
0-3 1-6 2-17 3-17 4-13 5-12 6-8 7-6 8-11 9-17 10-15 11-17 12-17 13-16 14-17 
0-0 1-2 2-0 3-3 4-4 5-5 6-9 7-7 8-19 9-6 10-25 11-10 12-25 13-20 14-0 15-11 16-13 17-13 18-13 19-20 20-0 21-0 22-0 23-21 24-23 25-0 26-25 
0-0 1-1 2-0 3-4 
0-0 1-0 2-1 3-11 4-1 5-1 6-2 7-3 8-4 9-5 10-1 11-1 12-7 13-8 14-9 15-10 16-11 17-12 18-13 
0-0 1-1 2-7 3-2 4-6 5-4 6-2 7-5 8-4 9-8 10-10 11-7 12-7 13-14 14-4 15-15 16-14 17-17 18-9 19-19 
0-0 1-2 2-1 3-2 4-3 5-4 6-5 7-12 8-5 9-5 10-12 11-12 12-7 13-8 14-8 15-5 16-12 17-11 18-3 19-0 20-12 
0-22 1-5 2-6 3-24 4-8 5-16 6-0 7-22 8-13 9-22 10-15 11-16 12-17 13-18 14-22 15-0 16-15 17-16 18-22 19-0 20-19 21-8 22-22 23-3 24-15 25-16 26-0 27-22 28-16 29-25 
0-2 1-2 2-0 3-0 4-1 5-4 6-2 7-4 8-4 
0-0 1-6 2-1 3-2 4-3 5-15 6-20 7-25 8-12 9-4 10-5 11-6 12-7 13-8 14-9 15-15 16-11 17-18 18-18 19-14 20-15 21-15 22-6 23-3 24-16 25-26 
0-0 1-2 2-1 3-3 4-6 5-0 6-6 7-0 8-9 9-3 10-10 
0-0 1-1 2-2 3-3 4-4 5-7 6-15 7-7 8-15 9-15 10-9 11-6 12-10 13-5 14-15 15-5 16-5 17-15 18-16 19-5 20-18 
0-2 1-13 2-21 3-17 4-7 5-8 6-6 7-7 8-8 9-24 10-10 11-6 12-5 13-11 14-24 15-6 16-14 17-15 18-0 19-16 20-0 21-16 22-6 23-17 24-18 25-21 26-17 27-24 28-23 29-24 
0-0 1-8 2-1 3-8 4-2 5-17 6-17 7-5 8-17 9-8 10-5 11-6 12-7 13-5 14-8 15-5 16-8 17-8 18-5 19-8 20-13 21-17 
0-7 1-5 2-5 3-0 4-1 5-3 6-3 7-0 8-4 9-5 10-15 11-17 12-6 13-0 14-3 15-3 16-3 17-13 18-0 19-9 20-6 21-16 22-16 23-6 24-16 25-3 26-19 
0-0 1-3 2-4 3-6 4-7 5-2 6-6 7-9 8-10 9-6 10-12 11-13 12-14 13-15 14-0 15-0 16-6 17-2 18-6 19-14 20-18 21-20 22-6 23-23 
0-1 1-2 2-15 3-3 4-4 5-0 6-15 7-8 8-6 9-7 10-8 11-7 12-6 13-12 14-1 15-0 16-1 17-21 18-12 19-15 20-16 21-12 22-19 23-18 24-21 25-17 26-12 27-25 28-24 29-26 
0-0 1-3 2-0 3-8 4-1 5-3 6-11 7-3 8-8 9-8 10-6 11-0 12-7 13-8 14-0 15-10 16-8 17-0 18-9 19-11 
0-15 1-1 2-27 3-15 4-0 5-5 6-2 7-8 8-18 9-9 10-10 11-27 12-24 13-21 14-2 15-21 16-18 17-19 18-3 19-0 20-23 21-24 22-17 23-2 24-0 25-25 26-20 27-21 28-27 
0-5 1-17 2-18 3-0 4-2 5-3 6-4 7-5 8-7 9-17 10-8 11-9 12-18 13-13 14-17 15-14 16-12 17-17 18-18 19-5 20-12 21-5 
0-0 1-1 2-12 3-0 4-3 5-22 6-7 7-3 8-8 9-22 10-11 11-22 12-25 13-7 14-14 15-16 16-1 17-23 18-19 19-22 20-25 21-24 22-22 23-22 24-22 25-22 26-22 27-25 28-4 29-25 
0-1 1-1 2-0 3-2 4-4 5-5 6-6 7-7 8-8 9-21 10-3 11-10 12-13 13-14 14-15 15-16 16-21 17-17 18-18 19-20 20-19 21-21 
0-6 1-1 2-2 3-3 4-4 5-1 6-6 7-21 8-13 9-1 10-6 11-14 12-21 13-12 14-13 15-14 16-15 17-16 18-6 19-21 20-13 21-2 22-19 23-20 24-21 
0-0 1-11 2-2 3-0 4-11 5-11 6-0 7-0 8-11 9-0 10-0 11-11 12-0 13-6 14-6 15-0 16-6 17-0 18-6 19-0 20-11 21-7 22-11 
0-13 1-3 2-5 3-16 4-5 5-8 6-5 7-7 8-5 9-11 10-12 11-5 12-5 13-16 
0-14 1-16 2-18 3-0 4-2 5-3 6-4 7-5 8-6 9-24 10-14 11-20 12-4 13-14 14-23 15-22 16-24 17-4 18-14 19-12 20-14 21-4 22-27 
0-8 1-6 2-14 3-16 4-4 5-6 6-11 7-7 8-11 9-8 10-11 11-11 12-5 13-11 14-11 15-13 16-15 17-16 
0-11 1-1 2-11 3-0 4-4 5-15 6-11 7-7 8-8 9-10 10-11 11-10 12-12 13-13 14-10 15-17 
0-0 1-4 2-5 3-6 4-7 5-15 6-2 7-6 8-10 9-5 10-10 11-1 12-5 13-1 14-9 15-15 
0-0 1-2 2-4 3-2 4-3 5-5 6-7 7-7 
0-1 1-1 2-7 3-2 4-6 5-17 6-10 7-5 8-0 9-4 10-13 11-23 12-19 13-21 14-6 15-4 16-9 17-17 18-6 19-4 20-2 21-23 
0-15 1-12 2-1 3-2 4-3 5-3 6-5 7-3 8-6 9-7 10-3 11-15 12-10 13-12 14-13 15-14 16-15 
0-6 1-2 2-1 3-2 4-2 5-6 6-6 7-0 8-6 9-6 10-2 11-3 12-6 13-6 14-6 
0-9 1-1 2-3 3-4 4-3 5-5 6-6 7-4 8-0 9-0 10-9 11-0 12-9 
0-3 1-16 2-8 3-1 4-4 5-16 6-16 7-5 8-8 9-8 10-9 11-11 12-6 13-10 14-16 15-2 16-6 17-16 18-16 19-16 20-16 21-6 22-14 23-6 24-18 25-17 26-19 27-21 28-23 
0-0 1-1 2-4 3-2 4-4 5-3 6-2 7-6 8-7 9-8 10-6 11-10 12-11 13-14 14-12 15-4 16-13 17-19 18-2 19-6 20-16 21-8 22-18 23-20 
0-1 1-2 2-5 3-5 4-0 5-1 6-5 
0-7 1-1 2-7 3-0 4-2 5-5 6-7 7-7 8-7 9-7 10-7 11-8 12-7 13-6 14-5 15-9 
0-12 1-8 2-5 3-10 4-12 5-11 6-7 7-6 8-5 9-5 10-4 11-12 
0-0 1-1 2-2 3-4 4-5 5-8 6-4 7-13 8-15 9-6 10-20 11-19 12-22 13-13 14-6 15-23 16-24 17-11 18-13 19-13 20-13 21-6 22-13 23-8 24-22 25-24 
0-0 1-1 2-15 3-20 4-20 5-1 6-12 7-0 8-5 9-4 10-6 11-12 12-7 13-8 14-9 15-6 16-1 17-12 18-0 19-11 20-12 21-12 22-1 23-24 
0-7 1-7 2-2 3-3 4-4 5-5 6-6 7-7 8-7 9-3 10-3 11-3 12-7 
0-3 1-4 2-0 3-4 4-0 5-1 6-4 
0-0 1-1 2-2 3-3 4-1 5-4 6-5 7-6 8-5 9-8 10-9 11-12 12-16 13-12 14-1 15-13 16-14 17-15 18-23 19-18 20-21 21-24 22-25 23-1 24-24 25-26 
0-3 1-4 2-17 3-5 4-8 5-1 6-0 7-3 8-3 9-8 10-9 11-10 12-11 13-1 14-8 15-17 16-9 17-16 18-7 19-8 20-3 21-16 22-19 
0-0 1-2 2-3 3-2 4-6 5-1 6-10 7-19 8-6 9-14 10-12 11-8 12-12 13-6 14-22 15-17 16-19 17-6 18-21 19-20 20-23 21-24 
0-0 1-0 2-2 3-4 4-3 5-4 6-5 7-7 8-7 9-8 10-9 
0-5 1-0 2-0 3-4 4-5 
0-7 1-10 2-9 3-2 4-0 5-12 6-1 7-2 8-12 9-3 10-4 11-12 12-2 13-10 14-12 15-9 16-7 17-8 18-9 19-7 20-12 21-10 22-12 23-11 24-12 
0-7 1-7 2-1 3-4 4-1 5-3 6-5 7-5 8-6 9-7 10-5 11-8 12-8 13-10 14-7 15-12 16-14 
0-6 1-7 2-6 3-8 4-9 5-6 6-10 7-1 8-3 9-2 10-11 11-12 12-13 13-15 14-14 15-4 16-11 17-6 18-2 19-20 20-21 
0-0 1-1 2-2 3-9 4-11 5-12 6-11 7-13 8-8 9-15 10-9 11-12 12-17 13-12 14-4 15-12 16-17 17-15 18-3 19-18 20-17 21-13 22-7 23-19 
0-19 1-19 2-3 3-19 4-3 5-4 6-7 7-5 8-3 9-7 10-7 11-7 12-7 13-9 14-13 15-19 16-7 17-12 18-13 19-7 20-15 21-13 22-7 23-0 24-17 25-19 
0-2 1-21 2-0 3-13 4-4 5-5 6-6 7-4 8-7 9-8 10-4 11-21 12-4 13-0 14-1 15-3 16-1 17-9 18-7 19-21 20-6 21-17 22-4 23-0 24-20 25-20 26-21 
0-8 1-1 2-6 3-3 4-4 5-5 6-6 7-7 8-8 9-3 10-11 11-10 12-12 13-15 14-8 15-15 16-16 17-1 18-18 19-19 
0-4 1-16 2-4 3-0 4-8 5-2 6-3 7-4 8-5 9-7 10-8 11-9 12-13 13-0 14-8 15-8 16-14 17-16 
0-0 1-7 2-7 3-7 4-4 5-2 6-7 7-4 8-4 9-10 10-10 
0-2 1-6 2-1 3-4 4-3 5-6 6-7 7-8 8-9 9-11 10-8 11-3 12-13 13-3 14-3 15-15 16-8 17-3 18-3 19-6 20-21 21-8 22-6 23-20 24-19 25-22 
0-8 1-0 2-5 3-2 4-2 5-4 6-2 7-4 8-7 9-8 10-9 11-10 
0-2 1-4 2-3 3-4 4-5 5-0 6-6 7-7 8-8 9-9 10-7 11-13 12-9 13-10 14-11 15-9 16-12 17-14 18-16 19-15 20-22 21-18 22-9 23-18 24-9 25-7 26-7 27-22 28-11 29-22 
0-0 1-1 2-2 3-3 4-19 5-20 6-16 7-26 8-6 9-8 10-1 11-10 12-16 13-20 14-2 15-19 16-20 17-0 18-16 19-20 20-16 21-28 
0-0 1-18 2-0 3-3 4-4 5-5 6-6 7-7 8-9 9-8 10-10 11-7 12-9 13-12 14-15 15-15 16-17 17-7 18-18 19-7 20-7 21-1 22-18 
0-1 1-4 2-18 3-12 4-18 5-8 6-3 7-12 8-12 9-18 10-6 11-4 12-4 13-7 14-12 15-7 16-7 17-3 18-12 19-2 20-18 
0-0 1-2 2-4 3-7 4-11 5-13 6-3 7-5 8-6 9-7 10-8 11-9 12-1 13-11 14-10 15-13 16-10 17-11 18-12 19-1 20-0 21-11 22-17 23-18 
0-0 1-1 2-14 3-1 4-4 5-17 6-4 7-14 8-3 9-7 10-11 11-2 12-11 13-10 14-11 15-10 16-8 17-16 18-14 19-15 20-14 21-5 22-22 23-10 24-0 25-4 26-20 27-21 28-22 
0-6 1-8 2-7 3-8 4-10 5-8 6-12 7-5 8-2 9-3 10-6 11-2 12-12 
0-25 1-4 2-1 3-25 4-12 5-3 6-10 7-19 8-25 9-25 10-9 11-5 12-13 13-15 14-5 15-17 16-17 17-18 18-19 19-19 20-19 21-25 22-15 23-1 24-27 
0-0 1-2 2-1 3-2 4-4 5-5 
0-7 1-7 2-0 3-4 4-6 5-23 6-5 7-7 8-2 9-9 10-10 11-2 12-13 13-10 14-12 15-10 16-15 17-16 18-10 19-18 20-1 21-10 22-10 23-2 24-21 25-21 26-23 
0-0 1-2 2-2 3-3 4-4 5-1 6-4 7-5 
0-0 1-1 2-5 3-16 4-16 5-5 6-5 7-16 8-16 9-9 10-10 11-5 12-16 13-15 14-14 15-9 16-7 17-11 18-16 
0-1 1-4 2-2 3-9 4-18 5-10 6-10 7-5 8-14 9-18 10-1 11-5 12-15 13-16 14-18 
0-0 1-15 2-5 3-13 4-8 5-7 6-3 7-10 8-2 9-6 10-13 11-4 12-15 13-26 14-16 15-20 16-26 17-23 18-2 19-25 20-26 
0-4 1-1 2-4 3-1 4-1 5-2 6-0 7-11 8-13 9-4 10-5 11-1 12-7 13-1 14-1 15-1 16-9 17-16 
0-1 1-12 2-2 3-3 4-14 5-5 6-8 7-5 8-18 9-8 10-13 11-14 12-5 13-0 14-18 15-10 16-11 17-11 18-10 19-14 20-18 21-11 22-18 
0-0 1-14 2-8 3-3 4-1 5-1 6-17 7-9 8-16 9-3 10-7 11-4 12-3 13-24 14-6 15-12 16-13 17-19 18-8 19-8 20-24 21-8 22-3 23-23 24-22 25-29 
0-5 1-6 2-17 3-17 4-4 5-1 6-17 7-0 8-3 9-17 10-17 11-11 12-0 13-17 14-9 15-8 16-17 17-10 18-12 19-0 20-14 21-13 22-15 23-17 
0-1 1-2 2-12 3-8 4-0 5-12 6-3 7-7 8-6 9-8 10-8 11-9 12-10 13-6 14-12 
0-0 1-1 2-3 3-4 4-5 5-5 6-7 7-5 8-6 9-7 10-5 11-9 12-5 13-11 14-7 15-13 16-7 17-15 18-14 19-17 20-18 21-21 
0-7 1-7 2-7 3-0 4-1 5-3 6-7 7-7 8-4 9-5 10-7 
0-6 1-1 2-7 3-7 4-2 5-6 6-7 7-4 8-6 9-1 10-5 11-7 
0-16 1-16 2-16 3-11 4-1 5-16 6-6 7-3 8-12 9-16 10-16 11-16 12-13 13-16 14-16 15-12 16-12 17-16 
0-0 1-1 2-9 3-2 4-3 5-4 6-9 7-8 8-9 9-9 
0-2 1-1 2-4 3-2 4-2 5-2 6-9 7-2 8-9 9-9 
0-0 1-1 2-6 3-0 4-0 5-1 6-6 7-9 
0-6 1-6 2-6 3-4 4-6 5-6 6-6 7-4 8-2 9-6 
0-5 1-13 2-1 3-13 4-0 5-3 6-4 7-3 8-5 9-9 10-10 11-7 12-10 13-5 14-10 15-6 16-10 17-5 18-13 19-5 20-5 21-12 22-13 
0-6 1-5 2-6 3-0 4-0 5-1 6-0 7-6 8-0 9-4 10-0 11-10 12-0 13-9 14-11 
0-4 1-4 2-1 3-2 4-4 5-0 6-2 7-10 8-8 9-6 10-18 11-13 12-14 13-6 14-2 15-7 16-20 17-21 
0-0 1-1 2-0 3-1 4-1 5-2 6-5 7-4 8-0 9-1 10-3 11-6 12-7 13-0 14-14 15-12 16-0 17-1 18-20 19-14 20-6 21-1 22-1 23-18 24-20 
0-0 1-0 2-0 3-1 4-4 5-0 6-0 7-0 8-6 
0-11 1-6 2-5 3-7 4-11 5-10 6-9 7-4 8-8 9-11 10-0 11-8 12-8 13-11 
0-4 1-0 2-3 3-2 4-4 5-13 6-4 7-4 8-5 9-6 10-4 11-10 12-4 13-4 14-4 15-6 16-13 
0-0 1-1 2-2 3-3 4-4 
0-0 1-1 2-2 3-3 4-4 
0-12 1-1 2-2 3-13 4-4 5-5 6-12 7-7 8-2 9-3 10-10 11-7 12-12 13-11 14-15 
0-2 1-0 2-7 3-5 4-3 5-4 6-5 7-6 8-7 9-8 10-11 11-5 12-8 13-10 14-9 15-12 
0-3 1-5 2-4 3-7 4-7 5-8 6-9 
0-14 1-18 2-2 3-18 4-0 5-3 6-18 7-8 8-14 9-14 10-11 11-7 12-8 13-8 14-2 15-14 16-14 17-8 18-8 19-18 
0-2 1-0 2-13 3-9 4-9 5-9 6-14 7-7 8-13 9-9 10-9 11-14 12-8 13-13 14-16 
0-2 1-17 2-1 3-2 4-3 5-4 6-1 7-2 8-7 9-8 10-1 11-9 12-9 13-10 14-12 15-2 16-14 17-15 18-9 19-9 20-16 21-17 
0-3 1-4 2-2 3-0 4-10 5-1 6-2 7-5 8-10 9-8 10-10 11-10 12-10 13-10 14-14 15-15 16-16 17-5 18-6 19-10 20-10 21-0 22-6 23-19 
0-14 1-6 2-5 3-11 4-7 5-14 6-10 7-4 8-14 9-8 10-11 11-13 12-12 13-14 
0-0 1-14 2-3 3-2 4-5 5-2 6-1 7-2 8-9 9-7 10-11 11-14 12-9 13-9 14-9 15-13 16-17 17-19 
0-0 1-1 2-2 3-3 4-6 5-3 6-4 7-6 
0-0 1-1 2-2 3-0 4-3 5-2 6-7 7-6 8-12 9-13 10-2 11-17 12-18 13-2 14-19 15-0 16-8 17-2 18-0 19-11 20-20 
0-27 1-4 2-22 3-16 4-8 5-7 6-6 7-1 8-3 9-10 10-27 11-11 12-12 13-13 14-14 15-15 16-3 17-10 18-17 19-27 20-11 21-12 22-13 23-21 24-22 25-5 26-27 27-24 28-25 29-27 
0-0 1-1 2-7 3-1 4-2 5-3 6-6 7-3 8-4 9-8 10-20 11-9 12-1 13-0 14-0 15-14 16-8 17-24 18-9 19-16 20-22 21-23 22-26 
0-0 1-13 2-2 3-25 4-8 5-7 6-13 7-9 8-7 9-25 10-5 11-5 12-7 13-10 14-11 15-8 16-10 17-25 18-14 19-15 20-7 21-8 22-9 23-6 24-21 25-25 26-9 27-25 28-13 29-25 
0-0 1-1 2-7 3-10 4-7 5-7 6-0 7-7 8-5 9-5 10-7 11-9 12-5 13-8 14-10 
0-0 1-0 2-16 3-16 4-16 5-7 6-9 7-16 8-3 9-0 10-3 11-7 12-9 13-0 14-0 15-10 16-9 17-0 18-7 19-0 20-9 21-11 22-0 23-12 24-9 25-3 26-16 
0-0 1-1 2-4 3-12 4-10 5-18 6-9 7-10 8-12 9-10 10-13 11-5 12-16 13-18 
0-0 1-6 2-1 3-2 4-3 5-4 6-17 7-7 8-17 9-2 10-7 11-16 12-8 13-17 14-17 15-17 16-17 17-17 18-10 19-12 20-17 21-17 22-14 23-17 24-17 25-13 26-1 27-17 
0-9 1-1 2-0 3-6 4-9 5-4 6-5 7-9 8-7 9-9 10-2 11-2 12-9 13-9 14-10 15-11 16-14 17-11 18-12 19-13 20-14 
0-0 1-2 2-7 3-2 4-7 5-4 6-5 7-7 8-6 9-7 
0-0 1-1 2-2 3-3 4-0 5-3 6-5 7-3 8-3 9-6 10-0 11-0 12-0 13-0 14-3 15-7 16-0 
0-21 1-3 2-2 3-4 4-5 5-6 6-7 7-8 8-1 9-11 10-9 11-12 12-21 13-0 14-1 15-6 16-20 17-8 18-6 19-12 20-8 21-6 22-10 23-17 24-18 25-19 26-21 
0-5 1-5 2-1 3-2 4-4 5-2 6-3 7-5 
0-1 1-2 2-3 3-4 4-0 5-5 6-1 7-6 8-0 9-10 
0-2 1-4 2-3 3-3 4-15 5-3 6-10 7-12 8-4 9-6 10-9 11-14 12-4 13-19 14-6 15-4 16-18 17-20 
0-1 1-2 2-1 3-9 4-7 5-1 6-16 7-1 8-2 9-9 10-9 11-7 12-14 13-9 14-9 15-16 
0-2 1-3 2-0 3-1 4-10 5-11 6-5 7-0 8-1 9-5 10-7 11-6 12-0 13-8 14-14 
0-9 1-4 2-3 3-4 4-5 5-4 6-3 7-3 8-7 9-10 
0-0 1-4 2-7 3-8 4-10 5-7 6-5 7-4 8-4 9-2 10-1 11-14 12-4 13-15 14-16 15-7 16-4 17-1 18-2 19-3 20-17 
0-23 1-0 2-1 3-2 4-4 5-5 6-6 7-22 8-7 9-15 10-23 11-8 12-9 13-10 14-13 15-14 16-20 17-4 18-19 19-15 20-16 21-17 22-23 
0-2 1-7 2-20 3-0 4-1 5-2 6-4 7-3 8-5 9-6 10-8 11-0 12-0 13-10 14-11 15-11 16-0 17-20 18-14 19-15 20-17 21-11 22-4 23-17 24-20 
0-0 1-0 2-3 3-2 4-6 5-8 
0-0 1-2 2-19 3-4 4-3 5-5 6-13 7-5 8-5 9-7 10-0 11-12 12-5 13-11 14-5 15-16 16-18 17-5 18-19 
0-0 1-4 2-0 3-0 4-3 5-2 6-4 7-5 8-6 
0-5 1-0 2-1 3-1 4-3 5-3 6-5 7-4 8-5 
0-0 1-0 2-0 3-1 
0-6 1-10 2-19 3-5 4-6 5-19 6-1 7-4 8-19 9-6 10-0 11-0 12-10 13-19 14-17 15-19 16-19 17-12 18-4 19-1 20-1 21-10 22-19 23-14 24-6 25-19 26-18 27-20 28-21 
0-0 1-0 2-3 3-10 4-2 5-8 6-4 7-10 
0-3 1-11 2-3 3-4 4-13 5-5 6-1 7-3 8-1 9-11 10-1 11-3 12-9 13-8 14-11 15-10 16-3 17-14 18-15 19-11 20-12 21-17 
0-1 1-1 2-7 3-10 4-8 5-0 6-1 7-5 8-14 
0-22 1-8 2-1 3-22 4-1 5-6 6-15 7-22 8-1 9-22 10-4 11-19 12-22 13-14 14-22 15-22 16-12 17-19 18-22 19-14 20-22 21-0 22-22 23-7 24-22 25-22 26-16 27-22 
0-0 1-1 2-2 3-3 4-18 5-19 6-0 7-12 8-12 9-12 10-12 11-12 12-11 13-2 14-18 15-19 16-18 17-21 18-22 19-18 20-23 21-26 22-28 23-12 24-27 25-28 
0-0 1-3 2-4 3-3 4-5 5-7 
0-0 1-1 2-2 3-17 4-4 5-5 6-6 7-17 8-17 9-7 10-5 11-9 12-17 13-11 14-17 15-17 16-10 17-5 18-13 19-17 20-3 21-17 
0-0 1-2 2-15 3-1 4-7 5-8 6-9 7-8 8-17 9-0 10-12 11-14 12-10 13-17 
0-5 1-1 2-5 3-2 4-4 5-5 6-6 7-7 
0-0 1-1 2-4 3-4 4-12 5-4 6-5 7-7 8-8 9-5 10-6 11-9 12-4 13-3 14-12 15-5 16-12 17-5 18-13 19-14 20-15 
0-4 1-7 2-5 3-8 4-1 5-2 6-7 7-8 8-14 9-10 10-11 11-8 12-13 13-14 14-12 15-14 
0-0 1-0 2-2 3-2 4-2 5-16 6-3 7-5 8-6 9-2 10-7 11-6 12-6 13-16 14-2 15-10 16-2 17-6 18-15 19-16 
0-4 1-0 2-6 3-12 4-0 5-12 6-9 7-18 8-9 9-0 10-9 11-9 12-10 13-11 14-6 15-4 16-5 17-6 18-7 19-8 20-12 21-18 22-18 23-4 24-4 25-18 26-6 27-15 28-18 
0-0 1-1 2-2 3-3 4-1 5-4 6-11 7-9 8-10 9-8 10-20 11-17 12-17 13-9 14-9 15-21 
0-11 1-11 2-3 3-0 4-6 5-0 6-7 7-9 8-9 9-11 10-11 11-0 12-12 13-13 14-10 15-13 16-13 
0-0 1-0 2-2 3-3 4-4 5-5 6-21 7-7 8-3 9-21 10-5 11-3 12-9 13-11 14-10 15-12 16-5 17-19 18-5 19-3 20-21 21-3 22-3 23-21 24-16 25-15 26-19 27-20 28-21 
0-9 1-0 2-1 3-6 4-12 5-0 6-14 7-0 8-1 9-2 10-14 11-14 12-7 13-14 
0-1 1-2 2-3 3-0 4-6 5-7 6-8 7-9 
0-1 1-2 2-0 3-1 4-1 5-3 6-1 7-5 8-6 9-6 10-8 11-9 
0-3 1-13 2-4 3-7 4-1 5-10 6-7 7-10 8-7 9-9 10-1 11-10 12-11 13-12 14-13 
0-0 1-1 2-5 3-2 4-4 5-5 6-6 7-7 
0-4 1-5 2-5 3-4 4-1 5-4 6-5 7-4 8-2 9-4 10-4 11-5 12-5 13-6 14-7 
0-0 1-0 2-1 3-12 4-14 5-7 6-9 7-14 8-8 9-18 10-4 11-0 12-16 13-14 14-12 15-17 16-12 17-11 18-13 19-14 20-15 21-18 
0-0 1-4 2-1 3-2 4-4 5-0 6-5 7-6 8-6 9-9 10-10 
0-0 1-2 2-0 3-5 4-5 5-3 6-8 7-3 8-2 9-1 10-8 11-3 12-8 
0-0 1-1 
0-5 1-1 2-2 3-7 4-3 5-1 6-7 7-7 8-6 9-7 
0-0 1-1 2-3 3-16 4-4 5-16 6-12 7-12 8-16 9-4 10-16 11-5 12-7 13-11 14-12 15-7 16-15 17-12 18-7 19-14 20-4 21-13 22-16 
0-25 1-4 2-1 3-2 4-5 5-3 6-4 7-5 8-8 9-5 10-6 11-7 12-9 13-5 14-8 15-10 16-9 17-13 18-15 19-1 20-15 21-22 22-25 23-23 24-24 25-25 26-26 27-27 
0-16 1-4 2-10 3-7 4-13 5-3 6-7 7-10 8-10 9-5 10-2 11-12 12-10 13-5 14-15 15-7 16-9 17-14 18-7 19-5 20-11 21-16 
0-0 1-1 2-12 3-2 4-3 5-4 6-5 7-3 8-12 9-10 10-3 11-3 12-9 13-3 14-3 15-8 16-12 
0-4 1-5 2-4 3-5 4-5 5-5 6-1 7-0 8-2 
0-1 1-1 2-1 3-5 4-5 5-4 6-1 7-5 
0-0 1-0 2-4 3-2 4-6 5-2 6-6 7-9 8-9 9-6 10-4 11-12 12-13 13-5 14-2 15-4 16-18 17-6 18-17 19-6 20-21 21-4 22-22 23-23 
0-19 1-15 2-13 3-17 4-17 5-12 6-10 7-2 8-3 9-4 10-2 11-19 12-4 13-2 14-21 15-12 16-4 17-2 18-11 19-22 
0-5 1-2 2-7 3-11 4-3 5-12 6-12 7-4 8-0 9-5 10-2 11-12 12-10 13-9 14-6 15-12 
0-3 1-3 2-2 3-1 4-1 5-4 6-2 7-10 8-1 9-2 10-1 11-10 12-5 13-2 14-10 
0-0 1-0 2-1 3-2 4-3 5-4 6-5 7-6 8-9 9-9 10-6 11-8 12-9 13-6 14-5 15-12 
0-6 1-8 2-7 3-5 4-1 5-2 6-3 7-8 8-4 9-8 
0-0 1-1 2-2 3-3 4-4 5-0 6-4 
0-27 1-0 2-1 3-2 4-0 5-6 6-2 7-8 8-10 9-13 10-2 11-14 12-15 13-16 14-17 15-16 16-13 17-27 18-0 19-15 20-21 21-22 22-13 23-24 24-0 25-26 26-27 
0-8 1-20 2-6 3-0 4-2 5-3 6-5 7-2 8-8 9-0 10-3 11-7 12-8 13-3 14-1 15-10 16-11 17-8 18-16 19-14 20-16 21-3 22-7 23-8 24-19 25-8 26-18 27-20 
0-0 1-1 2-4 3-2 4-5 5-16 6-7 7-6 8-4 9-4 10-11 11-4 12-16 13-10 14-4 15-12 16-13 17-4 18-16 19-11 20-14 21-16 
0-0 1-1 2-3 3-4 4-2 5-10 6-2 7-19 8-6 9-3 10-8 11-9 12-12 13-11 14-3 15-16 16-3 17-15 18-17 19-18 20-19 
0-0 1-5 2-1 3-2 4-10 5-3 6-4 7-2 8-5 9-16 10-7 11-10 12-5 13-6 14-7 15-10 16-5 17-8 18-2 19-8 20-19 21-10 22-11 23-19 24-5 25-10 26-5 27-9 28-19 
0-0 1-2 2-0 3-2 4-7 5-4 6-7 7-3 8-7 9-8 10-4 11-5 12-7 13-4 14-11 15-13 
0-0 1-1 2-2 3-3 4-3 5-13 6-10 7-9 8-1 9-3 10-3 11-8 12-9 13-10 14-11 15-13 16-10 17-10 18-15 19-16 
0-11 1-11 2-4 3-1 4-5 5-9 6-10 7-5 8-6 9-5 10-6 11-5 12-1 13-2 14-9 15-5 16-11 17-0 18-9 19-5 20-11 
0-6 1-0 2-1 3-3 4-3 5-13 6-6 7-7 8-8 9-12 10-3 11-24 12-14 13-14 14-12 15-9 16-20 17-21 18-12 19-4 20-23 21-14 22-12 23-14 24-29 
0-0 1-0 2-5 3-4 4-2 5-3 6-4 7-6 8-5 9-6 10-5 11-0 12-8 13-0 14-14 15-0 16-3 17-0 18-9 19-0 20-17 21-12 22-0 23-3 24-0 25-9 26-9 27-13 28-17 
0-1 1-0 2-3 3-6 4-7 5-4 6-6 7-7 8-10 
0-0 1-8 2-3 3-13 4-4 5-1 6-7 7-12 8-8 9-3 10-13 11-10 12-13 13-9 14-6 15-13 
0-0 1-2 2-6 3-6 4-6 5-1 6-6 7-6 8-6 9-5 10-6 
0-28 1-28 2-2 3-13 4-10 5-8 6-2 7-7 8-2 9-10 10-0 11-2 12-10 13-10 14-11 15-13 16-15 17-10 18-16 19-10 20-10 21-18 22-19 23-10 24-21 25-10 26-26 27-16 28-28 
0-0 1-7 2-7 3-7 4-2 5-4 6-1 7-7 8-3 9-4 10-5 11-6 12-7 
0-16 1-2 2-3 3-4 4-0 5-6 6-7 7-4 8-8 9-0 10-9 11-10 12-12 13-0 14-15 15-13 16-20 17-4 18-16 19-17 20-0 21-8 22-0 23-0 24-18 25-20 
0-0 1-9 2-1 3-9 4-2 5-3 6-9 7-2 8-4 9-1 10-3 11-7 12-10 13-11 
0-2 1-1 2-2 3-1 4-1 5-4 6-5 7-6 8-7 9-1 10-8 11-4 12-4 13-10 14-6 15-7 16-13 
0-7 1-1 2-3 3-1 4-5 5-4 6-1 7-6 8-7 
0-16 1-3 2-16 3-1 4-2 5-16 6-4 7-5 8-11 9-7 10-8 11-9 12-16 13-10 14-11 15-11 16-12 17-0 18-15 19-11 20-14 21-16 
0-1 1-0 2-2 3-0 4-0 5-0 6-3 
0-0 1-7 2-1 3-7 4-7 5-6 6-7 
0-0 1-0 2-19 3-2 4-0 5-3 6-4 7-11 8-12 9-13 10-14 11-15 12-16 13-4 14-14 15-19 
0-0 1-0 2-1 3-2 4-4 5-4 6-6 7-4 8-4 9-10 10-11 11-15 12-13 13-14 14-12 15-16 16-4 17-17 18-3 19-21 20-22 
0-0 1-1 2-5 3-22 4-17 5-6 6-4 7-2 8-2 9-7 10-9 11-9 12-23 13-10 14-20 15-11 16-13 17-17 18-20 19-14 20-15 21-16 22-16 23-17 24-13 25-17 26-23 27-18 28-23 
0-6 1-11 2-0 3-11 4-11 5-2 6-6 7-1 8-11 9-3 10-13 11-6 12-11 13-13 14-13 15-7 16-8 17-15 18-11 19-6 20-10 21-13 22-2 23-2 24-2 25-15 
0-9 1-6 2-15 3-13 4-13 5-3 6-15 7-13 8-5 9-9 10-11 11-11 12-12 13-13 14-2 15-15 16-13 17-16 18-2 19-18 20-11 21-2 22-1 23-23 
0-2 1-0 2-11 3-0 4-6 5-9 6-10 7-8 8-11 9-4 10-4 11-11 12-3 13-11 
0-3 1-4 2-2 3-17 4-0 5-8 6-0 7-3 8-15 9-15 10-2 11-5 12-1 13-0 14-13 15-3 16-3 17-3 18-3 19-9 20-3 21-3 22-0 23-10 24-17 
0-0 1-10 2-8 3-3 4-4 5-5 6-3 7-6 8-5 9-7 10-13 11-3 12-7 13-12 14-16 
0-11 1-11 2-11 3-11 4-12 5-9 6-11 7-5 8-7 9-6 10-11 11-12 12-11 13-12 14-11 15-11 16-12 17-9 18-12 19-5 20-14 21-5 22-9 23-5 24-15 25-16 26-20 27-5 28-26 29-26 
0-10 1-1 2-3 3-22 4-3 5-10 6-7 7-10 8-10 9-16 10-13 11-14 12-15 13-10 14-10 15-12 16-10 17-11 18-22 19-18 20-18 21-17 22-6 23-10 24-21 25-22 
0-0 1-1 2-2 3-3 4-10 5-7 6-10 7-7 8-6 9-7 10-5 11-3 12-10 13-12 14-14 15-13 16-17 17-14 18-7 19-19 20-20 
0-0 1-1 2-3 3-4 4-5 5-2 6-1 7-11 8-11 9-7 10-11 11-3 12-8 13-9 14-10 15-11 
0-0 1-1 2-3 3-2 4-12 5-4 6-5 7-1 8-0 9-9 10-20 11-1 12-7 13-11 14-12 15-1 16-17 17-17 18-14 19-17 20-14 21-15 22-12 23-1 24-20 25-1 26-18 27-22 28-5 29-22 
0-1 1-2 2-2 3-4 4-5 5-7 6-10 7-10 8-14 9-12 10-12 11-14 12-13 13-14 
0-0 1-8 2-1 3-2 4-7 5-3 6-5 7-4 8-7 9-4 10-7 11-8 12-9 13-10 14-8 15-11 16-12 
0-0 1-7 2-1 3-2 4-2 5-7 6-4 7-7 8-7 9-7 10-5 11-5 12-7 13-6 14-7 
0-18 1-1 2-0 3-3 4-1 5-1 6-3 7-1 8-4 9-5 10-7 11-13 12-10 13-11 14-6 15-18 16-6 17-14 18-3 19-10 20-18 21-1 22-0 23-3 24-6 25-5 26-7 27-14 28-21 29-26 
0-0 1-1 2-2 3-3 4-1 5-10 6-4 7-14 8-13 9-8 10-2 11-2 12-14 13-7 14-15 15-20 16-5 17-2 18-11 19-2 20-2 21-19 22-18 23-20 
0-0 1-1 2-2 3-3 4-3 5-6 6-7 7-6 8-11 9-13 10-12 11-11 12-11 13-14 14-11 15-11 16-18 17-11 18-11 19-16 20-17 21-19 
0-0 1-1 2-5 3-2 4-4 5-3 6-5 
0-5 1-6 2-7 3-8 4-9 5-6 6-10 7-7 8-3 9-16 10-14 11-15 12-16 13-2 14-7 15-7 16-14 17-5 18-0 19-10 20-7 21-5 22-4 23-11 24-16 
0-7 1-1 2-2 3-3 4-4 5-0 6-6 7-4 8-12 9-4 10-2 11-7 12-4 13-2 14-10 15-11 16-12 
0-8 1-3 2-2 3-3 4-4 5-5 6-15 7-16 8-2 9-7 10-10 11-3 12-15 13-15 14-14 15-16 
0-5 1-5 2-5 3-5 4-0 5-9 6-4 7-0 8-8 9-7 10-6 11-9 
0-0 1-2 2-2 3-4 
0-0 1-1 2-2 3-4 4-4 5-6 6-5 7-10 8-5 9-5 10-9 11-10 12-5 13-5 14-7 15-10 16-4 17-4 18-13 19-16 
0-21 1-13 2-2 3-23 4-13 5-23 6-3 7-23 8-5 9-0 10-7 11-8 12-9 13-10 14-12 15-0 16-14 17-14 18-14 19-8 20-8 21-0 22-19 23-8 24-21 25-22 26-23 
0-21 1-4 2-21 3-21 4-14 5-4 6-2 7-3 8-4 9-5 10-6 11-4 12-21 13-7 14-10 15-11 16-12 17-4 18-2 19-4 20-17 21-18 22-21 23-19 24-20 25-21 
0-5 1-9 2-15 3-11 4-5 5-5 6-15 7-2 8-11 9-8 10-9 11-9 12-7 13-5 14-2 15-13 16-16 
0-0 1-7 2-1 3-2 4-3 5-4 6-5 7-6 8-7 9-8 10-9 11-10 12-11 13-6 14-13 15-14 16-7 17-16 18-17 
0-1 1-3 2-2 3-4 4-4 5-4 6-7 7-4 8-7 9-10 10-7 11-13 12-7 13-13 
0-0 1-2 2-3 3-4 4-7 5-2 6-2 7-7 8-11 9-6 10-7 11-1 12-7 13-9 14-10 15-11 16-3 17-14 18-15 
0-0 1-12 2-1 3-2 4-8 5-10 6-25 7-12 8-12 9-20 10-13 11-3 12-21 13-5 14-22 15-26 
0-0 1-18 2-1 3-1 4-5 5-14 6-5 7-7 8-1 9-8 10-11 11-1 12-1 13-12 14-7 15-16 16-1 17-1 18-17 19-18 
0-0 1-3 2-1 3-2 4-3 5-7 6-5 7-3 8-3 9-9 10-5 11-13 12-4 13-5 14-12 15-15 
0-0 1-24 2-2 3-3 4-10 5-22 6-5 7-8 8-9 9-24 10-11 11-20 12-13 13-5 14-24 15-16 16-15 17-17 18-24 19-16 20-18 21-24 22-22 23-23 24-24 25-22 26-26 27-27 28-28 
0-0 1-24 2-2 3-3 4-4 5-6 6-9 7-3 8-0 9-11 10-12 11-7 12-0 13-1 14-16 15-9 16-0 17-19 18-20 19-0 20-22 21-20 22-0 23-7 24-25 
0-1 1-1 2-1 3-2 4-9 5-4 6-9 7-9 8-5 9-6 10-1 11-7 12-1 13-8 14-7 15-9 
0-0 1-1 2-6 3-6 4-3 5-5 6-3 7-2 8-6 
0-0 1-3 2-2 3-1 4-4 
0-1 1-0 2-3 3-2 4-5 
0-3 1-1 2-2 3-5 4-4 
0-0 1-1 2-1 3-2 
0-0 1-1 2-2 3-0 4-4 
0-2 1-1 2-1 
0-0 1-0 2-0 3-2 4-4 5-5 6-3 
0-0 1-1 2-1 3-1 
0-0 1-0 2-0 3-2 4-4 5-5 6-3 
0-1 1-0 2-1 3-0 
0-0 1-0 2-0 3-2 4-4 5-5 6-3 
0-0 1-1 2-1 3-2 
0-1 1-1 2-0 3-0 
0-0 1-1 2-1 3-1 
0-1 1-0 2-1 3-0 
0-0 1-0 2-0 3-2 4-4 5-5 6-3 
0-0 1-1 2-1 3-1 
0-1 1-0 2-1 3-0 
0-0 1-0 2-0 3-2 4-4 5-5 6-3 
0-0 1-0 2-1 3-2 
0-0 1-1 2-1 3-2 
0-3 1-2 2-1 3-0 
0-0 1-3 2-2 3-1 4-4 
0-1 1-1 2-0 
0-1 1-0 2-3 3-2 4-5 
0-3 1-1 2-2 3-5 4-4 
0-0 1-50 2-11 3-28 4-3 5-4 6-5 7-31 8-17 9-0 10-51 11-46 12-7 13-8 14-0 15-10 16-13 17-12 18-15 19-11 20-17 21-0 22-5 23-4 24-5 25-21 26-17 27-9 28-11 29-0 30-26 31-51 32-17 33-5 34-34 35-32 36-0 37-51 38-35 39-0 40-36 41-0 42-38 43-41 44-40 45-15 46-17 47-11 48-30 49-47 50-11 51-30 52-35 53-30 54-0 55-51 56-50 57-52 
0-1 1-0 2-3 3-2 4-5 5-1 
0-2 1-6 2-4 3-7 4-21 5-19 6-0 7-24 8-24 9-9 10-10 11-11 12-12 13-13 14-2 15-16 16-16 17-11 18-2 19-18 20-19 21-2 22-8 23-11 24-2 25-23 26-24 27-25 28-2 29-27 30-1 31-4 32-33 
0-2 1-68 2-0 3-1 4-2 5-5 6-6 7-7 8-8 9-2 10-7 11-52 12-6 13-16 14-17 15-6 16-7 17-28 18-35 19-6 20-7 21-25 22-25 23-43 24-28 25-7 26-16 27-2 28-31 29-33 30-2 31-13 32-38 33-6 34-7 35-6 36-7 37-25 38-25 39-2 40-13 41-66 42-13 43-7 44-31 45-6 46-7 47-47 48-7 49-62 50-65 51-64 52-2 53-2 54-13 55-67 56-2 57-13 58-50 59-7 60-52 61-53 62-6 63-7 64-26 65-2 66-57 67-58 68-68 
0-5 1-10 2-2 3-8 4-5 5-11 6-12 7-12 8-5 9-1 10-0 11-14 
0-0 1-1 2-2 3-3 4-1 5-2 6-5 7-6 
0-18 1-1 2-2 3-3 4-4 5-2 6-19 7-2 8-4 9-10 10-11 11-2 12-14 13-14 14-17 15-18 16-19 17-20 18-1 19-16 20-23 21-4 22-4 23-22 24-24 25-2 26-19 27-4 28-2 29-19 30-31 31-32 
0-0 1-2 2-2 3-3 4-4 5-5 6-2 7-2 8-3 9-9 10-2 11-3 12-11 13-12 
0-0 1-0 2-38 3-15 4-7 5-73 6-9 7-10 8-11 9-12 10-14 11-14 12-15 13-12 14-16 15-18 16-15 17-18 18-5 19-34 20-15 21-5 22-8 23-45 24-5 25-9 26-12 27-38 28-15 29-12 30-40 31-18 32-1 33-44 34-34 35-35 36-59 37-5 38-12 39-5 40-45 41-12 42-43 43-3 44-12 45-1 46-3 47-5 48-49 49-12 50-30 51-45 52-50 53-9 54-2 55-12 56-27 57-51 58-12 59-53 60-56 61-55 62-58 63-45 64-5 65-59 66-59 67-3 68-75 
0-0 1-1 2-2 3-3 4-4 5-5 6-1 7-2 8-1 9-1 10-7 11-9 
0-0 1-1 2-2 3-0 4-4 5-5 
0-0 1-1 2-13 3-16 4-4 5-16 6-13 7-16 8-5 9-6 10-14 11-9 12-5 13-11 14-16 15-13 16-16 17-16 18-17 19-5 20-1 21-1 22-20 23-12 24-1 25-13 26-22 27-12 28-16 29-25 30-1 31-13 32-27 33-16 34-29 35-30 36-31 
0-2 1-1 2-1 
0-0 1-0 2-0 3-2 4-4 5-5 6-3 7-7 
0-9 1-9 2-12 3-12 4-6 5-1 6-3 7-4 8-5 9-6 10-6 11-2 12-10 13-11 14-12 
0-18 1-1 2-2 3-3 4-4 5-27 6-17 7-6 8-7 9-8 10-21 11-12 12-13 13-14 14-9 15-16 16-21 17-32 18-41 19-4 20-9 21-21 22-22 23-9 24-25 25-0 26-18 27-1 28-32 29-17 30-34 31-18 32-28 33-39 34-40 35-41 
0-0 1-5 2-1 3-2 4-3 5-4 6-5 7-7 8-7 9-10 10-7 11-10 12-10 13-5 14-7 15-6 16-6 17-7 18-9 19-8 20-10 21-5 22-11 23-13 
0-0 1-1 2-28 3-2 4-6 5-7 6-7 7-8 8-10 9-11 10-9 11-0 12-15 13-16 14-17 15-13 16-23 17-14 18-0 19-0 20-5 21-0 22-26 23-25 24-14 25-27 26-5 27-0 28-29 29-30 30-5 31-0 32-5 33-31 
0-0 1-7 2-1 3-2 4-3 5-4 6-2 7-6 8-4 9-2 10-9 11-10 12-16 13-7 14-34 15-4 16-2 17-4 18-16 19-17 20-18 21-19 22-20 23-2 24-22 25-4 26-2 27-24 28-42 29-16 30-42 31-4 32-27 33-16 34-4 35-4 36-2 37-6 38-33 39-34 40-35 41-7 42-40 43-36 44-33 45-10 46-38 47-38 48-11 49-42 
0-0 1-1 2-2 3-0 4-4 5-3 6-2 7-0 8-0 9-5 10-6 11-7 12-7 13-9 14-0 15-8 16-2 17-10 18-11 19-15 
0-0 1-1 2-2 3-4 4-4 5-6 6-6 7-0 8-1 9-3 10-4 11-9 12-11 13-12 
0-19 1-1 2-2 3-10 4-16 5-1 6-6 7-7 8-1 9-9 10-10 11-12 12-13 13-19 14-20 15-1 16-23 17-14 18-6 19-24 
0-0 1-1 2-4 3-3 4-18 5-5 6-7 7-8 8-9 9-11 10-5 11-12 12-13 13-14 14-5 15-2 16-5 17-14 18-12 19-20 20-19 21-12 22-25 23-22 24-23 25-24 26-5 27-25 28-10 29-25 30-12 31-27 32-22 33-7 34-29 
0-0 1-7 2-2 3-10 4-3 5-4 6-5 7-28 8-7 9-13 10-26 11-22 12-10 13-25 14-12 15-13 16-14 17-10 18-16 19-14 20-17 21-10 22-19 23-14 24-24 25-12 26-14 27-22 28-26 29-10 30-28 31-9 32-7 33-2 34-10 35-20 36-10 37-5 38-35 39-36 
0-0 1-1 2-2 3-7 4-8 5-4 6-5 7-6 8-10 
0-9 1-1 2-11 3-11 4-1 5-3 6-0 7-11 8-1 9-5 10-1 11-1 12-7 13-11 
0-0 1-2 2-3 3-4 4-5 5-6 6-0 7-7 8-8 
0-0 1-3 2-3 3-4 4-0 5-2 6-0 7-5 8-6 
0-14 1-9 2-1 3-7 4-7 5-4 6-5 7-12 8-9 9-9 10-7 11-6 12-9 13-10 14-9 15-9 16-12 17-9 18-0 
0-0 1-0 2-0 3-2 4-4 5-5 6-3 7-7 
0-21 1-5 2-6 3-8 4-7 5-8 6-9 7-10 8-6 9-11 10-21 11-13 12-17 13-19 14-20 15-21 
0-0 1-9 2-1 3-13 4-3 5-4 6-5 7-8 8-11 9-9 10-10 11-16 12-12 13-11 14-9 15-15 16-16 17-9 18-24 19-16 20-4 21-11 22-5 23-21 24-9 25-23 26-24 27-16 28-5 29-25 
0-0 1-1 2-1 3-2 
0-0 1-0 2-0 3-2 4-4 5-5 6-3 7-7 
0-0 1-11 2-2 3-3 4-32 5-42 6-1 7-7 8-8 9-3 10-13 11-14 12-42 13-15 14-34 15-33 16-38 17-11 18-17 19-3 20-19 21-11 22-1 23-42 24-34 25-37 26-33 27-39 28-3 29-24 30-13 31-3 32-13 33-8 34-3 35-32 36-14 37-36 38-40 39-41 40-42 
0-0 1-1 2-2 3-3 4-4 5-4 6-0 7-2 8-7 9-0 10-6 11-10 
0-11 1-1 2-5 3-1 4-7 5-8 6-3 7-1 8-10 9-3 10-1 11-0 
0-0 1-1 2-0 3-1 
0-0 1-1 2-2 3-0 4-0 5-5 6-4 7-0 
0-0 1-0 2-0 3-2 4-4 5-5 6-3 7-7 
0-4 1-2 2-6 3-3 4-6 5-5 6-6 7-7 8-8 9-9 10-10 11-11 12-6 13-11 14-12 15-14 16-15 
0-0 1-2 2-4 3-0 4-0 5-7 6-8 7-0 8-8 9-3 10-0 11-1 12-9 
0-0 1-16 2-13 3-16 4-16 5-16 6-21 7-5 8-7 9-16 10-4 11-9 12-11 13-26 14-14 15-19 16-21 17-10 18-12 19-13 20-10 21-10 22-25 23-16 24-16 25-31 26-16 27-26 28-12 29-16 
0-0 1-1 2-0 3-0 4-2 5-0 6-4 7-3 8-5 9-0 10-7 11-8 12-0 13-5 14-9 
0-0 1-2 2-3 3-13 4-4 5-5 6-6 7-9 8-4 9-12 10-4 11-4 12-11 13-13 
0-3 1-4 2-5 3-0 4-3 5-1 6-0 7-3 8-1 9-7 
0-38 1-14 2-1 3-2 4-0 5-1 6-4 7-20 8-6 9-20 10-3 11-7 12-12 13-11 14-1 15-33 16-14 17-1 18-16 19-17 20-18 21-20 22-21 23-23 24-22 25-24 26-14 27-1 28-27 29-20 30-1 31-29 32-20 33-1 34-31 35-12 36-33 37-38 38-20 39-17 40-35 41-36 42-36 43-38 44-39 45-41 46-42 
0-0 1-1 2-2 3-6 4-4 5-8 6-11 7-7 8-11 9-11 10-12 11-4 12-10 13-4 14-13 15-14 
0-0 1-2 2-3 3-4 4-5 5-6 
0-14 1-9 2-1 3-7 4-7 5-4 6-5 7-12 8-9 9-9 10-7 11-6 12-9 13-10 14-9 15-9 16-12 17-9 18-0 
0-0 1-0 2-0 3-2 4-4 5-5 6-3 7-7 
0-3 1-3 2-0 3-1 4-3 5-3 6-3 7-2 8-3 
0-0 1-3 2-26 3-1 4-3 5-10 6-11 7-12 8-10 9-14 10-15 11-26 12-11 13-16 14-17 15-18 16-10 17-7 18-20 19-26 20-22 21-10 22-7 23-25 24-26 25-7 26-15 27-29 
0-0 1-1 2-1 3-2 
0-0 1-0 2-0 3-2 4-4 5-5 6-3 7-7 
0-3 1-3 2-0 3-1 4-3 5-3 6-3 7-2 8-3 
0-0 1-12 2-2 3-3 4-35 5-16 6-1 7-7 8-9 9-3 10-13 11-14 12-15 13-23 14-3 15-19 16-12 17-3 18-21 19-16 20-3 21-27 22-12 23-29 24-12 25-3 26-14 27-9 28-3 29-35 30-40 31-39 32-9 33-3 34-41 35-43 36-44 37-45 
0-11 1-1 2-5 3-1 4-7 5-3 6-5 7-10 8-5 9-1 10-0 
0-0 1-1 2-0 3-1 
0-0 1-0 2-6 3-0 4-3 5-6 6-5 7-0 
0-3 1-1 2-3 3-2 4-0 5-0 6-1 7-1 
0-4 1-2 2-6 3-3 4-6 5-5 6-6 7-7 8-8 9-0 10-12 11-13 12-9 13-10 14-6 15-6 16-11 17-15 
0-9 1-0 2-1 3-2 4-0 5-3 6-5 7-0 8-7 9-8 10-12 
0-0 1-16 2-13 3-16 4-16 5-16 6-10 7-5 8-7 9-16 10-4 11-9 12-11 13-25 14-14 15-19 16-10 17-21 18-12 19-13 20-16 21-28 22-6 23-16 
0-3 1-3 2-0 3-1 4-3 5-3 6-3 7-2 8-3 
0-15 1-12 2-1 3-2 4-0 5-1 6-4 7-28 8-6 9-28 10-18 11-7 12-9 13-10 14-28 15-1 16-11 17-12 18-1 19-6 20-28 21-18 22-15 23-33 24-17 25-38 26-28 27-34 28-28 29-28 30-21 31-23 32-22 33-24 34-12 35-1 36-27 37-28 38-1 39-31 40-3 41-36 42-38 43-39 44-41 45-42 
0-0 1-6 2-0 3-5 4-4 5-6 
0-0 1-2 2-3 3-4 4-0 5-5 6-6 7-7 8-8 
0-14 1-9 2-1 3-7 4-7 5-4 6-5 7-12 8-9 9-9 10-7 11-6 12-9 13-10 14-9 15-9 16-12 17-9 18-0 
0-0 1-0 2-0 3-2 4-4 5-5 6-3 7-7 
0-4 1-1 2-1 3-1 4-8 5-5 6-16 7-1 8-7 9-8 10-13 11-1 12-12 13-13 14-1 15-5 16-16 
0-0 1-1 2-1 3-2 
0-0 1-0 2-0 3-2 4-4 5-5 6-3 7-7 
0-0 1-9 2-19 3-2 4-3 5-20 6-4 7-32 8-6 9-2 10-12 11-13 12-20 13-14 14-32 15-31 16-36 17-9 18-16 19-2 20-17 21-9 22-4 23-20 24-32 25-35 26-31 27-37 28-2 29-22 30-12 31-2 32-12 33-6 34-2 35-2 36-13 37-34 38-38 39-39 40-40 
0-0 1-1 2-2 3-3 4-4 5-4 6-0 7-6 8-7 9-0 10-9 11-10 
0-11 1-7 2-3 3-1 4-5 5-3 6-10 7-10 8-6 9-1 10-0 
0-0 1-1 2-0 3-1 
0-0 1-1 2-2 3-0 4-5 5-5 6-1 7-0 
0-0 1-0 2-0 3-2 4-4 5-5 6-3 7-7 
0-1 1-1 2-0 3-1 
0-7 1-12 2-2 3-3 4-4 5-8 6-2 7-10 8-11 9-12 10-13 11-14 12-4 13-14 14-15 15-17 16-18 
0-0 1-1 2-2 3-0 4-3 5-4 6-2 7-0 8-7 9-8 10-2 11-8 12-9 13-0 14-5 15-12 
0-17 1-3 2-7 3-1 4-7 5-6 6-7 7-10 8-31 9-8 10-3 11-1 12-12 13-0 14-1 15-15 16-20 17-17 18-19 19-20 20-21 21-23 22-3 23-20 24-27 25-28 26-36 27-1 28-33 29-17 30-18 31-22 32-36 
0-0 1-1 2-4 3-8 4-2 5-4 6-5 7-7 8-6 9-8 
0-0 1-1 2-2 3-0 4-3 5-10 6-5 7-10 8-7 9-8 10-9 11-10 12-11 13-13 14-14 
0-0 1-1 2-2 3-13 4-2 5-0 6-8 7-0 8-3 9-0 10-5 11-0 12-2 13-6 14-0 15-9 16-10 17-11 18-12 19-13 
0-0 1-3 2-3 3-4 4-0 5-2 6-0 7-5 8-6 
0-15 1-14 2-1 3-7 4-7 5-4 6-14 7-12 8-14 9-9 10-7 11-6 12-9 13-10 14-9 15-14 16-12 17-14 18-0 
0-0 1-0 2-0 3-2 4-5 5-6 6-4 7-3 
0-12 1-12 2-12 3-12 4-12 5-12 6-5 7-6 8-8 9-7 10-8 11-2 12-9 13-10 14-6 15-11 16-12 17-13 18-15 19-12 20-12 21-18 22-12 23-12 24-0 25-20 26-12 
0-0 1-17 2-1 3-5 4-3 5-4 6-10 7-3 8-3 9-10 10-6 11-5 12-3 13-9 14-10 15-3 16-18 17-5 18-0 19-15 20-14 21-3 22-7 23-10 24-19 
0-0 1-1 2-1 3-2 
0-0 1-0 2-0 3-2 4-4 5-5 6-3 7-7 
0-0 1-11 2-22 3-2 4-33 5-4 6-6 7-7 8-8 9-2 10-2 11-12 12-13 13-21 14-2 15-16 16-11 17-2 18-19 19-4 20-2 21-25 22-11 23-27 24-11 25-2 26-12 27-8 28-2 29-33 30-38 31-8 32-2 33-39 34-41 35-42 36-43 
0-11 1-1 2-5 3-1 4-7 5-3 6-10 7-10 8-9 9-1 10-0 
0-0 1-1 2-0 3-1 
0-0 1-1 2-2 3-0 4-3 5-5 6-3 7-0 
0-1 1-2 2-3 3-1 4-5 5-11 6-19 7-3 8-1 9-1 10-3 11-10 12-1 13-13 14-3 15-1 16-16 17-11 18-7 19-1 20-20 21-3 22-1 23-16 24-25 
0-0 1-0 2-0 3-2 4-4 5-5 6-3 7-7 
0-4 1-2 2-6 3-3 4-11 5-5 6-6 7-7 8-8 9-18 10-10 11-11 12-6 13-7 14-14 15-15 16-17 17-18 
0-0 1-1 2-6 3-4 4-5 5-6 6-6 7-7 8-2 9-8 10-9 11-10 12-8 13-8 14-3 15-14 16-8 17-12 18-14 19-13 20-14 21-14 22-15 23-16 24-14 25-6 26-6 27-19 28-11 29-6 30-8 31-21 32-23 
0-1 1-0 2-1 3-3 
0-0 1-3 
0-3 1-0 2-11 3-4 4-13 5-25 6-15 7-0 8-17 9-3 10-0 11-0 12-0 13-2 14-27 15-0 16-7 17-9 18-25 19-23 20-21 21-3 
0-0 1-1 2-2 
0-0 1-3 2-4 3-5 4-18 5-16 6-9 7-18 8-10 9-11 10-21 11-14 12-18 13-9 14-17 15-18 16-19 17-21 18-12 19-9 20-13 21-2 22-21 
0-0 1-1 2-2 3-3 4-3 5-5 6-5 7-5 8-11 9-12 10-7 11-4 12-24 13-13 14-11 15-15 16-16 17-5 18-13 19-32 20-32 21-5 22-24 23-5 24-5 25-24 26-25 27-2 28-31 29-32 
0-0 1-1 2-2 3-4 4-3 5-12 6-15 7-13 8-2 9-4 10-10 11-12 12-0 13-5 14-15 
0-6 1-6 2-9 3-11 4-5 5-2 6-4 7-5 8-0 9-0 10-11 
0-15 1-11 2-10 3-2 4-10 5-4 6-11 7-15 8-0 9-7 10-1 11-11 12-9 13-10 14-11 15-6 16-10 17-11 18-10 19-11 20-5 21-12 22-14 23-15 
0-0 1-9 2-1 3-2 4-3 5-12 6-6 7-4 8-7 9-9 10-7 11-7 12-9 13-5 14-12 15-11 16-12 
0-0 1-3 2-4 3-1 4-2 5-2 6-3 7-4 8-2 9-1 10-5 
0-0 1-1 2-3 3-9 4-1 5-9 6-11 7-18 8-11 9-13 10-10 11-11 12-11 13-14 14-11 15-18 16-11 17-18 18-18 
0-0 1-2 2-3 3-9 4-3 5-3 6-12 7-3 8-13 9-6 10-10 11-5 12-13 
0-14 1-2 2-3 3-4 4-5 5-6 6-7 7-8 8-6 9-10 10-8 11-6 12-12 13-4 14-14 15-15 16-16 17-6 18-19 19-8 20-15 21-21 22-24 
0-0 1-1 2-2 3-14 4-26 5-3 6-16 7-14 8-0 9-6 10-20 11-3 12-9 13-22 14-11 15-22 16-3 17-3 18-13 19-14 20-15 21-4 22-0 23-19 24-18 25-20 26-0 27-21 28-22 29-23 30-14 31-14 32-8 33-26 
0-0 1-1 2-2 3-0 4-4 5-5 6-0 7-7 8-5 9-0 10-10 11-11 
0-1 1-2 2-1 3-4 4-6 5-6 6-6 7-5 8-6 
0-8 1-2 2-3 3-4 4-5 5-6 6-7 7-8 8-9 9-10 10-11 11-19 12-8 13-12 14-19 15-14 16-15 17-12 18-5 19-18 20-19 
0-0 1-8 2-2 3-12 4-19 5-3 6-7 7-7 8-8 9-9 10-10 11-11 12-12 13-13 14-8 15-16 16-10 17-19 18-20 19-21 
0-14 1-4 2-6 3-0 4-4 5-2 6-3 7-4 8-5 9-6 10-7 11-4 12-9 13-11 14-6 15-13 16-10 17-14 
0-0 1-1 2-2 3-3 4-2 5-5 6-4 7-7 8-8 9-9 
0-0 1-1 2-2 3-3 4-2 5-5 6-7 7-6 8-14 9-7 10-7 11-2 12-13 13-14 
0-0 1-3 2-6 3-14 4-7 5-9 6-10 7-11 8-12 9-13 10-14 11-15 12-16 13-14 14-17 15-18 
0-0 1-1 2-2 3-3 4-4 5-12 6-5 7-2 8-9 9-12 10-10 11-9 12-12 13-11 14-12 
0-5 1-1 2-2 3-3 4-5 5-20 6-4 7-20 8-10 9-5 10-0 11-12 12-8 13-2 14-2 15-14 16-15 17-2 18-16 19-16 20-0 21-18 22-9 23-9 24-14 25-20 
0-0 1-1 2-5 3-2 4-3 5-1 6-5 7-30 8-1 9-5 10-6 11-8 12-3 13-30 14-9 15-1 16-5 17-16 18-3 19-1 20-5 21-15 22-16 23-3 24-17 25-3 26-1 27-5 28-21 29-3 30-5 31-3 32-1 33-26 34-30 35-28 36-16 37-26 38-32 39-33 
0-8 1-5 2-4 3-8 4-6 5-7 6-8 7-9 8-10 9-5 10-15 11-12 12-10 13-16 14-16 15-17 
0-0 1-1 2-2 3-5 4-9 5-8 6-4 7-4 8-4 9-5 10-6 11-10 
0-0 1-2 2-1 3-4 4-5 
0-1 1-0 2-1 3-3 
0-0 1-3 
0-0 1-1 2-2 3-3 4-4 5-5 6-1 7-1 8-8 9-9 
0-0 1-10 2-1 3-2 4-11 5-4 6-6 7-5 8-6 9-7 10-8 11-9 12-10 13-3 14-12 
0-0 1-20 2-1 3-2 4-3 5-4 6-6 7-5 8-20 9-8 10-5 11-12 12-5 13-13 14-14 15-15 16-16 17-5 18-20 19-8 20-5 21-18 22-19 23-20 
0-0 1-1 2-5 3-2 4-3 5-5 6-5 7-4 8-5 9-5 10-6 11-3 12-7 13-8 14-10 15-14 16-12 17-11 18-12 19-1 20-14 
0-0 1-3 2-2 3-6 4-4 5-5 6-6 
0-3 1-1 2-2 3-3 4-1 5-5 6-6 7-8 8-9 9-7 10-10 
0-0 1-1 2-2 3-4 4-5 5-6 6-7 7-8 8-9 9-7 10-11 11-12 12-12 13-9 14-14 15-15 16-17 17-13 18-16 19-17 
0-0 1-1 2-2 
0-0 1-1 2-2 3-3 4-0 5-5 6-6 7-0 8-8 9-9 
0-4 1-1 2-3 3-4 4-0 5-4 6-8 7-9 
0-1 1-0 2-1 3-3 
0-1 1-0 2-1 
0-0 1-0 2-0 
0-0 1-1 2-1 3-2 
0-0 1-1 2-0 3-44 4-46 5-6 6-7 7-46 8-0 9-10 10-46 11-0 12-14 13-14 14-23 15-17 16-18 17-19 18-0 19-14 20-14 21-3 22-37 23-3 24-0 25-5 26-46 27-0 28-27 29-3 30-39 31-39 32-31 33-31 34-0 35-30 36-33 37-32 38-35 39-31 40-3 41-41 42-42 43-0 44-44 45-45 46-46 47-0 48-15 49-31 50-49 51-50 52-51 
0-0 1-1 2-2 
0-8 1-0 2-1 3-2 4-3 5-2 6-6 7-2 8-7 9-8 
0-7 1-1 2-2 3-1 4-3 5-1 6-4 7-6 8-2 9-1 10-0 
0-0 1-3 2-2 3-1 4-4 
0-0 1-0 2-0 
0-1 1-0 2-3 3-2 4-5 
0-0 1-2 2-3 
0-0 1-1 
0-2 1-1 2-2 3-0 
0-0 1-4 2-0 3-1 4-2 5-3 6-4 
0-0 1-1 2-2 3-3 
0-4 1-0 2-2 3-5 
0-1 1-0 2-2 3-3 
0-0 1-1 
0-4 1-0 2-2 3-5 
0-0 1-0 2-1 3-2 4-3 
0-1 1-0 
0-0 1-2 2-1 
0-0 1-1 2-3 
0-0 1-1 2-1 3-2 
0-4 1-0 2-2 3-5 
0-0 1-1 2-1 3-2 4-1 5-3 
0-4 1-0 2-2 3-5 
0-0 1-1 2-1 3-3 4-1 5-0 6-2 
0-4 1-0 2-2 3-5 
0-0 
0-0 1-0 
0-0 1-2 2-1 
0-0 1-2 2-1 
0-1 1-0 2-2 3-3 
0-0 1-1 2-0 
0-0 1-2 2-1 
0-0 1-0 2-1 3-2 
0-0 1-0 2-1 3-2 
0-1 1-0 2-1 3-2 4-3 
0-0 1-2 2-1 
0-0 1-2 2-1 
0-3 1-2 2-1 3-0 
0-0 1-3 2-2 3-1 4-4 
0-0 1-1 2-0 
0-1 1-0 2-3 3-2 4-5 
0-0 1-1 2-0 3-2 4-0 5-5 6-5 7-0 8-0 
0-0 
0-0 1-2 2-3 
0-5 1-10 2-2 3-8 4-5 5-11 6-12 7-12 8-5 9-1 10-0 11-14 
0-0 1-5 2-1 3-2 4-13 5-22 6-5 7-8 8-12 9-3 10-4 11-5 12-7 13-7 14-5 15-13 16-14 17-15 18-5 19-18 20-12 21-12 22-12 23-16 24-16 25-5 26-14 27-12 28-5 29-14 30-21 31-22 
0-9 1-0 2-1 3-5 4-3 5-13 6-5 7-4 8-5 9-5 10-6 11-9 12-8 13-9 14-5 15-11 16-13 
0-0 1-1 2-3 3-5 4-1 5-2 6-1 7-1 8-7 9-9 
0-0 1-1 2-2 
0-3 1-3 2-0 3-1 4-3 5-3 6-3 7-2 8-3 
0-0 1-1 2-2 3-3 4-30 5-35 6-6 7-2 8-9 9-4 10-10 11-5 12-4 13-2 14-20 15-12 16-2 17-29 18-30 19-13 20-14 21-2 22-17 23-17 24-7 25-0 26-1 27-24 28-13 29-14 30-6 31-0 32-32 33-18 34-33 35-31 36-36 
0-17 1-1 2-2 3-3 4-4 5-4 6-9 7-6 8-11 9-9 10-6 11-7 12-3 13-17 14-17 15-21 16-16 17-17 18-13 19-14 20-6 21-21 22-17 23-18 24-21 
0-0 1-27 2-2 3-4 4-5 5-6 6-16 7-12 8-2 9-4 10-13 11-38 12-4 13-15 14-0 15-27 16-12 17-16 18-17 19-2 20-4 21-19 22-21 23-24 24-23 25-22 26-38 27-4 28-38 29-16 30-4 31-11 32-38 33-32 34-35 35-33 36-36 37-0 38-38 39-39 40-41 41-15 42-42 
0-0 1-5 2-1 3-4 4-8 5-7 6-4 7-4 8-4 9-9 
0-0 1-0 2-0 
0-2 1-1 2-2 3-0 
0-23 1-0 2-2 3-5 4-12 5-7 6-8 7-9 8-10 9-11 10-6 11-14 12-16 13-17 14-23 15-18 16-25 17-16 18-19 19-20 20-21 21-9 22-18 23-14 24-23 25-24 26-25 27-23 28-28 29-25 30-16 31-11 
0-10 1-7 2-1 3-7 4-1 5-4 6-7 7-5 8-7 9-5 10-7 11-6 12-4 13-7 14-8 15-9 16-7 17-0 
0-0 1-0 2-0 
0-1 1-0 2-2 3-3 
0-0 1-1 2-2 
0-2 1-2 2-6 3-3 4-6 
0-0 1-1 2-3 3-1 4-1 5-1 
0-20 1-20 2-10 3-20 4-0 5-18 6-2 7-2 8-10 9-3 10-4 11-5 12-6 13-20 14-18 15-8 16-18 17-20 18-9 19-20 
0-17 1-19 2-10 3-15 4-16 5-16 6-16 7-16 8-11 9-8 10-16 11-19 12-15 13-1 14-5 15-0 16-6 17-7 18-8 19-9 20-10 21-11 22-12 23-5 24-12 25-13 26-16 27-10 28-13 29-8 30-17 31-18 32-19 
0-1 1-4 2-14 3-2 4-3 5-4 6-7 7-0 8-14 9-28 10-6 11-7 12-8 13-9 14-14 15-7 16-11 17-4 18-14 19-7 20-14 21-20 22-9 23-7 24-21 25-4 26-7 27-14 28-7 29-25 30-6 31-5 32-4 33-7 34-25 35-14 36-7 37-28 38-0 39-7 40-25 41-31 42-32 
0-20 1-0 2-17 3-1 4-17 5-7 6-7 7-8 8-9 9-10 10-20 11-4 12-5 13-17 14-11 15-13 16-9 17-16 18-17 19-12 20-19 21-20 
0-0 1-1 2-1 3-2 4-4 5-4 6-5 7-1 8-1 9-7 10-10 11-1 12-1 13-12 14-9 15-14 16-20 17-12 18-13 19-14 20-12 21-15 22-5 23-17 24-14 25-12 26-21 27-22 
0-0 1-1 2-1 3-3 4-4 5-7 6-8 7-4 8-13 9-15 10-8 11-9 12-4 13-1 14-4 15-4 16-11 17-12 18-4 19-13 20-14 21-15 
0-1 1-9 2-4 3-2 4-9 5-6 6-5 7-9 8-9 9-7 10-8 11-9 12-10 13-12 14-11 15-13 
0-27 1-3 2-32 3-6 4-18 5-27 6-7 7-20 8-27 9-18 10-1 11-39 12-9 13-18 14-8 15-27 16-8 17-32 18-32 19-12 20-7 21-5 22-3 23-18 24-32 25-12 26-32 27-20 28-20 29-32 30-21 31-20 32-5 33-16 34-27 35-27 36-18 37-4 38-32 39-29 40-28 41-7 42-8 43-32 44-38 45-18 46-32 47-4 48-32 49-32 50-33 51-20 52-32 53-32 54-37 55-36 56-39 
0-33 1-31 2-1 3-18 4-5 5-2 6-31 7-3 8-6 9-5 10-33 11-0 12-6 13-7 14-8 15-9 16-10 17-5 18-9 19-31 20-13 21-18 22-9 23-21 24-9 25-33 26-39 27-5 28-9 29-24 30-18 31-26 32-21 33-27 34-5 35-9 36-28 37-33 38-9 39-34 40-5 41-9 42-15 43-28 44-5 45-9 46-5 47-41 
0-0 1-0 2-2 3-3 
0-47 1-2 2-1 3-2 4-3 5-4 6-5 7-6 8-7 9-8 10-2 11-10 12-4 13-2 14-14 15-16 16-17 17-2 18-19 19-4 20-2 21-24 22-16 23-8 24-5 25-7 26-8 27-47 28-5 29-34 30-33 31-31 32-4 33-29 34-5 35-37 36-38 37-2 38-40 39-4 40-0 41-39 42-45 43-35 44-2 45-44 46-4 47-2 48-46 49-47 
0-6 1-2 2-1 3-4 4-3 5-6 6-8 7-6 8-10 9-6 10-12 11-8 12-6 13-6 14-16 
0-18 1-1 2-18 3-3 4-4 5-5 6-6 7-1 8-1 9-9 10-1 11-12 12-15 13-13 14-22 15-14 16-3 17-3 18-1 19-15 20-18 21-19 22-21 23-6 24-13 25-20 26-22 
0-0 1-1 2-2 3-0 4-3 5-4 6-0 7-6 8-7 9-2 10-0 11-2 12-2 13-8 14-9 15-10 16-11 17-0 18-12 19-23 20-19 21-23 22-16 23-15 24-2 25-17 26-0 27-22 28-21 29-18 30-2 31-16 32-16 33-4 34-13 35-19 36-23 
0-0 1-1 2-2 3-7 4-3 5-6 6-7 7-8 8-9 9-9 10-4 11-10 12-12 13-7 14-7 15-15 16-7 17-16 18-12 19-4 20-15 21-7 22-15 23-9 24-15 25-7 26-29 27-12 28-18 29-7 30-23 31-15 32-9 33-17 34-7 35-3 36-30 
0-2 1-1 2-2 3-3 4-5 5-6 6-17 7-10 8-17 9-2 10-3 11-10 12-10 13-11 14-13 15-10 16-14 17-15 18-7 19-17 
0-0 1-0 2-1 3-2 4-3 5-1 6-5 7-7 8-8 9-8 10-1 11-9 12-10 13-11 14-1 15-3 16-3 17-12 18-14 19-13 20-15 21-1 22-3 23-17 24-19 25-3 26-3 27-23 28-9 29-11 30-26 
0-0 1-8 2-2 3-3 4-13 5-4 6-5 7-8 8-6 9-7 10-9 11-11 12-8 13-13 
0-47 1-5 2-0 3-7 4-8 5-9 6-10 7-17 8-33 9-5 10-13 11-14 12-5 13-16 14-33 15-35 16-1 17-17 18-17 19-1 20-19 21-2 22-8 23-0 24-8 25-5 26-24 27-25 28-7 29-5 30-28 31-27 32-14 33-19 34-8 35-3 36-33 37-5 38-34 39-35 40-8 41-5 42-5 43-40 44-40 45-17 46-4 47-17 48-0 49-17 50-0 51-8 52-44 53-7 54-46 55-45 56-47 
0-5 1-4 2-1 3-5 4-16 5-4 6-5 7-7 8-6 9-8 10-18 11-3 12-5 13-12 14-4 15-18 16-5 17-5 18-4 19-18 20-5 21-4 22-4 23-14 24-4 25-17 26-18 
0-0 1-2 2-2 3-1 4-5 5-5 6-4 7-6 
0-21 1-21 2-0 3-2 4-5 5-0 6-5 7-21 8-1 9-4 10-5 11-9 12-9 13-21 14-6 15-2 16-21 17-8 18-21 19-10 20-12 21-21 22-13 23-0 24-21 25-15 26-16 27-9 28-12 29-17 30-5 31-21 32-18 33-19 34-20 35-21 
0-3 1-3 2-1 3-2 4-3 
0-5 1-4 2-0 3-3 4-5 
0-0 1-1 2-2 3-3 4-4 5-7 6-8 7-9 8-8 9-3 10-13 11-14 12-3 
0-0 1-1 2-2 3-6 4-4 5-2 6-5 7-6 8-4 9-2 10-7 11-9 
0-0 1-1 2-3 3-4 
0-0 1-0 2-2 3-3 4-6 5-6 6-6 7-5 8-4 9-6 
0-0 1-1 2-2 3-6 4-3 5-4 6-5 7-7 
0-0 1-1 2-2 3-6 4-3 5-4 6-5 7-10 8-2 9-9 10-10 11-12 12-11 13-13 
0-0 1-1 2-2 3-3 4-11 5-3 6-5 7-6 8-7 9-5 10-8 11-14 12-7 13-3 14-3 15-3 16-3 17-14 18-13 19-14 
0-0 1-1 2-2 3-3 4-5 5-5 6-4 7-5 8-6 9-7 10-8 
0-0 1-5 2-1 3-3 4-4 5-6 6-7 7-17 8-3 9-10 10-3 11-5 12-2 13-7 14-8 15-9 16-14 17-15 18-7 19-12 20-9 21-19 22-20 23-7 24-22 25-3 26-23 27-24 
0-0 1-6 2-2 3-1 4-4 5-5 6-7 7-8 8-9 9-10 10-11 11-13 12-4 13-8 14-6 15-6 16-12 17-17 18-20 19-12 20-18 21-19 22-21 
0-0 1-0 2-11 3-3 4-4 5-0 6-7 7-6 8-3 9-1 10-9 11-16 12-15 13-10 14-24 15-11 16-14 17-17 18-9 19-23 20-22 21-2 22-24 
0-10 1-16 2-1 3-3 4-2 5-4 6-5 7-7 8-6 9-8 10-9 11-10 12-4 13-10 14-11 15-9 16-10 17-13 18-10 19-14 20-16 21-16 22-15 23-20 24-10 25-19 26-20 27-10 28-21 29-9 30-16 31-4 32-16 33-25 34-16 35-10 36-27 37-9 38-10 39-29 40-30 41-20 42-10 43-32 44-33 
0-0 1-0 2-3 3-0 4-8 5-9 6-0 7-4 8-4 9-9 10-0 11-10 12-2 13-4 14-13 15-14 16-15 17-0 18-17 19-18 20-0 21-19 22-4 23-3 24-4 25-24 26-1 27-0 28-23 29-25 
0-0 1-0 2-0 3-1 4-6 5-4 6-4 7-0 8-6 
0-9 1-1 2-2 3-3 4-18 5-4 6-7 7-18 8-11 9-12 10-9 11-7 12-12 13-16 14-9 15-10 16-18 17-12 18-11 19-12 20-0 21-17 22-13 23-0 24-18 25-18 26-3 27-18 
0-0 1-0 2-0 3-3 4-2 5-3 6-0 7-4 8-5 9-6 10-7 11-17 12-17 13-9 14-12 15-10 16-4 17-6 18-1 19-14 20-15 21-6 22-17 23-8 24-17 25-17 26-18 27-19 28-20 
0-0 1-1 2-3 3-21 4-4 5-13 6-19 7-7 8-8 9-9 10-10 11-0 12-25 13-19 14-12 15-19 16-19 17-16 18-15 19-18 20-8 21-19 22-20 23-21 24-0 25-19 26-6 27-11 28-25 29-27 30-26 31-28 
0-8 1-6 2-17 3-1 4-2 5-3 6-4 7-5 8-6 9-2 10-8 11-17 12-7 13-8 14-9 15-8 16-12 17-11 18-13 19-15 20-16 21-17 22-19 23-18 24-6 25-17 26-30 27-8 28-21 29-2 30-24 31-25 32-28 33-17 34-30 35-8 36-29 37-2 38-35 39-36 40-36 41-42 42-0 43-36 44-38 45-8 46-40 47-35 48-42 
0-15 1-3 2-13 3-10 4-2 5-1 6-4 7-3 8-3 9-0 10-10 11-6 12-7 13-10 14-8 15-10 16-10 17-11 18-11 19-9 20-13 21-14 22-15 
0-12 1-20 2-2 3-19 4-1 5-3 6-20 7-5 8-4 9-6 10-3 11-7 12-16 13-18 14-21 15-19 16-20 17-20 18-19 19-20 20-23 21-24 
0-0 1-0 2-19 3-2 4-4 5-0 6-6 7-3 8-8 9-4 10-0 11-13 12-11 13-10 14-19 15-0 16-12 17-0 18-19 19-17 20-16 21-18 22-19 23-20 24-0 25-22 26-8 27-24 28-0 29-25 30-26 
0-0 1-1 2-22 3-3 4-9 5-5 6-0 7-1 8-22 9-22 10-8 11-11 12-9 13-10 14-22 15-11 16-12 17-13 18-15 19-22 20-11 21-17 22-13 23-5 24-21 25-22 26-24 27-23 28-25 29-9 30-27 31-9 32-22 33-28 34-29 35-33 36-30 37-5 38-4 39-34 
0-0 1-0 2-3 3-4 4-4 5-5 6-14 7-6 8-7 9-4 10-12 11-4 12-8 13-0 14-18 15-14 16-0 17-16 18-0 
0-0 1-6 2-1 3-6 4-3 5-9 6-3 7-3 8-4 9-6 10-3 11-11 12-10 13-0 14-14 15-3 16-0 17-2 18-15 
0-0 1-5 2-3 3-4 4-3 5-3 6-7 7-6 8-3 9-3 10-9 11-8 12-10 13-11 14-12 15-13 
0-0 1-1 2-6 3-6 4-19 5-6 6-3 7-4 8-4 9-19 10-5 11-6 12-8 13-7 14-4 15-6 16-27 17-6 18-27 19-6 20-6 21-11 22-6 23-14 24-4 25-6 26-16 27-11 28-4 29-6 30-1 31-36 32-20 33-4 34-6 35-11 36-4 37-6 38-4 39-36 40-28 41-26 42-6 43-27 44-22 45-4 46-6 47-34 48-35 49-36 
0-1 1-8 2-1 3-8 4-8 5-4 6-6 7-2 8-8 9-3 10-8 11-8 12-7 13-8 
0-0 1-1 2-2 3-0 4-4 5-5 6-6 7-5 8-19 9-7 10-8 11-10 12-5 13-19 14-12 15-8 16-14 17-14 18-13 19-19 20-18 21-5 22-19 23-16 24-19 
0-22 1-3 2-2 3-22 4-0 5-1 6-4 7-9 8-22 9-6 10-22 11-8 12-7 13-22 14-22 15-11 16-10 17-26 18-12 19-9 20-22 21-17 22-22 23-22 24-22 25-12 26-22 27-20 28-12 29-22 30-24 31-23 32-26 
0-0 1-0 2-18 3-2 4-4 5-0 6-6 7-35 8-5 9-2 10-37 11-41 12-7 13-0 14-1 15-30 16-8 17-10 18-27 19-18 20-19 21-20 22-23 23-22 24-21 25-11 26-13 27-25 28-20 29-30 30-29 31-11 32-41 33-13 34-24 35-35 36-0 37-26 38-8 39-41 40-36 41-37 42-0 43-39 44-35 45-0 46-13 47-37 48-41 49-8 50-47 51-46 52-14 53-48 
0-0 1-0 2-9 3-0 4-9 5-2 6-12 7-14 8-5 9-9 10-6 11-6 12-0 13-8 14-9 15-0 16-10 17-6 18-11 19-14 20-15 21-6 22-16 
0-0 1-1 2-2 3-3 4-0 5-4 6-7 7-4 8-4 9-9 10-8 11-6 12-11 13-12 14-16 15-11 16-15 17-16 18-11 19-18 20-16 21-11 22-21 23-16 24-13 25-6 26-6 27-4 28-4 29-4 30-4 31-25 32-13 33-4 34-4 35-27 36-16 37-0 38-3 39-29 40-6 41-31 42-4 43-0 44-34 45-4 46-4 47-3 48-37 
0-0 1-0 2-2 3-3 4-4 5-4 6-6 7-8 8-7 9-9 10-11 11-10 12-12 13-9 14-15 15-14 16-13 17-30 18-4 19-0 20-6 21-0 22-17 23-16 24-0 25-9 26-20 27-2 28-25 29-24 30-21 31-12 32-23 33-30 34-12 35-2 36-4 37-29 38-10 39-30 
0-0 1-4 2-7 3-12 4-12 5-7 6-7 7-6 8-12 9-7 10-7 11-3 12-1 13-11 14-12 15-3 16-13 17-7 18-14 19-3 20-16 21-17 
0-8 1-0 2-5 3-4 4-13 5-4 6-6 7-7 8-13 9-7 10-8 11-8 12-9 13-13 
0-1 1-11 2-1 3-7 4-8 5-10 6-9 7-11 
0-0 1-1 2-2 3-3 4-4 5-5 6-2 7-6 8-10 9-2 10-24 11-0 12-11 13-12 14-0 15-0 16-14 17-13 18-15 19-0 20-0 21-16 22-3 23-7 24-11 25-3 26-9 27-0 28-0 29-14 30-11 31-11 32-24 33-26 34-0 35-28 36-11 37-11 38-32 
0-3 1-3 2-3 3-3 4-2 
0-12 1-1 2-12 3-12 4-0 5-10 6-3 7-4 8-3 9-5 10-5 11-6 12-5 13-3 14-9 15-12 16-12 17-15 18-3 19-3 20-12 21-0 22-13 23-16 
0-0 1-1 2-2 3-3 4-0 5-16 6-12 7-0 8-6 9-7 10-22 11-14 12-3 13-42 14-10 15-11 16-12 17-0 18-13 19-14 20-0 21-15 22-16 23-0 24-17 25-9 26-3 27-42 28-12 29-0 30-20 31-7 32-12 33-16 34-35 35-14 36-12 37-0 38-25 39-26 40-27 41-28 42-3 43-3 44-3 45-30 46-14 47-16 48-3 49-42 50-10 51-16 52-42 53-37 54-40 55-3 56-37 57-39 58-40 59-41 60-38 61-3 62-43 63-26 64-44 65-45 
0-10 1-0 2-1 3-3 4-4 5-5 6-6 7-7 8-8 9-9 10-10 
0-0 1-6 2-1 3-4 4-2 5-2 6-2 7-7 
0-1 1-1 2-3 3-1 4-1 
0-0 1-6 2-1 3-2 4-3 5-4 6-5 7-9 8-9 9-2 10-9 11-0 12-16 13-19 14-10 15-0 16-11 17-2 18-19 19-13 20-22 21-15 22-14 23-9 24-19 25-19 26-0 27-18 28-19 29-0 30-21 31-22 
0-0 1-4 2-0 3-2 4-3 5-5 6-0 7-0 8-8 9-5 10-10 11-0 12-9 13-5 14-0 15-11 16-13 
0-11 1-6 2-11 3-0 4-2 5-11 6-2 7-8 8-9 9-10 10-11 
0-20 1-0 2-8 3-3 4-0 5-13 6-14 7-20 8-0 9-2 10-5 11-3 12-0 13-0 14-3 15-0 16-7 17-15 18-3 19-0 20-0 21-17 22-18 23-19 24-20 
0-0 1-1 2-2 3-3 4-6 5-7 6-4 7-2 8-10 9-2 10-11 11-2 12-10 13-13 14-2 15-11 16-6 17-12 18-14 19-2 20-10 21-0 22-2 23-11 24-16 25-17 26-29 27-14 28-11 29-7 30-14 31-11 32-24 33-26 34-0 35-1 36-11 37-20 38-28 39-29 
0-11 1-6 2-1 3-2 4-6 5-13 6-3 7-16 8-30 9-4 10-20 11-6 12-10 13-9 14-12 15-6 16-15 17-16 18-27 19-6 20-6 21-21 22-16 23-6 24-23 25-5 26-16 27-6 28-30 29-25 30-27 31-6 32-29 33-30 
0-0 1-1 2-6 3-6 4-3 5-4 6-6 7-6 8-5 9-6 
0-0 1-1 2-5 3-4 4-5 5-4 6-5 
0-0 1-9 2-0 3-28 4-1 5-2 6-9 7-4 8-3 9-5 10-6 11-28 12-8 13-21 14-8 15-9 16-10 17-12 18-11 19-8 20-20 21-1 22-15 23-28 24-18 25-0 26-17 27-21 28-9 29-24 30-28 31-9 32-0 33-0 34-9 35-27 36-28 37-9 38-30 39-28 40-29 41-8 42-28 43-9 44-33 45-32 46-34 
0-0 1-0 2-17 3-2 4-0 5-0 6-11 7-18 8-0 9-0 10-5 11-23 12-6 13-0 14-0 15-8 16-7 17-19 18-13 19-0 20-14 21-15 22-6 23-17 24-17 25-18 26-19 27-13 28-0 29-20 30-19 31-21 32-19 33-27 34-19 35-19 36-24 37-25 38-26 39-27 
0-0 1-3 2-2 3-4 4-5 5-14 6-14 7-12 8-9 9-10 10-11 11-12 12-13 13-0 14-14 15-5 16-8 17-5 18-5 19-22 20-21 21-5 22-21 23-4 24-5 25-5 26-25 27-26 28-26 29-5 30-5 31-29 32-5 33-5 34-28 35-27 36-30 
0-10 1-11 2-7 3-13 4-14 5-15 6-16 7-0 8-0 9-2 10-4 11-9 12-0 13-7 14-8 15-16 
0-0 1-14 2-2 3-3 4-6 5-6 6-4 7-4 8-6 9-6 10-6 11-14 12-8 13-14 14-14 15-9 16-14 17-10 18-14 19-6 20-14 21-14 22-14 23-12 24-13 25-14 
0-0 1-0 2-2 3-4 4-5 5-15 6-18 7-12 8-0 9-8 10-9 11-0 12-10 13-11 14-12 15-4 16-14 17-0 18-0 19-17 20-16 21-18 
0-13 1-13 2-13 3-2 4-13 5-4 6-5 7-13 8-13 9-8 10-3 11-9 12-13 13-2 14-12 15-13 
0-0 1-0 2-10 3-2 4-22 5-0 6-1 7-22 8-22 9-3 10-6 11-6 12-0 13-8 14-15 15-14 16-15 17-16 18-13 19-15 20-17 21-18 22-13 23-15 24-21 25-22 
0-16 1-1 2-10 3-0 4-4 5-9 6-5 7-6 8-7 9-8 10-10 11-9 12-11 13-10 14-16 15-2 16-10 17-8 18-10 19-12 20-16 
0-12 1-12 2-12 3-2 4-2 5-9 6-4 7-12 8-23 9-11 10-9 11-9 12-10 13-9 14-15 15-2 16-18 17-7 18-21 19-2 20-22 21-19 22-9 23-20 24-9 25-14 26-7 27-4 28-23 
0-0 1-7 2-1 3-6 4-4 5-20 6-5 7-7 8-9 9-6 10-13 11-7 12-6 13-12 14-10 15-7 16-11 17-0 18-16 19-15 20-15 21-19 22-15 23-17 24-7 25-18 26-19 27-15 28-20 29-23 30-16 31-21 32-26 33-10 34-25 35-27 
0-16 1-1 2-3 3-4 4-5 5-1 6-10 7-11 8-12 9-8 10-9 11-16 12-15 13-13 14-1 15-16 16-6 17-1 18-5 19-16 
0-0 1-0 2-3 3-31 4-4 5-5 6-0 7-9 8-6 9-7 10-8 11-10 12-10 13-25 14-46 15-10 16-7 17-25 18-0 19-17 20-31 21-6 22-7 23-0 24-22 25-8 26-0 27-24 28-23 29-10 30-26 31-38 32-25 33-0 34-5 35-31 36-25 37-10 38-10 39-0 40-29 41-30 42-31 43-0 44-33 45-16 46-10 47-0 48-37 49-38 50-25 51-39 52-31 53-0 54-42 55-41 56-31 57-0 58-45 59-44 60-46 
0-0 1-0 2-10 3-4 4-4 5-6 6-5 7-12 8-18 9-18 10-4 11-7 12-9 13-0 14-4 15-20 16-19 17-4 18-0 19-16 20-12 21-21 
0-0 1-1 2-1 3-1 
0-0 1-1 2-7 3-3 4-4 5-5 6-6 7-7 8-8 9-9 10-10 11-0 12-1 13-7 14-3 15-15 16-7 17-19 18-18 19-19 
0-13 1-0 2-1 3-4 4-3 5-4 6-5 7-6 8-8 9-0 10-12 11-11 12-13 
0-5 1-1 2-2 3-3 4-9 5-4 6-11 7-6 8-7 9-8 10-1 11-9 12-10 13-11 14-12 15-11 16-15 17-9 18-11 19-9 20-9 21-9 22-12 23-16 24-14 25-1 26-16 27-1 28-1 29-8 30-22 31-24 32-25 
0-0 1-1 2-10 3-10 4-19 5-11 6-10 7-3 8-4 9-11 10-12 11-6 12-14 13-15 14-6 15-17 16-18 17-10 18-6 19-15 20-6 21-6 22-21 23-22 
0-11 1-14 2-19 3-16 4-3 5-1 6-6 7-16 8-0 9-14 10-11 11-3 12-14 13-11 14-14 15-11 16-17 17-2 18-13 19-9 20-11 21-12 22-15 23-10 24-19 
0-0 1-1 2-7 3-9 4-0 5-4 6-9 7-6 8-3 9-0 10-7 11-9 12-7 13-6 14-7 15-7 16-5 17-9 
0-0 1-1 2-26 3-2 4-26 5-6 6-7 7-9 8-8 9-9 10-15 11-2 12-9 13-34 14-34 15-7 16-23 17-2 18-14 19-9 20-15 21-16 22-7 23-9 24-15 25-19 26-20 27-26 28-7 29-23 30-26 31-9 32-15 33-25 34-2 35-27 36-23 37-2 38-32 39-9 40-26 41-15 42-33 43-34 
0-3 1-1 2-0 3-2 4-3 5-4 6-5 7-6 8-24 9-8 10-4 11-12 12-13 13-14 14-15 15-4 16-20 17-8 18-17 19-19 20-8 21-22 22-23 23-24 
0-12 1-3 2-1 3-13 4-3 5-1 6-1 7-10 8-3 9-8 10-3 11-1 12-2 13-3 14-1 15-7 16-3 17-4 18-6 19-1 20-1 21-3 22-1 23-9 24-17 
0-16 1-5 2-0 3-1 4-2 5-3 6-4 7-18 8-15 9-18 10-12 11-8 12-16 13-3 14-18 15-23 16-8 17-16 18-17 19-18 20-16 21-22 22-8 23-19 24-21 25-23 26-18 27-16 28-24 29-25 
0-5 1-0 2-13 3-1 4-4 5-3 6-13 7-5 8-5 9-5 10-9 11-7 12-7 13-6 14-7 15-8 16-13 
0-0 1-0 2-2 3-3 4-28 5-0 6-9 7-0 8-5 9-20 10-0 11-8 12-9 13-9 14-8 15-12 16-0 17-23 18-24 19-0 20-22 21-11 22-26 23-5 24-14 25-8 26-0 27-11 28-17 29-8 30-38 31-27 32-38 33-0 34-30 35-33 36-8 37-0 38-32 39-29 40-0 41-35 42-27 43-34 44-37 45-38 
0-0 1-0 2-10 3-2 4-4 5-5 6-9 7-6 8-7 9-8 10-10 11-11 12-13 13-15 14-14 15-16 16-27 17-0 18-20 19-19 20-10 21-0 22-27 23-23 24-16 25-7 26-38 27-10 28-0 29-28 30-33 31-34 32-38 33-32 34-31 35-10 36-0 37-35 38-38 39-39 40-40 41-41 
0-0 1-0 2-4 3-3 4-5 5-0 6-7 7-8 8-0 9-9 10-10 11-0 12-8 13-24 14-41 15-5 16-13 17-24 18-29 19-10 20-19 21-0 22-14 23-24 24-0 25-28 26-24 27-25 28-26 29-10 30-24 31-30 32-31 33-8 34-33 35-10 36-0 37-10 38-24 39-0 40-38 41-10 42-35 43-37 44-5 45-24 46-0 47-40 48-41 
0-0 1-0 2-6 3-1 4-8 5-2 6-6 7-7 8-8 9-10 10-11 11-12 
0-9 1-24 2-0 3-7 4-9 5-24 6-7 7-21 8-7 9-21 10-13 11-7 12-1 13-5 14-2 15-13 16-6 17-6 18-7 19-8 20-12 21-13 22-7 23-24 24-1 25-5 26-16 27-4 28-21 29-5 30-23 31-21 32-13 33-2 34-9 35-7 36-9 37-24 
0-8 1-9 2-10 3-2 4-0 5-6 6-1 7-2 8-3 9-4 10-5 11-4 12-7 13-32 14-15 15-13 16-0 17-33 18-17 19-32 20-0 21-19 22-2 23-23 24-25 25-30 26-19 27-11 28-27 29-0 30-29 31-30 32-11 33-32 34-11 35-36 36-37 
0-26 1-5 2-0 3-1 4-2 5-3 6-4 7-24 8-3 9-9 10-14 11-10 12-11 13-13 14-14 15-9 16-26 17-9 18-9 19-26 20-15 21-1 22-9 23-21 24-17 25-9 26-26 27-20 28-14 29-9 30-9 31-21 32-26 33-25 34-26 
0-7 1-7 2-0 3-2 4-3 5-5 6-4 7-6 8-7 9-9 10-2 11-7 12-2 13-10 14-7 15-3 16-12 17-14 18-13 19-15 
0-0 1-2 2-4 3-29 4-2 5-4 6-2 7-16 8-6 9-7 10-8 11-9 12-4 13-29 14-14 15-15 16-4 17-29 18-16 19-17 20-6 21-4 22-29 23-11 24-29 25-15 26-6 27-21 28-8 29-23 30-4 31-25 32-6 33-27 34-28 35-29 
0-0 1-1 2-10 3-17 4-9 5-17 6-7 7-2 8-23 9-10 10-17 11-0 12-17 13-17 14-4 15-26 16-1 17-17 18-10 19-10 20-13 21-17 22-15 23-4 24-17 25-16 26-17 27-17 28-22 29-23 30-24 31-17 32-25 33-26 
0-0 1-5 2-7 3-8 4-12 5-9 6-20 7-11 8-3 9-1 10-9 11-7 12-14 13-4 14-22 15-1 16-9 17-19 18-7 19-21 20-10 21-12 22-12 23-12 24-7 25-28 26-29 27-9 28-30 29-22 30-7 31-9 32-31 
0-0 1-1 2-1 3-1 4-4 5-1 6-6 7-4 8-4 9-1 10-4 11-4 12-1 
0-3 1-1 2-10 3-8 4-16 5-16 6-20 7-20 8-20 9-9 10-2 11-16 12-10 13-9 14-11 15-13 16-16 17-10 18-15 19-16 20-10 21-19 22-16 23-13 24-16 25-13 26-20 
0-4 1-8 2-4 3-8 4-4 5-5 6-8 7-6 8-7 9-8 10-9 11-12 12-15 13-11 14-16 15-4 16-8 17-5 18-18 19-20 
0-16 1-1 2-17 3-6 4-0 5-12 6-5 7-8 8-9 9-0 10-2 11-12 12-0 13-18 14-6 15-0 16-15 17-4 18-17 19-4 20-22 21-23 
0-0 1-2 2-0 3-0 4-22 5-3 6-4 7-5 8-6 9-7 10-8 11-9 12-10 13-0 14-11 15-29 16-22 17-7 18-14 19-22 20-0 21-18 22-22 23-10 24-16 25-22 26-0 27-24 28-0 29-22 30-22 31-0 32-28 33-20 34-29 
0-0 1-1 2-10 3-12 4-12 5-3 6-4 7-4 8-8 9-9 10-12 11-7 12-12 13-16 14-4 15-1 16-14 17-13 18-28 19-4 20-12 21-18 22-19 23-4 24-12 25-20 26-28 27-12 28-12 29-21 30-12 31-12 32-23 33-23 34-4 35-28 36-12 37-24 38-19 39-12 40-4 41-19 42-28 
0-5 1-1 2-18 3-3 4-1 5-2 6-6 7-7 8-8 9-1 10-10 11-9 12-9 13-9 14-12 15-18 16-14 17-18 18-16 19-9 20-18 21-0 22-24 23-1 24-23 25-20 26-25 27-1 28-9 29-9 30-29 31-1 32-18 33-28 34-30 35-9 36-33 37-1 38-5 39-4 40-23 41-9 42-18 43-4 44-1 45-18 46-42 47-43 48-44 
0-16 1-0 2-1 3-16 4-3 5-21 6-5 7-21 8-6 9-7 10-4 11-1 12-10 13-11 14-16 15-12 16-23 17-21 18-14 19-15 20-16 21-18 22-18 23-21 24-16 25-0 26-19 27-21 28-15 29-6 30-1 31-21 32-23 33-21 34-2 35-14 36-27 37-21 38-26 39-28 
0-0 1-0 2-2 3-3 4-4 5-5 6-5 7-6 8-13 9-0 10-12 11-0 12-11 13-10 14-28 15-8 16-25 17-0 18-0 19-22 20-9 21-25 22-17 23-5 24-0 25-23 26-0 27-9 28-0 29-27 30-0 31-0 32-27 33-6 34-17 35-16 36-5 37-0 38-0 39-12 40-0 41-19 42-20 43-28 
0-0 1-0 2-2 3-3 4-5 5-0 6-11 7-8 8-6 9-5 10-6 11-7 12-8 13-9 14-0 15-3 16-0 17-10 18-11 
0-0 1-1 2-7 3-2 4-4 5-3 6-5 7-6 8-10 9-16 10-11 11-12 12-16 13-13 14-15 15-14 16-16 
0-4 1-10 2-4 3-5 4-6 5-7 6-8 7-9 8-10 9-11 10-9 11-1 12-13 13-9 14-14 15-15 
0-4 1-5 2-8 3-11 4-11 5-2 6-9 7-10 8-11 9-12 10-11 11-14 12-11 13-15 14-16 15-6 16-4 17-11 18-7 19-16 
0-0 1-3 2-1 3-18 4-15 5-15 6-3 7-5 8-6 9-3 10-15 11-15 12-18 13-8 14-3 15-3 16-11 17-15 18-3 19-3 20-10 21-18 22-7 23-15 24-3 25-14 26-15 27-3 28-17 29-18 
0-0 1-3 2-3 3-3 4-3 5-9 6-8 7-3 8-9 
0-5 1-0 2-1 3-2 4-3 5-4 6-5 7-5 8-7 9-5 10-11 11-10 12-12 
0-0 1-1 2-10 3-6 4-7 5-16 6-4 7-13 8-1 9-4 10-10 11-12 12-11 13-10 14-15 15-4 16-14 17-16 18-10 19-15 20-17 21-19 
0-0 1-1 2-3 3-5 4-4 5-6 6-3 7-7 8-8 9-3 10-11 11-10 12-1 13-18 14-18 15-18 16-22 17-18 18-18 19-3 20-16 21-17 22-18 23-22 24-21 25-20 26-22 
0-0 1-1 2-3 3-4 4-5 5-3 6-6 7-7 8-3 9-9 10-7 11-8 12-10 13-18 14-3 15-11 16-24 17-13 18-3 19-17 20-7 21-11 22-18 23-3 24-28 25-7 26-3 27-8 28-1 29-7 30-19 31-3 32-22 33-21 34-18 35-23 36-24 37-3 38-26 39-7 40-3 41-29 42-28 43-40 44-5 45-18 46-16 47-32 48-3 49-12 50-7 51-3 52-9 53-7 54-8 55-5 56-7 57-3 58-29 59-18 60-41 61-5 62-3 63-40 64-40 65-44 66-45 
0-12 1-0 2-1 3-2 4-2 5-4 6-6 7-12 8-7 9-8 10-2 11-12 12-12 13-11 14-10 15-12 
0-9 1-2 2-1 3-2 4-3 5-6 6-5 7-7 8-8 9-9 10-10 11-11 12-9 13-13 14-14 
0-4 1-5 2-3 3-9 4-0 5-9 6-2 7-3 8-6 9-7 10-8 11-9 12-10 13-9 14-13 15-3 16-9 17-12 18-11 19-13 
0-0 1-0 2-12 3-0 4-5 5-5 6-0 7-0 8-2 9-0 10-14 11-9 12-4 13-4 14-11 15-0 16-13 17-14 
0-3 1-1 2-2 3-10 4-15 5-5 6-10 7-7 8-8 9-9 10-10 11-11 12-12 13-10 14-17 15-12 16-13 17-14 18-18 19-12 20-10 21-21 22-12 23-10 24-26 25-23 26-24 27-25 28-27 29-12 30-28 31-10 32-29 33-30 
0-0 1-1 2-2 3-6 4-1 5-5 6-2 7-3 8-4 9-2 10-8 11-10 12-10 13-2 14-12 15-8 16-13 
0-0 1-0 2-3 3-0 4-3 5-4 6-0 7-5 8-6 9-7 10-4 11-0 12-9 13-9 14-0 
0-3 1-0 2-5 3-1 4-2 5-3 6-3 7-5 8-3 9-5 10-7 11-6 12-5 13-5 14-8 15-5 16-9 17-10 18-5 19-11 20-8 21-5 22-14 23-14 24-15 
0-4 1-2 2-9 3-1 4-2 5-9 6-3 7-4 8-6 9-8 10-9 11-5 12-0 13-8 14-9 15-10 16-4 17-9 18-13 19-13 20-20 21-14 22-4 23-9 24-2 25-4 26-15 27-19 28-8 29-9 30-5 31-4 32-9 33-12 34-20 
0-0 1-0 2-3 3-4 4-5 5-7 6-6 7-8 8-4 9-0 10-9 11-11 12-10 13-12 14-0 15-13 16-0 17-0 18-17 19-14 20-0 21-16 22-22 23-0 24-15 25-12 26-4 27-0 28-12 29-12 30-2 31-0 32-2 33-22 34-0 35-15 36-8 37-0 38-26 39-27 40-12 41-0 42-12 43-30 
0-1 1-1 2-0 3-0 4-0 5-0 
0-6 1-6 2-4 3-5 4-0 5-6 6-4 7-9 8-8 9-10 10-4 11-10 12-4 13-2 14-2 15-10 16-0 17-4 18-7 19-1 20-10 
0-12 1-11 2-1 3-4 4-1 5-3 6-2 7-5 8-6 9-1 10-1 11-1 12-1 13-1 14-8 15-10 16-10 17-11 18-12 19-13 20-14 21-15 22-16 23-17 
0-0 1-0 2-2 3-3 4-4 5-4 6-15 7-6 8-6 9-0 10-7 11-4 12-9 13-10 14-11 15-0 16-12 17-2 18-13 19-15 20-22 21-15 22-16 23-18 24-15 25-0 26-19 27-25 
0-4 1-15 2-0 3-1 4-4 5-0 6-5 7-7 8-15 9-15 10-6 11-15 12-15 13-0 14-15 15-15 16-0 17-13 18-14 19-15 
0-2 1-0 2-2 3-2 4-3 5-1 6-4 7-12 8-4 9-2 10-12 11-2 12-2 13-4 14-2 15-2 16-11 17-6 18-2 19-10 20-12 
0-10 1-0 2-10 3-12 4-13 5-10 6-11 7-2 8-15 9-10 10-1 11-10 12-10 13-9 14-3 15-10 16-8 17-10 18-10 19-6 20-10 
0-2 1-5 2-2 3-2 4-1 5-2 6-24 7-2 8-2 9-3 10-2 11-2 12-12 13-8 14-11 15-2 16-7 17-23 18-4 19-8 20-14 21-2 22-2 23-2 24-17 25-2 26-2 27-4 28-2 29-16 30-2 31-2 32-16 33-23 34-2 35-2 36-21 37-19 38-2 39-20 40-8 41-23 42-2 43-23 44-24 45-2 46-25 47-2 
0-11 1-0 2-7 3-2 4-3 5-6 6-3 7-7 8-1 9-3 10-4 11-7 12-5 13-3 14-7 15-6 16-3 17-9 18-8 19-11 
0-2 1-2 2-2 3-2 4-2 5-2 6-2 7-4 
0-8 1-3 2-0 3-4 4-5 5-6 6-7 7-8 8-11 9-10 10-4 11-12 12-13 13-14 
0-2 1-3 2-4 3-5 4-6 5-7 6-9 7-10 8-5 9-13 10-13 11-11 12-13 13-10 14-13 15-14 16-15 17-16 
0-0 1-1 2-2 3-3 4-4 5-5 6-4 7-2 8-7 9-4 10-12 11-4 12-14 13-2 14-15 15-15 16-18 
0-0 1-6 2-1 3-2 4-3 5-4 6-5 7-8 8-23 9-9 10-11 11-12 12-2 13-4 14-0 15-23 16-23 17-4 18-0 19-19 20-5 21-9 22-21 23-16 24-9 25-27 26-0 27-0 28-0 29-30 30-31 
0-0 1-0 2-24 3-3 4-26 5-2 6-6 7-7 8-2 9-10 10-9 11-11 12-26 13-13 14-5 15-52 16-21 17-26 18-24 19-17 20-53 21-24 22-25 23-26 24-24 25-27 26-7 27-26 28-0 29-53 30-13 31-15 32-24 33-17 34-32 35-33 36-35 37-0 38-37 39-38 40-39 41-0 42-24 43-41 44-7 45-43 46-15 47-5 48-58 49-59 50-0 51-56 52-0 53-32 54-32 55-38 56-48 57-50 58-26 59-11 60-0 61-5 62-53 63-53 64-24 65-25 66-26 67-24 68-27 69-60 
0-10 1-10 2-5 3-10 4-2 5-10 6-0 7-10 8-1 9-5 10-7 11-8 12-5 13-6 14-5 15-9 16-10 
0-0 1-2 2-3 3-13 4-4 5-15 6-0 7-10 8-0 9-11 10-12 11-13 12-7 13-15 
0-12 1-0 2-12 3-0 4-3 5-9 6-2 7-4 8-5 9-6 10-12 11-8 12-9 13-2 14-4 15-19 16-13 17-14 18-15 19-12 20-0 21-0 22-0 23-18 24-21 
0-0 1-0 2-33 3-2 4-0 5-0 6-36 7-33 8-0 9-10 10-9 11-22 12-6 13-0 14-0 15-4 16-14 17-33 18-35 19-12 20-18 21-0 22-18 23-0 24-36 25-24 26-0 27-33 28-22 29-0 30-24 31-0 32-0 33-36 34-24 35-0 36-33 37-18 38-33 39-0 40-29 41-33 42-22 43-24 44-36 45-15 46-36 
0-0 1-0 2-2 3-3 4-4 5-5 6-6 7-0 8-7 9-8 10-9 11-0 12-12 13-11 14-9 15-0 16-14 17-15 18-0 19-22 20-23 21-2 22-4 23-0 24-21 25-0 26-4 27-23 28-4 29-0 30-4 31-0 32-25 33-26 
0-7 1-8 2-6 3-3 4-11 5-10 6-6 7-8 8-16 9-13 10-5 11-17 12-2 13-1 14-3 15-6 16-8 17-4 18-17 
0-4 1-0 2-4 3-3 4-7 5-4 6-5 7-7 8-4 9-6 10-7 11-4 12-9 13-8 14-11 15-7 16-4 17-14 18-4 19-7 20-16 21-7 22-4 23-17 24-18 
0-10 1-11 2-12 3-13 4-14 5-15 6-16 7-0 8-0 9-16 10-2 11-13 12-0 13-5 14-4 15-6 16-6 17-3 18-6 19-8 20-9 21-16 
0-4 1-3 2-0 3-5 4-0 5-6 6-4 7-0 8-11 9-8 10-4 11-13 12-0 13-26 14-14 15-4 16-0 17-17 18-17 19-0 20-4 21-4 22-0 23-25 24-21 25-4 26-12 27-0 28-23 29-4 30-0 31-25 32-26 33-0 34-0 35-24 36-4 37-4 38-21 39-29 40-4 41-17 42-0 43-0 44-31 45-21 46-41 47-0 48-34 49-29 50-37 51-0 52-44 53-4 54-43 55-38 56-47 57-43 58-4 59-33 60-0 61-48 62-47 63-0 64-46 65-49 
0-0 1-0 2-3 3-4 4-5 5-7 6-0 7-6 8-7 9-8 10-9 11-11 12-12 13-0 14-16 15-7 16-15 17-13 18-7 19-18 20-19 21-29 22-24 23-22 24-5 25-7 26-0 27-25 28-26 29-9 30-7 31-0 32-13 33-29 
0-0 1-0 2-3 3-4 4-0 5-6 6-7 7-0 8-8 9-9 10-0 11-10 12-7 13-0 14-16 15-29 16-0 17-13 18-13 19-9 20-0 21-18 22-21 23-22 24-2 25-19 26-40 27-9 28-29 29-23 30-24 31-29 32-0 33-26 34-9 35-29 36-0 37-28 38-29 39-30 40-34 41-7 42-9 43-40 44-37 45-38 46-39 47-41 48-31 49-0 50-44 51-33 52-43 53-45 54-40 55-48 56-22 57-40 58-50 
0-0 1-1 2-8 3-3 4-11 5-4 6-6 7-12 8-10 9-11 10-12 11-13 12-14 13-12 14-15 15-16 16-3 17-18 18-23 19-14 20-19 21-20 22-12 23-6 24-14 25-6 26-3 27-25 28-26 29-20 30-28 31-12 32-33 33-14 34-30 35-11 36-8 37-12 38-7 39-6 40-6 41-36 42-38 
0-0 1-0 2-2 3-7 4-20 5-5 6-7 7-0 8-8 9-7 10-0 11-9 12-2 13-20 14-11 15-7 16-11 17-0 18-0 19-19 20-20 21-0 22-21 23-14 24-20 25-0 26-11 27-15 28-22 
0-12 1-1 2-12 3-0 4-12 5-6 6-4 7-12 8-2 9-3 10-12 11-11 12-6 13-6 14-12 15-6 16-12 
0-10 1-15 2-13 3-6 4-14 5-16 6-12 7-0 8-1 9-2 10-6 11-4 12-3 13-5 14-6 15-8 16-7 17-19 
0-21 1-1 2-11 3-3 4-4 5-5 6-15 7-6 8-33 9-0 10-7 11-8 12-7 13-10 14-11 15-11 16-37 17-15 18-2 19-11 20-20 21-17 22-21 23-0 24-11 25-3 26-5 27-15 28-11 29-0 30-33 31-26 32-0 33-0 34-5 35-7 36-23 37-11 38-11 39-32 40-33 41-11 42-34 43-10 44-0 45-35 46-33 47-0 48-33 49-33 50-38 51-15 52-33 53-40 54-41 
0-0 1-9 2-21 3-10 4-26 5-3 6-13 7-30 8-15 9-15 10-1 11-20 12-20 13-25 14-20 15-18 16-15 17-20 18-24 19-20 20-30 21-8 22-7 23-5 24-18 25-5 26-27 27-30 
0-0 1-0 2-3 3-4 4-5 5-0 6-6 7-7 8-0 9-8 10-9 11-7 12-0 13-10 14-11 15-7 16-0 17-12 18-13 19-4 20-2 21-0 22-18 23-7 24-20 25-4 26-7 27-0 28-16 29-24 
0-0 1-1 2-1 3-1 4-3 5-1 6-0 
0-0 1-1 2-2 3-0 4-12 5-12 6-0 7-4 8-5 9-12 10-0 11-6 12-8 13-10 14-0 15-11 16-12 17-0 18-7 19-21 20-0 21-5 22-12 23-0 24-17 25-18 26-18 27-5 28-12 29-0 30-19 31-21 
0-11 1-10 2-1 3-2 4-4 5-5 6-1 7-6 8-17 9-9 10-17 11-8 12-5 13-11 14-10 15-17 16-11 17-16 18-12 19-17 20-11 21-20 22-21 23-22 24-10 25-6 26-15 27-7 28-11 29-13 30-22 
0-20 1-1 2-2 3-3 4-4 5-2 6-8 7-4 8-2 9-13 10-15 11-2 12-19 13-2 14-20 
0-10 1-11 2-17 3-2 4-22 5-7 6-8 7-10 8-7 9-15 10-2 11-18 12-5 13-5 14-2 15-12 16-5 17-18 18-18 19-3 20-24 21-20 22-23 23-18 24-3 25-21 26-25 
0-3 1-2 2-9 3-18 4-8 5-1 6-15 7-7 8-9 9-18 10-11 11-10 12-15 13-13 14-14 15-15 16-16 17-15 18-18 19-20 20-21 21-22 
0-0 1-0 2-2 3-1 4-4 5-5 6-6 7-4 8-8 9-10 10-14 11-9 12-10 13-13 14-0 15-0 16-11 17-29 18-10 19-4 20-18 21-6 22-0 23-21 24-20 25-4 26-0 27-15 28-14 29-0 30-26 31-25 32-14 33-0 34-23 35-29 
0-0 1-10 2-15 3-6 4-4 5-3 6-5 7-6 8-7 9-7 10-8 11-6 12-7 13-9 14-1 15-15 16-12 17-6 18-11 19-15 20-17 21-16 22-18 23-19 24-6 25-15 26-24 
0-0 1-1 2-2 3-3 4-3 5-5 6-6 7-3 8-9 9-4 10-11 11-12 12-3 13-13 14-14 15-15 16-18 17-11 18-19 19-14 20-11 21-21 22-3 23-22 24-23 25-24 
0-0 1-0 2-2 3-0 4-0 5-5 6-6 7-0 8-0 9-7 10-4 11-1 12-12 13-8 14-0 15-14 16-0 17-0 18-16 19-0 20-0 21-19 22-18 23-20 
0-0 1-2 2-3 3-4 4-1 5-12 6-6 7-7 8-11 9-8 10-7 11-10 12-12 13-7 14-15 15-13 16-12 17-7 18-14 19-15 
0-8 1-18 2-16 3-7 4-4 5-10 6-2 7-12 8-11 9-13 10-14 11-2 12-15 13-16 14-2 15-17 16-9 17-16 18-2 19-22 20-16 21-2 22-29 23-25 24-28 25-19 26-2 27-26 28-30 
0-14 1-0 2-1 3-2 4-4 5-1 6-5 7-6 8-5 9-8 10-14 11-9 12-10 13-14 14-11 15-13 16-14 17-15 18-16 19-14 20-17 21-18 
0-0 1-6 2-2 3-0 4-0 5-2 6-0 7-3 8-2 9-0 10-10 11-3 12-11 13-0 14-36 15-19 16-13 17-14 18-15 19-0 20-18 21-17 22-19 23-0 24-21 25-22 26-0 27-23 28-19 29-26 30-27 31-0 32-11 33-29 34-15 35-2 36-29 37-34 38-33 39-2 40-36 41-2 42-30 43-37 
0-0 1-17 2-17 3-4 4-11 5-7 6-11 7-7 8-17 9-12 10-13 11-14 12-17 13-16 14-17 
0-9 1-0 2-9 3-9 4-2 5-9 6-4 7-1 8-4 9-9 10-9 11-1 12-9 13-9 14-8 15-7 16-9 
0-11 1-5 2-11 3-3 4-4 5-18 6-6 7-11 8-11 9-3 10-10 11-9 12-3 13-11 14-3 15-3 16-2 17-11 18-3 19-18 20-16 21-11 22-3 23-17 24-18 
0-0 1-7 2-2 3-0 4-3 5-2 6-0 7-28 8-2 9-0 10-28 11-25 12-15 13-2 14-0 15-9 16-2 17-0 18-11 19-13 20-0 21-18 22-7 23-20 24-21 25-25 26-20 27-19 28-26 29-27 30-19 31-29 32-13 33-21 34-25 35-32 36-31 37-25 38-25 39-35 40-36 
0-4 1-0 2-1 3-2 4-2 5-4 6-2 7-5 8-6 9-10 10-9 11-10 12-2 13-13 14-4 15-2 16-13 17-1 18-14 19-10 20-10 21-6 22-28 23-10 24-10 25-2 26-21 27-10 28-2 29-28 30-14 31-10 32-26 33-2 34-27 35-4 36-2 37-33 38-14 39-35 40-30 41-14 42-32 43-29 44-10 45-2 46-36 47-37 
0-0 1-1 2-3 3-7 4-3 5-3 6-4 7-5 8-3 9-3 10-6 11-9 12-3 13-24 14-3 15-10 16-3 17-11 18-3 19-24 20-3 21-14 22-15 23-16 24-27 25-24 26-1 27-3 28-3 29-19 30-3 31-24 32-3 33-21 34-3 35-22 36-16 37-3 38-3 39-26 40-27 
0-44 1-30 2-4 3-44 4-5 5-4 6-44 7-7 8-4 9-44 10-9 11-10 12-11 13-12 14-4 15-44 16-17 17-14 18-10 19-17 20-4 21-44 22-20 23-19 24-10 25-23 26-44 27-24 28-25 29-26 30-1 31-10 32-25 33-28 34-29 35-25 36-27 37-4 38-25 39-2 40-10 41-39 42-4 43-25 44-0 45-25 46-44 47-36 48-10 49-25 50-29 51-39 52-25 53-40 54-10 55-42 56-44 
0-15 1-1 2-2 3-3 4-27 5-6 6-11 7-6 8-6 9-23 10-7 11-12 12-4 13-6 14-6 15-14 16-29 17-17 18-8 19-6 20-18 21-12 22-6 23-3 24-21 25-4 26-0 27-12 28-22 29-25 30-26 31-28 32-12 33-0 34-29 35-6 36-26 37-30 38-32 
0-0 1-2 2-11 3-1 4-7 5-7 6-11 7-3 8-0 9-4 10-3 11-0 12-9 13-11 14-11 15-7 16-11 17-8 18-9 19-11 20-10 21-11 
0-0 1-1 2-2 3-4 4-5 5-10 6-6 7-7 8-8 9-9 10-10 11-11 12-12 13-9 14-10 15-13 16-5 17-14 18-7 19-15 20-9 21-9 22-10 23-10 24-27 25-10 26-10 27-13 28-12 29-10 30-10 31-26 32-5 33-23 34-9 35-22 36-28 
0-0 1-1 2-2 3-3 4-4 5-7 6-12 7-6 8-7 9-8 10-12 11-10 12-9 13-12 14-11 15-12 
0-0 1-0 2-3 3-30 4-27 5-5 6-6 7-0 8-7 9-30 10-4 11-4 12-27 13-4 14-27 15-11 16-4 17-0 18-13 19-15 20-16 21-4 22-9 23-19 24-20 25-0 26-0 27-29 28-25 29-16 30-23 31-27 32-0 33-27 34-30 
0-0 1-0 2-2 3-3 4-16 5-0 6-7 7-16 8-0 9-6 10-30 11-8 12-0 13-9 14-17 15-0 16-11 17-12 18-30 19-12 20-30 21-14 22-0 23-15 24-16 25-7 26-16 27-12 28-0 29-19 30-12 31-11 32-22 33-23 34-6 35-26 36-0 37-2 38-16 39-0 40-29 41-16 42-12 43-16 44-31 45-11 46-33 
0-1 1-2 2-2 3-0 4-2 5-2 6-2 7-3 
0-14 1-3 2-14 3-1 4-14 5-0 6-1 7-2 8-4 9-14 10-6 11-6 12-14 13-7 14-1 15-5 16-14 17-12 18-13 19-1 20-14 21-9 22-14 
0-0 1-0 2-1 3-17 4-3 5-4 6-6 7-8 8-1 9-8 10-5 11-11 12-12 13-17 14-13 15-11 16-11 17-15 18-20 19-17 20-16 21-17 22-11 23-19 24-20 
0-0 1-0 2-2 3-0 
0-0 1-2 2-7 3-4 4-4 5-9 6-7 7-11 8-5 9-6 10-7 11-8 12-9 13-7 14-10 15-11 16-9 17-7 18-12 19-11 20-9 21-7 22-14 23-15 24-9 25-7 26-16 27-17 
0-0 1-1 2-2 3-3 4-6 5-6 6-4 7-1 8-9 9-10 10-3 11-11 12-12 13-3 14-14 15-3 16-3 17-15 18-17 19-3 20-14 21-18 22-19 
0-0 1-1 2-2 3-1 4-1 5-8 6-8 7-1 8-9 9-1 10-5 11-9 
0-25 1-0 2-7 3-2 4-3 5-3 6-7 7-7 8-8 9-0 10-10 11-22 12-0 13-24 14-0 15-3 16-18 17-5 18-3 19-7 20-16 21-18 22-3 23-19 24-19 25-25 
0-1 1-0 2-0 3-1 
0-0 1-2 2-0 3-3 4-4 5-5 6-3 7-9 8-10 9-11 10-15 11-15 12-26 13-16 14-14 15-7 16-5 17-3 18-3 19-6 20-14 21-5 22-22 23-5 24-20 25-3 26-13 27-0 28-25 29-26 
0-15 1-0 2-1 3-4 4-2 5-3 6-8 7-7 8-7 9-9 10-4 11-10 12-18 13-5 14-12 15-4 16-15 17-7 18-15 19-15 20-16 21-4 22-6 23-4 24-18 25-15 26-15 27-15 28-20 29-21 
0-0 1-26 2-2 3-1 4-7 5-4 6-6 7-7 8-7 9-6 10-3 11-16 12-3 13-3 14-3 15-13 16-16 17-16 18-3 19-10 20-14 21-15 22-16 23-3 24-12 25-18 26-26 27-3 28-25 29-22 30-26 
0-0 1-2 2-1 3-37 4-27 5-9 6-11 7-13 8-37 9-3 10-12 11-6 12-6 13-15 14-19 15-18 16-23 17-9 18-22 19-16 20-23 21-18 22-9 23-11 24-25 25-13 26-6 27-29 28-18 29-9 30-31 31-37 32-23 33-33 34-21 35-37 
0-18 1-7 2-6 3-3 4-4 5-5 6-12 7-4 8-12 9-8 10-10 11-11 12-12 13-14 14-13 15-4 16-10 17-8 18-12 19-17 20-12 21-18 22-2 23-16 24-18 
0-3 1-8 2-18 3-11 4-8 5-3 6-22 7-3 8-19 9-5 10-3 11-20 12-8 13-9 14-8 15-11 16-18 17-13 18-14 19-8 20-3 21-21 22-20 23-8 24-3 25-10 26-22 27-23 28-14 29-8 30-26 31-27 32-5 33-30 34-14 35-8 36-26 37-10 38-34 39-35 
0-12 1-7 2-9 3-9 4-12 5-4 6-5 7-6 8-12 9-12 10-12 11-12 12-8 13-12 14-10 15-11 16-12 
0-10 1-15 2-4 3-2 4-15 5-3 6-4 7-5 8-6 9-15 10-4 11-8 12-9 13-10 14-12 15-15 16-14 17-13 18-15 
0-5 1-5 2-7 3-4 4-3 5-9 
0-0 1-0 2-2 3-2 4-3 5-4 6-5 7-6 8-0 9-6 10-8 11-4 12-11 13-0 14-13 15-12 16-14 17-4 18-4 19-0 20-0 21-18 22-17 23-4 24-0 25-22 26-0 27-21 28-20 29-25 30-0 31-23 32-0 33-0 34-27 35-4 36-0 37-0 38-26 39-14 40-0 41-23 42-31 43-30 44-32 
0-0 1-3 2-10 3-2 4-6 5-9 6-8 7-7 8-10 9-6 10-5 11-14 
0-0 1-1 2-2 3-3 4-3 5-3 6-14 7-1 8-3 9-3 10-8 11-14 12-1 13-3 14-14 15-3 16-3 17-12 18-13 19-14 
0-0 1-8 2-2 3-0 4-5 5-3 6-0 7-5 8-8 9-0 10-7 11-8 12-8 13-10 14-8 15-0 16-13 17-15 
0-0 1-1 2-6 3-2 4-6 5-6 6-4 7-3 8-5 9-6 10-8 11-7 12-18 13-25 14-13 15-6 16-17 17-18 18-9 19-18 20-23 21-1 22-6 23-19 24-6 25-22 26-21 27-23 28-6 29-24 30-9 31-27 32-26 33-28 
0-0 1-2 2-3 3-4 4-7 5-5 6-6 7-7 8-7 9-7 10-0 11-9 12-10 13-18 14-12 15-7 16-18 17-11 18-13 19-18 20-15 21-7 22-18 23-14 24-9 25-18 26-17 27-18 
0-0 1-1 2-3 3-10 4-5 5-13 6-12 7-5 8-3 9-4 10-5 11-3 12-7 13-6 14-32 15-27 16-3 17-19 18-5 19-3 20-3 21-5 22-22 23-14 24-15 25-25 26-14 27-27 28-28 29-29 30-27 31-5 32-5 33-5 34-30 35-31 36-5 37-29 38-34 39-15 40-1 41-5 42-36 43-38 44-37 45-39 
0-0 1-26 2-1 3-3 4-4 5-8 6-4 7-26 8-4 9-4 10-7 11-10 12-9 13-6 14-5 15-4 16-12 17-26 18-15 19-4 20-25 21-13 22-4 23-4 24-4 25-0 26-26 27-19 28-18 29-4 30-25 31-0 32-16 33-21 34-13 35-26 
0-0 1-2 2-3 3-9 4-9 5-7 6-9 7-9 8-9 9-11 10-10 11-12 
0-0 1-2 2-3 3-4 4-8 5-6 6-8 7-8 8-7 9-8 
0-10 1-5 2-10 3-10 4-3 5-2 6-10 7-10 8-7 9-8 10-8 11-4 12-10 13-10 14-11 15-13 16-10 17-10 18-15 19-16 20-10 21-18 22-8 23-20 24-17 25-8 26-29 27-10 28-24 29-25 30-10 31-16 32-8 33-28 34-29 
0-0 1-1 2-1 3-1 4-1 
0-3 1-4 2-5 3-3 4-7 5-8 6-13 7-13 8-3 9-1 10-18 11-12 12-11 13-5 14-14 15-20 16-16 17-20 18-5 19-15 20-20 21-22 22-0 23-3 24-25 25-26 
0-0 1-1 2-3 3-5 4-9 5-1 6-14 7-7 8-6 9-6 10-17 11-6 12-9 13-6 14-10 15-2 16-14 17-10 18-11 19-10 20-21 21-14 22-15 23-16 24-17 25-10 26-19 27-14 28-10 29-22 30-21 31-9 32-10 33-30 34-26 35-6 36-6 37-6 38-10 39-13 40-35 41-36 
0-0 1-0 2-3 3-13 4-2 5-0 6-0 7-6 8-11 9-0 10-8 11-9 12-0 13-10 14-11 15-0 16-12 17-13 18-13 19-0 20-14 21-0 22-16 23-17 24-18 
0-10 1-0 2-1 3-2 4-10 5-10 6-4 7-5 8-10 9-10 10-6 11-3 12-10 13-9 14-10 15-10 16-8 17-10 
0-18 1-7 2-18 3-9 4-18 5-10 6-11 7-1 8-6 9-18 10-5 11-18 12-17 13-18 14-18 15-8 16-6 17-17 18-18 19-6 20-19 21-20 
0-3 1-3 2-6 3-3 4-3 5-5 6-4 
0-25 1-16 2-25 3-0 4-19 5-1 6-2 7-4 8-5 9-6 10-7 11-8 12-17 13-17 14-12 15-14 16-16 17-21 18-19 19-17 20-20 21-21 22-19 23-21 24-24 25-25 
0-0 1-1 2-2 3-3 
0-0 1-0 2-1 3-2 4-3 5-4 6-5 7-4 8-3 9-8 10-4 11-11 12-12 13-23 14-7 15-8 16-16 17-8 18-13 19-13 20-18 21-3 22-21 23-19 24-17 25-23 
0-0 1-12 2-1 3-18 4-0 5-12 6-18 7-6 8-0 9-18 10-7 11-0 12-9 13-10 14-7 15-12 16-14 17-12 18-15 19-9 20-14 21-18 
0-5 1-6 2-2 3-7 4-16 5-9 6-4 7-11 8-12 9-1 10-4 11-11 12-15 13-16 
0-0 1-4 2-9 3-2 4-3 5-4 6-5 7-6 8-7 9-8 10-9 11-10 12-11 13-9 14-13 15-12 16-4 17-4 18-9 19-18 20-14 21-17 22-18 
0-22 1-1 2-2 3-3 4-22 5-9 6-6 7-7 8-6 9-22 10-9 11-10 12-3 13-12 14-5 15-9 16-16 17-17 18-12 19-13 20-19 21-21 22-22 23-19 24-22 
0-0 1-0 2-1 3-3 4-24 5-7 6-6 7-8 8-9 9-10 10-4 11-12 12-13 13-14 14-10 15-4 16-17 17-23 18-20 19-4 20-22 21-23 22-24 
0-0 1-1 2-3 3-6 4-3 5-13 6-3 7-8 8-5 9-9 10-10 11-12 12-5 13-14 14-15 15-16 
0-9 1-0 2-3 3-0 4-0 5-11 6-12 7-40 8-0 9-23 10-2 11-18 12-3 13-4 14-5 15-19 16-14 17-13 18-15 19-9 20-19 21-0 22-0 23-21 24-14 25-24 26-23 27-40 28-14 29-28 30-6 31-14 32-40 33-6 34-0 35-32 36-31 37-33 38-16 39-0 40-33 41-36 42-37 43-38 44-40 
0-9 1-1 2-7 3-2 4-3 5-4 6-7 7-5 8-9 
0-5 1-1 2-6 3-2 4-0 5-2 
0-0 1-1 2-3 3-4 4-6 5-6 6-1 7-1 8-4 9-1 10-6 11-13 12-14 13-6 14-15 15-8 16-17 17-6 18-18 19-19 
0-0 1-4 2-2 3-9 4-3 5-5 6-2 7-12 8-3 9-9 10-3 
0-4 1-8 2-1 3-2 4-4 5-3 6-5 7-6 8-7 9-8 
0-11 1-0 2-2 3-5 4-12 5-7 6-8 7-9 8-10 9-11 10-6 11-13 12-14 
0-0 1-1 2-2 3-3 4-1 5-15 6-0 7-4 8-5 9-29 10-10 11-28 12-28 13-0 14-1 15-18 16-19 17-3 18-1 19-21 20-23 21-24 22-16 23-26 24-16 25-27 26-28 27-28 28-29 
0-4 1-3 2-1 3-3 4-3 5-0 
0-0 1-0 2-0 
0-0 1-0 2-1 3-2 4-3 
0-0 1-1 2-2 
0-0 1-1 2-2 3-3 4-17 5-5 6-2 7-7 8-8 9-2 10-11 11-10 12-1 13-13 14-14 15-11 16-17 17-2 18-19 19-17 20-22 21-21 22-40 23-4 24-2 25-25 26-26 27-4 28-27 29-17 30-2 31-29 32-17 33-2 34-39 35-34 36-2 37-39 38-17 39-2 40-36 41-17 42-2 43-38 44-40 45-17 46-42 47-40 48-40 49-15 50-40 51-51 52-41 53-17 54-2 55-38 56-17 57-55 58-40 59-8 60-8 61-40 62-4 63-40 64-8 65-58 
0-0 1-53 2-1 3-0 4-4 5-5 6-6 7-7 8-8 9-13 10-10 11-7 12-8 13-9 14-10 15-16 16-2 17-18 18-19 19-5 20-21 21-7 22-8 23-25 24-7 25-8 26-24 27-10 28-28 29-0 30-31 31-36 32-33 33-34 34-35 35-32 36-5 37-21 38-7 39-8 40-25 41-41 42-14 43-0 44-46 45-5 46-48 47-7 48-8 49-51 50-52 51-53 
0-0 1-0 2-0 
0-1 1-0 
0-0 1-2 2-1 3-12 4-4 5-5 6-6 7-5 8-8 9-9 10-10 11-11 12-3 13-13 
0-0 1-10 2-1 3-2 4-3 5-4 6-10 7-5 8-2 9-7 10-8 11-9 12-10 13-11 14-13 15-14 16-15 17-13 18-17 
0-17 1-6 2-8 3-4 4-3 5-2 6-9 7-10 8-11 9-9 10-5 11-12 12-13 13-14 14-15 15-25 16-9 17-5 18-12 19-13 20-14 21-24 22-25 23-26 
0-0 1-1 2-13 3-16 4-1 5-8 6-15 7-9 8-11 9-7 10-0 11-5 12-1 13-8 14-1 15-15 16-16 17-18 
0-2 1-1 2-0 3-3 4-5 5-4 6-7 7-6 8-26 9-45 10-10 11-11 12-40 13-2 14-36 15-0 16-10 17-11 18-39 19-34 20-6 21-45 22-11 23-12 24-10 25-24 26-31 27-39 28-6 29-16 30-18 31-19 32-7 33-25 34-30 35-10 36-45 37-10 38-24 39-6 40-25 41-11 42-19 43-46 
0-1 1-0 2-1 3-5 4-1 5-5 6-5 7-3 8-5 9-1 10-1 11-7 12-1 13-1 14-4 15-6 16-2 17-9 18-5 19-0 20-12 
0-1 1-0 2-4 3-4 4-4 5-4 6-6 7-4 8-4 9-4 10-5 11-2 12-9 13-4 14-0 15-12 
0-1 1-0 2-3 3-7 4-0 5-3 6-4 7-3 8-2 9-6 10-3 11-0 12-9 
0-1 1-0 2-4 3-4 4-4 5-4 6-3 7-4 8-4 9-4 10-5 11-2 12-7 13-4 14-0 15-10 
0-1 1-0 2-4 3-4 4-4 5-4 6-3 7-4 8-4 9-4 10-6 11-4 12-5 13-6 14-2 15-8 16-4 17-0 18-11 
0-1 1-0 2-8 3-6 4-0 5-6 6-3 7-2 8-5 9-6 10-0 11-8 
0-1 1-0 2-4 3-4 4-4 5-4 6-7 7-4 8-4 9-4 10-5 11-2 12-7 13-4 14-0 15-10 
0-2 1-0 2-5 3-5 4-5 5-5 6-5 7-3 8-5 9-5 10-5 11-7 12-6 13-2 14-9 15-5 16-0 17-12 
0-1 1-0 2-1 3-6 4-1 5-1 6-3 7-2 8-5 9-6 10-0 11-8 
0-1 1-0 2-7 3-6 4-9 5-7 6-5 7-9 8-7 9-9 10-3 11-6 12-9 13-7 14-12 15-9 16-7 17-7 18-11 19-2 20-14 21-9 22-0 23-17 
0-3 1-0 2-8 3-6 4-0 5-8 6-3 7-2 8-5 9-6 10-0 11-8 
0-1 1-0 2-4 3-4 4-4 5-4 6-3 7-4 8-4 9-4 10-6 11-4 12-4 13-6 14-2 15-8 16-4 17-0 18-11 
0-2 1-0 2-5 3-5 4-5 5-5 6-7 7-3 8-5 9-5 10-5 11-5 12-6 13-2 14-9 15-5 16-0 17-12 
