0-0 1-1 2-2 3-6 4-14 5-3 6-4 7-5 8-6 9-8 10-9 11-10 12-11 13-12 14-11 15-13 16-14 17-15 18-11 19-13 20-19 21-22 22-4 23-19 24-21 25-22 26-3 27-26 28-27 
0-0 1-1 2-0 3-2 4-0 5-0 6-0 7-0 8-0 9-4 10-4 
0-0 1-1 2-2 3-3 4-3 5-4 6-5 7-6 8-8 9-7 10-10 11-11 12-12 13-13 14-14 15-15 16-13 17-17 18-19 19-16 20-19 21-13 22-16 23-22 24-22 25-23 26-24 
0-0 1-2 2-2 3-2 4-2 5-4 6-11 7-6 8-6 9-13 10-16 11-8 12-6 13-2 14-15 15-14 16-15 17-9 18-10 19-17 
0-0 1-4 2-2 3-3 4-5 5-6 6-7 7-18 8-0 9-14 10-1 11-3 12-16 13-14 14-10 15-11 16-11 17-18 18-13 19-14 20-1 21-16 22-17 23-18 24-19 25-20 26-15 27-22 28-21 29-24 
0-0 1-1 2-0 3-1 4-2 5-3 6-10 7-5 8-8 9-4 10-6 11-7 12-8 13-3 14-9 15-6 16-11 
0-0 1-14 2-13 3-15 4-3 5-3 6-19 7-10 8-9 9-8 10-15 11-10 12-9 13-9 14-11 15-15 16-9 17-18 18-21 19-21 20-5 21-4 22-21 
0-0 1-3 2-1 3-3 4-5 5-7 6-8 7-14 8-13 9-9 10-10 11-10 12-10 13-12 14-15 
0-0 1-12 2-2 3-2 4-2 5-4 6-5 7-6 8-7 9-8 10-9 11-10 12-11 13-12 14-13 15-12 16-10 17-15 18-16 19-12 20-20 21-10 22-14 23-20 24-18 25-20 26-10 27-17 28-20 
0-0 1-1 2-1 3-1 4-2 5-3 
0-16 1-3 2-7 3-4 4-9 5-17 6-5 7-7 8-13 9-9 10-17 11-18 12-14 13-15 14-20 15-13 16-16 17-17 18-22 19-24 20-22 21-22 22-23 23-25 
0-2 1-1 2-2 3-1 4-0 5-9 6-2 7-7 8-9 9-9 10-9 11-9 12-8 13-9 14-9 15-15 16-15 17-12 18-13 19-15 20-18 21-14 22-15 23-15 24-19 
0-2 1-1 2-2 3-2 4-5 5-10 6-2 7-8 8-9 9-10 10-11 11-12 12-13 
0-0 1-1 2-3 3-4 4-5 5-6 6-7 7-7 8-10 9-11 10-8 11-9 12-11 13-11 14-14 15-11 16-11 17-16 18-17 19-19 
0-0 1-1 2-2 3-2 4-2 5-2 6-6 7-6 8-5 9-6 10-2 11-7 12-9 13-9 14-10 15-12 
0-0 1-3 2-13 3-5 4-4 5-5 6-5 7-6 8-9 9-11 10-9 11-3 12-12 13-13 
0-0 1-0 2-3 3-5 4-2 5-2 6-7 7-6 8-9 9-8 10-9 11-9 12-10 13-11 
0-11 1-6 2-2 3-7 4-8 5-4 6-5 7-10 8-11 9-5 10-13 11-11 12-14 13-16 14-13 15-11 16-15 17-13 18-2 19-1 20-16 21-0 22-17 
0-4 1-2 2-2 3-2 4-6 5-6 6-12 7-3 8-9 9-11 10-9 11-15 12-16 13-17 14-17 15-18 
0-0 1-1 2-2 3-3 4-4 5-5 6-7 7-8 8-7 9-10 10-11 11-12 12-13 13-14 14-4 15-15 16-16 
0-0 1-0 2-0 3-1 4-3 5-2 6-3 7-3 8-4 9-5 
0-1 1-3 2-1 3-6 4-7 5-3 6-8 7-10 8-10 9-10 10-12 11-7 12-14 13-15 14-16 
0-0 1-1 2-2 3-2 4-5 5-7 6-19 7-7 8-14 9-14 10-15 11-12 12-10 13-17 14-14 15-13 16-14 17-23 18-22 19-19 20-20 21-24 
0-0 1-1 2-2 3-3 4-3 5-3 6-4 7-3 8-7 
0-0 1-1 2-2 3-5 4-16 5-7 6-8 7-9 8-10 9-13 10-12 11-8 12-14 13-14 14-18 15-17 16-18 
0-0 1-1 2-2 3-22 4-2 5-3 6-3 7-5 8-7 9-8 10-14 11-10 12-11 13-11 14-13 15-12 16-17 17-16 18-15 19-19 20-22 
0-0 1-1 2-3 3-2 4-3 5-4 6-5 7-6 8-7 9-7 10-8 11-3 12-13 13-18 14-14 15-12 16-18 17-15 18-17 19-18 20-18 21-19 
0-0 1-1 2-15 3-4 4-5 5-6 6-5 7-7 8-8 9-8 10-17 11-9 12-22 13-15 14-12 15-15 16-16 17-2 18-21 19-18 20-22 
0-0 1-1 2-3 3-1 4-2 5-3 6-5 7-6 8-8 9-9 10-8 11-9 12-11 13-9 14-12 15-9 16-15 17-9 18-15 19-13 20-15 
0-0 1-2 2-1 3-2 4-3 5-20 6-12 7-5 8-10 9-7 10-10 11-6 12-11 13-8 14-10 15-9 16-11 17-10 18-12 19-20 20-17 21-22 22-10 23-21 24-14 25-15 26-23 27-21 28-16 29-23 
0-0 1-1 2-2 3-2 4-4 5-5 
0-9 1-1 2-5 3-8 4-1 5-9 6-5 7-9 8-9 9-7 10-10 11-8 12-9 13-11 14-12 15-13 16-11 17-9 18-15 19-17 20-24 21-9 22-18 23-24 24-21 25-19 26-20 27-14 28-25 
0-2 1-1 2-2 3-3 4-4 5-5 6-5 7-5 8-7 9-8 10-8 11-11 12-10 13-11 
0-0 1-1 2-11 3-6 4-11 5-9 6-8 7-11 8-11 9-10 10-11 11-11 12-16 13-17 14-15 15-17 16-15 17-12 18-17 
0-12 1-8 2-4 3-2 4-6 5-5 6-7 7-5 8-1 9-5 10-8 11-8 12-0 13-2 14-8 15-8 16-9 17-10 18-11 19-12 20-13 21-14 22-18 23-17 24-16 25-17 26-18 
0-0 1-1 2-4 3-6 4-8 5-5 6-9 7-5 8-9 9-14 10-11 11-14 12-13 13-11 14-16 15-16 16-17 17-18 18-19 19-19 20-20 21-21 22-22 
0-0 1-3 2-3 3-2 4-3 5-3 6-4 7-5 8-7 9-10 10-6 11-8 12-26 13-6 14-16 15-14 16-19 17-15 18-14 19-24 20-20 21-17 22-20 23-21 24-22 25-26 
0-0 1-1 
0-0 1-1 
0-0 1-1 2-2 3-3 
0-0 1-1 2-2 3-3 
0-0 1-1 2-2 3-3 
0-0 1-6 2-1 3-3 4-4 5-3 6-5 7-6 8-7 9-7 10-8 11-8 12-8 13-10 14-11 15-12 16-10 17-10 18-14 19-12 20-13 21-14 22-17 23-18 24-19 
0-0 1-1 
0-0 1-1 
0-0 1-2 2-1 3-2 4-3 5-4 6-5 7-5 8-7 9-8 10-9 11-7 12-10 13-10 14-11 15-12 
0-0 1-0 2-1 3-5 4-2 5-3 6-6 7-4 8-5 9-6 10-7 11-8 12-6 13-9 14-10 15-13 16-12 17-13 18-13 
0-0 1-1 
0-2 1-4 2-17 3-4 4-10 5-8 6-9 7-10 8-8 9-12 10-10 11-14 12-15 13-16 14-13 15-15 16-19 17-21 
0-0 1-4 2-1 3-5 4-6 5-10 6-19 7-10 8-7 9-9 10-11 11-12 12-13 13-10 14-19 15-17 16-19 17-19 18-21 19-20 20-23 
0-16 1-10 2-12 3-3 4-3 5-7 6-4 7-20 8-21 9-23 10-22 11-20 12-11 13-23 14-16 15-0 16-23 
0-1 1-1 2-0 3-3 
0-0 1-1 
0-0 1-19 2-5 3-4 4-19 5-4 6-6 7-7 8-9 9-9 10-8 11-9 12-12 13-14 14-12 15-16 16-17 17-18 18-19 19-19 20-21 21-21 22-22 
0-0 1-1 2-1 3-1 4-1 5-3 6-4 
0-0 1-1 2-2 3-3 4-4 5-5 6-6 7-7 8-8 9-9 10-9 11-10 12-11 13-9 14-13 15-12 16-14 
0-0 1-3 2-2 3-4 4-5 5-4 6-5 7-7 8-7 9-7 10-9 11-10 12-9 13-11 14-12 15-13 16-0 17-5 18-15 19-11 20-16 21-11 22-17 23-17 
0-0 1-3 2-1 3-2 4-3 5-4 6-3 7-5 8-6 9-6 10-7 11-10 12-16 13-9 14-13 15-8 16-11 17-13 18-13 19-7 20-15 21-14 22-16 
0-0 1-3 2-2 3-3 4-3 5-5 6-7 7-7 8-8 9-9 
0-0 1-1 2-2 3-2 4-4 5-4 6-7 7-10 8-8 9-10 10-10 11-11 12-12 13-13 
0-1 1-1 2-0 3-1 
0-0 1-10 2-1 3-2 4-3 5-4 6-7 7-13 8-5 9-7 10-10 11-8 12-9 13-10 14-11 15-12 16-13 17-15 18-16 19-18 20-21 21-16 22-21 23-23 24-22 25-24 26-26 
0-0 1-2 2-1 3-2 4-2 
0-0 1-2 2-1 3-2 4-12 5-4 6-6 7-6 8-6 9-6 10-12 11-8 12-6 13-12 14-11 15-14 
0-0 1-1 2-2 3-3 4-4 5-2 6-5 7-6 
0-6 1-3 2-7 3-5 4-2 5-12 6-4 7-8 8-9 9-9 10-11 11-12 12-12 13-14 14-12 15-16 16-18 17-17 18-18 19-20 20-21 21-22 22-23 
0-1 1-4 2-1 3-2 4-0 5-1 6-4 7-4 8-4 9-5 10-1 11-6 12-7 13-4 14-9 15-10 
0-0 1-4 2-9 3-2 4-5 5-6 6-5 7-7 8-5 9-9 10-10 11-9 12-12 13-13 14-14 15-14 16-15 17-14 18-17 19-14 20-18 21-19 22-14 23-19 
0-0 1-8 2-3 3-3 4-3 5-3 6-5 7-5 8-0 9-8 10-3 11-3 12-11 13-3 14-5 15-10 16-13 17-9 18-13 
0-9 1-1 2-10 3-4 4-5 5-16 6-6 7-4 8-8 9-9 10-0 11-16 12-12 13-18 14-15 15-18 16-20 17-19 18-20 
0-0 1-1 2-1 3-2 4-4 5-4 6-5 7-6 8-15 9-7 10-8 11-9 12-10 13-17 14-11 15-15 16-14 17-15 18-15 19-16 20-17 21-18 22-15 23-19 24-22 25-21 26-22 
0-0 1-1 2-2 3-3 4-4 5-5 6-6 7-7 8-8 9-12 10-9 11-12 12-12 13-10 14-11 15-12 16-14 17-15 18-16 
0-0 1-1 2-3 3-2 4-7 5-5 6-6 7-7 8-7 9-9 10-9 11-10 12-7 13-11 14-11 15-13 
0-1 1-3 2-0 3-2 4-2 5-3 6-3 
0-0 1-2 2-1 3-2 4-2 5-4 6-3 7-5 8-3 9-5 10-8 11-8 12-8 13-2 14-8 15-2 16-10 17-11 18-12 19-11 20-14 21-15 22-14 23-15 
0-0 1-1 2-2 3-2 4-4 5-3 6-5 7-6 8-8 9-7 10-9 11-10 12-13 13-11 14-12 15-14 
0-0 1-1 2-1 3-6 4-6 5-6 6-10 7-10 8-7 9-3 10-10 11-7 12-9 13-10 14-12 15-12 16-15 17-8 18-13 19-14 20-23 21-20 22-22 23-10 24-15 25-23 
0-0 1-1 2-2 3-3 4-7 5-5 6-7 7-9 8-10 9-11 10-12 11-13 
0-0 1-1 2-2 3-5 4-7 5-3 6-5 7-5 8-4 9-9 10-10 11-9 12-7 13-9 14-10 15-8 16-9 17-10 18-13 19-12 20-11 21-14 22-18 23-21 24-21 25-20 26-19 27-21 
0-2 1-4 2-2 3-2 4-0 5-2 6-1 7-5 
0-0 1-3 2-1 3-5 4-3 5-3 6-6 7-7 8-8 9-9 10-9 11-17 12-15 13-10 14-9 15-15 16-14 17-14 18-12 19-18 20-20 
0-0 1-1 
0-0 1-1 
0-0 1-1 2-2 3-4 4-7 5-7 6-6 7-7 8-7 9-9 10-7 11-13 12-12 13-14 14-15 15-16 16-17 17-18 18-19 
0-0 1-1 2-3 3-2 4-3 5-4 6-5 7-6 8-8 9-8 10-9 11-6 12-11 13-10 14-12 15-13 16-14 17-15 18-16 19-17 20-18 21-23 22-6 23-22 24-12 25-20 26-23 
0-3 1-1 2-12 3-2 4-11 5-4 6-6 7-7 8-7 9-5 10-6 11-0 12-10 13-8 14-9 15-11 16-11 17-12 
0-0 1-1 2-2 3-3 4-4 5-5 6-5 7-7 8-13 9-13 10-17 11-18 12-13 13-20 14-9 15-10 16-13 17-5 18-15 19-21 
0-16 1-7 2-2 3-20 4-3 5-4 6-10 7-11 8-5 9-10 10-9 11-1 12-8 13-12 14-19 15-15 16-18 17-19 18-19 19-23 20-20 21-22 22-21 23-23 
0-0 1-1 2-2 3-0 4-7 5-14 6-7 7-3 8-4 9-6 10-6 11-2 12-9 13-10 14-12 15-10 16-14 17-4 18-12 19-14 20-6 21-14 22-0 23-13 24-14 
0-0 1-1 2-17 3-10 4-5 5-12 6-5 7-13 8-5 9-15 10-14 11-11 12-15 13-17 14-18 15-19 16-18 17-20 18-18 19-2 20-8 21-4 22-20 
0-5 1-2 2-1 3-2 4-3 5-5 6-4 7-5 8-5 9-7 10-8 11-10 12-12 13-3 14-13 15-14 
0-3 1-5 2-3 3-1 4-4 5-6 6-9 7-7 8-8 9-8 10-9 11-9 12-10 13-8 14-11 15-12 16-16 17-13 18-14 19-16 20-3 21-19 22-16 23-16 24-18 25-20 26-21 
0-0 1-1 2-2 3-2 4-3 5-3 6-4 7-3 8-5 
0-0 1-1 2-2 3-3 4-3 5-5 6-23 7-6 8-4 9-6 10-9 11-12 12-12 13-9 14-11 15-12 16-11 17-12 18-13 19-3 20-24 21-18 22-15 23-22 24-20 25-23 26-20 27-18 28-19 29-25 
0-2 1-3 2-2 3-4 4-4 5-2 6-2 7-6 8-9 9-9 10-11 11-10 12-13 13-16 14-13 15-15 16-17 
0-13 1-2 2-1 3-11 4-1 5-0 6-6 7-4 8-5 9-6 10-7 11-8 12-9 13-10 14-11 15-12 16-13 17-14 18-15 
0-3 1-4 2-2 3-6 4-1 5-6 6-9 7-11 8-8 9-10 10-12 11-9 12-13 13-14 14-18 15-15 16-16 17-17 18-19 19-14 20-20 21-21 22-19 23-23 24-25 25-26 
0-0 1-8 2-1 3-2 4-3 5-7 6-8 7-9 8-10 
0-0 1-1 2-2 3-2 4-4 5-3 6-5 7-5 8-7 9-2 10-7 11-10 12-10 
0-0 1-1 2-1 3-2 4-3 5-4 6-4 7-5 8-6 9-7 10-6 11-6 12-6 13-6 14-9 15-10 
0-0 1-0 2-1 3-14 4-14 5-2 6-3 7-14 8-11 9-6 10-4 11-11 12-11 13-5 14-7 15-8 16-9 17-11 18-11 19-3 20-10 21-15 22-11 23-13 24-4 25-16 26-18 27-17 28-19 
0-1 1-0 2-1 
0-0 1-1 2-2 3-9 4-3 5-4 6-4 7-16 8-8 9-12 10-9 11-14 12-9 13-16 14-16 15-23 16-18 17-24 18-9 19-17 20-11 21-21 22-24 23-25 24-25 25-27 26-28 
0-0 1-1 
0-0 1-1 2-3 3-4 4-5 5-6 6-4 7-7 8-10 9-8 10-9 11-10 12-10 13-12 14-13 15-10 16-14 17-16 18-22 19-10 20-16 21-22 22-27 23-22 24-23 25-27 
0-1 1-2 2-0 3-1 4-5 5-1 6-4 7-5 8-6 9-12 10-9 11-20 12-10 13-12 14-12 15-15 16-14 17-17 18-12 19-17 20-18 21-19 22-21 23-22 24-17 25-23 26-24 27-27 
0-0 1-1 2-3 3-4 4-5 5-6 6-8 7-14 8-7 9-9 10-3 11-1 12-17 13-6 14-15 15-17 
0-0 1-1 2-0 3-2 4-10 5-1 6-3 7-4 8-4 9-5 10-6 11-12 12-7 13-12 14-12 15-6 16-9 17-10 18-11 19-12 
0-0 1-3 2-9 3-26 4-5 5-6 6-7 7-6 8-8 9-6 10-12 11-13 12-14 13-11 14-16 15-16 16-6 17-21 18-11 19-15 20-16 21-17 22-21 23-3 24-26 25-25 26-19 27-27 28-28 
0-3 1-0 2-1 3-2 4-3 5-11 6-5 7-6 8-7 9-8 10-9 11-12 12-12 13-12 14-11 15-12 16-13 17-14 
0-0 1-7 2-1 3-2 4-3 5-4 6-5 7-6 8-7 9-7 10-8 11-10 12-11 13-12 14-14 15-13 16-11 17-12 18-15 19-16 
0-0 1-0 2-1 3-3 4-5 5-5 6-3 7-3 8-4 9-5 10-16 11-11 12-13 13-8 14-11 15-16 
0-0 1-3 2-1 3-4 4-6 5-7 6-8 7-9 8-10 
0-0 1-1 2-2 3-3 4-4 
0-0 1-1 2-3 3-5 4-4 5-4 6-4 7-5 8-3 9-7 
0-0 1-1 
0-0 1-2 2-1 3-2 4-17 5-6 6-6 7-3 8-3 9-5 10-5 11-6 12-7 13-8 14-10 15-11 16-12 17-13 18-16 19-17 20-14 21-18 22-15 23-18 
0-0 1-2 2-1 3-2 4-3 5-4 6-6 7-3 8-6 9-8 10-8 11-9 12-10 13-11 
0-0 1-1 2-3 3-4 4-5 5-6 6-7 7-8 8-10 9-11 10-12 11-12 12-19 13-19 14-19 15-15 16-17 17-19 18-16 19-19 20-19 21-20 22-21 
0-2 1-2 2-2 3-2 4-8 5-9 6-6 7-7 8-8 9-1 10-9 11-15 12-9 13-9 14-10 15-13 16-13 17-12 18-14 19-19 20-13 21-18 22-19 23-19 24-15 25-16 26-19 27-19 28-19 29-19 
0-0 1-1 2-2 3-4 4-7 5-8 6-9 7-10 8-11 9-9 10-12 11-15 12-12 13-9 14-17 15-17 16-18 17-19 18-21 19-22 20-23 21-19 22-25 23-26 
0-0 1-8 2-1 3-2 4-8 5-4 6-3 7-8 8-4 9-5 10-8 11-13 12-12 13-13 
0-0 1-6 2-1 3-2 4-4 5-6 6-3 7-4 8-5 9-6 10-1 11-2 12-7 13-8 14-11 15-12 16-13 17-9 18-12 19-13 20-14 
0-0 1-1 2-5 3-1 4-2 5-5 6-5 7-4 8-5 9-5 10-6 11-7 12-8 13-10 14-10 15-11 16-12 
0-7 1-7 2-3 3-3 4-3 5-0 6-3 7-2 8-1 9-4 10-5 11-7 12-5 13-8 14-9 15-7 16-10 17-12 18-10 19-10 20-11 21-13 
0-1 1-1 2-1 3-2 4-6 5-1 6-10 7-4 8-8 9-9 10-10 11-16 12-13 13-10 14-22 15-17 16-12 17-17 18-11 19-19 20-20 21-20 22-23 23-10 24-22 25-24 
0-0 1-1 2-1 3-2 4-4 5-3 6-12 7-9 8-9 9-8 10-7 11-9 12-9 13-9 14-10 15-11 16-12 17-12 18-11 19-12 20-13 21-14 
0-0 1-2 2-1 3-1 4-2 5-4 6-5 7-9 8-7 9-9 10-8 11-10 12-9 13-9 14-13 15-14 
0-0 1-1 2-8 3-4 4-3 5-4 6-8 7-6 8-7 9-12 10-4 11-10 12-8 13-13 14-14 15-12 16-17 17-18 18-19 
0-4 1-3 2-1 3-2 4-5 5-6 6-1 7-10 8-1 9-8 10-9 11-11 12-13 13-18 14-15 15-13 16-17 17-18 18-19 19-20 20-21 21-22 
0-0 1-1 2-2 3-3 4-4 5-5 6-6 7-7 8-22 9-11 10-11 11-8 12-11 13-10 14-11 15-12 16-17 17-11 18-11 19-14 20-19 21-11 22-21 23-24 
0-0 1-0 2-3 3-0 4-5 5-6 6-7 7-8 8-9 9-10 10-11 11-12 12-11 13-14 14-15 15-16 
0-0 1-0 2-1 3-2 4-3 5-4 6-5 7-6 8-7 9-7 10-8 11-9 12-10 13-11 
0-0 1-2 2-2 3-3 4-4 5-5 6-5 7-6 8-8 9-8 10-18 11-17 12-15 13-15 14-21 15-15 16-14 17-15 18-12 19-19 20-13 21-22 
0-0 1-0 2-1 3-2 4-4 5-4 6-6 7-5 8-7 9-7 10-8 11-15 12-9 13-12 14-13 15-11 16-12 17-10 18-11 19-1 20-16 21-17 
0-0 1-1 2-2 3-3 4-4 
0-7 1-3 2-1 3-1 4-0 5-24 6-6 7-4 8-5 9-9 10-10 11-11 12-1 13-12 14-14 15-15 16-16 17-16 18-18 19-18 20-19 21-20 22-20 23-22 24-23 25-24 26-25 27-26 28-29 
0-0 1-6 2-2 3-1 4-3 5-5 6-3 7-4 8-8 
0-0 1-1 2-2 3-1 4-2 5-3 6-4 7-5 8-7 9-6 10-11 11-12 12-11 13-14 
0-0 1-3 2-0 3-1 4-2 5-5 6-6 7-7 8-8 9-9 10-18 11-17 12-9 13-9 14-21 15-20 16-19 17-6 18-11 19-16 20-19 21-19 22-20 23-14 24-20 25-22 
0-3 1-3 2-2 3-0 4-6 5-1 6-6 7-6 8-6 9-6 10-9 11-12 12-11 13-12 
0-0 1-1 2-4 3-1 4-1 5-0 6-1 7-1 8-7 9-6 10-6 11-3 12-1 13-5 14-6 15-8 16-8 
0-0 1-3 2-1 3-2 4-3 5-3 6-4 7-6 8-7 9-8 10-12 11-8 12-10 13-11 14-13 15-9 16-13 
0-0 1-3 2-1 3-3 4-3 5-2 6-3 7-4 8-3 9-9 10-7 11-8 12-9 13-12 14-9 15-8 16-10 17-11 18-12 19-12 20-12 21-14 22-3 23-9 24-16 25-17 26-18 27-21 28-19 29-21 
0-0 1-1 2-3 3-3 4-3 5-5 6-7 7-9 8-6 9-11 10-8 11-11 12-12 13-13 14-13 15-14 16-18 17-15 18-15 19-16 20-18 21-18 22-19 23-20 
0-0 1-1 2-3 3-3 4-2 5-3 6-5 7-5 8-6 9-7 10-9 11-10 12-10 13-13 14-11 15-12 16-13 17-14 18-15 19-16 20-14 21-18 22-18 
0-0 1-1 2-3 3-1 4-3 5-6 6-7 
0-0 1-1 2-0 3-0 4-3 5-5 6-4 7-6 8-8 9-7 10-7 11-10 12-12 13-11 14-12 
0-7 1-1 2-1 3-2 4-4 5-3 6-3 7-4 8-7 9-5 10-9 11-9 12-7 13-10 14-3 15-12 16-13 17-14 18-5 19-17 20-17 21-18 22-17 23-17 24-21 25-20 26-22 
0-0 1-1 2-1 3-3 4-4 5-5 
0-0 1-0 2-2 3-3 4-4 5-5 6-6 7-7 8-8 9-10 10-8 11-8 12-9 13-11 14-16 15-16 16-15 17-16 18-11 19-17 20-18 21-20 22-21 23-22 24-23 25-24 
0-0 1-6 2-1 3-2 4-4 5-4 6-4 7-6 8-7 9-8 
0-0 1-1 2-2 3-1 4-3 5-4 
0-0 1-2 2-1 3-2 4-3 5-5 6-5 7-5 8-7 9-8 10-15 11-9 12-11 13-12 14-13 15-15 16-15 17-12 18-17 19-18 20-19 21-20 
0-0 1-1 2-3 3-4 4-3 5-5 6-3 7-7 8-8 9-9 10-7 11-8 12-7 13-8 14-12 15-12 
0-0 1-1 2-2 3-3 4-6 5-6 6-4 7-6 8-18 9-8 10-6 11-18 12-9 13-11 14-13 15-15 16-14 17-12 18-15 19-17 20-18 21-19 22-19 23-21 24-22 25-23 26-24 27-25 
0-0 1-0 2-1 3-3 4-4 5-6 6-6 7-6 8-7 9-8 
0-1 1-1 2-3 3-4 4-4 5-16 6-10 7-11 8-6 9-9 10-8 11-9 12-12 13-13 14-18 15-19 16-21 17-22 
0-0 1-6 2-1 3-2 4-2 5-2 6-2 7-6 8-4 9-5 10-9 11-6 12-8 13-10 14-10 15-14 16-10 17-10 18-10 19-10 20-12 21-15 22-14 23-15 24-15 25-9 26-15 
0-0 1-1 2-2 3-4 4-5 5-3 6-7 7-8 8-10 9-11 10-8 11-14 12-13 13-17 14-17 15-13 16-17 17-17 18-11 19-19 20-21 21-20 22-22 
0-0 1-1 
0-0 1-1 2-2 3-3 4-4 5-7 6-7 7-7 8-8 9-6 10-7 11-11 12-21 13-21 14-17 15-9 16-12 17-13 18-21 19-15 20-19 21-17 22-23 23-24 24-25 
0-5 1-7 2-0 3-4 4-2 5-4 6-3 7-4 8-8 9-10 10-11 11-13 12-12 13-14 
0-0 1-19 2-1 3-2 4-3 5-4 6-5 7-6 8-9 9-10 10-8 11-12 12-13 13-14 14-15 15-8 16-19 17-20 18-19 19-22 20-24 21-22 22-9 23-25 
0-0 1-1 2-3 3-2 4-4 5-6 6-4 7-6 8-6 9-6 10-8 11-9 12-11 13-10 14-11 15-11 16-15 17-13 18-14 19-11 20-8 21-19 22-15 23-17 24-18 25-19 
0-7 1-5 2-1 3-2 4-3 5-3 6-7 7-6 8-7 9-9 10-11 11-13 12-7 13-14 14-5 15-14 16-14 17-15 18-17 
0-0 1-1 2-2 3-9 4-3 5-6 6-8 7-8 8-6 9-11 
0-19 1-3 2-1 3-21 4-5 5-6 6-6 7-10 8-22 9-9 10-9 11-15 12-11 13-16 14-22 15-16 16-19 17-20 18-23 
0-0 1-1 2-2 3-4 4-4 5-4 6-4 7-7 8-8 9-10 10-10 
0-3 1-0 2-3 3-3 4-3 5-2 6-4 7-2 8-4 9-5 10-6 
0-0 1-2 2-1 3-2 4-3 5-5 6-4 7-5 8-6 9-7 10-8 11-8 12-9 13-12 14-11 15-10 16-12 
0-0 1-1 2-0 3-0 4-6 5-5 6-2 7-3 8-0 9-6 10-4 11-6 
0-0 1-4 2-2 3-0 4-7 5-9 6-8 7-11 8-11 9-13 10-9 11-17 12-17 13-15 14-17 
0-0 1-2 2-1 3-3 4-4 5-5 6-6 7-7 8-8 9-9 10-10 11-10 12-12 13-16 14-11 15-13 16-14 17-19 
0-1 1-1 2-1 3-1 4-0 5-1 6-4 7-1 8-5 9-6 
0-0 1-2 2-3 3-1 4-8 5-6 6-3 7-6 8-5 9-9 10-10 11-10 12-3 13-10 14-10 15-11 16-8 17-12 
0-1 1-1 2-1 3-3 4-4 5-5 6-5 7-8 8-9 9-10 10-11 
0-0 1-9 2-1 3-2 4-3 5-4 6-6 7-9 8-6 9-6 10-6 11-9 12-11 13-12 14-6 15-14 16-15 17-16 18-17 
0-0 1-1 2-0 3-8 4-0 5-2 6-10 7-4 8-3 9-8 10-10 11-7 12-8 13-10 14-11 15-13 16-13 17-10 18-14 19-18 20-18 21-17 22-18 
0-0 1-2 2-2 3-3 4-4 5-6 6-6 7-7 8-8 
0-16 1-1 2-0 3-2 4-3 5-7 6-17 7-6 8-7 9-9 10-8 11-11 12-14 13-12 14-17 15-15 16-17 17-17 18-24 19-17 20-22 21-16 22-17 23-23 24-25 25-26 
0-0 1-0 2-1 3-2 4-3 
0-0 1-1 2-1 3-2 4-3 5-4 6-4 7-9 8-7 9-6 10-7 11-8 12-10 
0-9 1-3 2-0 3-4 4-9 5-7 6-5 7-10 8-12 
0-0 1-1 2-2 3-3 4-4 5-5 6-6 7-7 8-8 9-5 10-10 11-11 12-6 13-9 14-9 15-13 16-12 17-18 18-15 19-17 20-18 21-22 22-15 23-16 24-18 25-19 26-20 27-17 28-20 29-23 
0-0 1-5 2-1 3-2 4-3 5-3 6-7 7-5 8-7 9-5 10-6 11-9 12-9 13-9 14-10 15-12 16-10 17-11 18-13 
0-0 1-2 2-1 3-3 4-7 5-4 6-7 7-6 8-7 9-9 10-8 11-11 12-11 13-15 14-11 15-14 16-16 17-17 18-17 19-21 20-18 21-17 22-17 23-24 24-6 25-17 26-17 27-26 28-26 
0-0 1-1 2-2 3-8 4-10 5-3 6-8 7-10 8-9 9-8 10-5 11-4 12-6 13-7 14-10 15-5 16-12 
0-0 1-5 2-2 3-2 4-2 5-2 6-3 7-0 8-1 9-5 10-5 11-7 12-8 
0-0 1-1 2-2 3-3 4-4 5-5 6-7 7-7 8-8 9-9 10-16 11-17 12-18 13-12 14-14 15-13 16-21 
0-0 1-2 2-2 3-4 4-4 5-3 6-6 7-8 8-10 9-7 10-8 11-9 12-10 13-14 14-12 15-10 16-16 17-16 
0-0 1-0 2-3 3-3 4-0 5-3 6-11 7-12 8-16 9-6 10-13 11-9 12-16 13-13 14-19 15-11 16-15 17-16 18-3 19-15 20-16 21-5 22-16 23-19 24-18 25-7 26-19 
0-0 1-1 2-2 3-2 4-3 5-2 6-2 7-2 8-5 
0-3 1-13 2-1 3-8 4-6 5-10 6-5 7-8 8-11 9-12 10-4 11-14 12-11 13-8 14-17 15-12 16-2 17-8 18-2 19-17 20-17 21-17 22-17 
0-1 1-0 2-1 3-3 4-3 5-3 6-3 7-6 8-7 
0-0 1-1 2-2 3-3 4-4 5-6 6-7 7-6 8-8 9-9 10-10 11-11 12-12 
0-1 1-1 2-0 3-3 
0-0 1-2 2-1 3-3 4-3 5-5 6-4 7-5 8-6 9-8 10-8 11-11 12-10 13-11 14-11 15-13 
0-3 1-2 2-2 3-2 4-0 5-1 6-6 7-6 8-6 9-8 10-8 11-10 12-10 13-11 14-14 15-5 16-15 17-16 18-17 19-17 20-19 21-12 22-20 23-21 
0-0 1-1 2-2 3-6 4-4 5-8 6-8 7-6 8-10 9-12 10-8 11-12 
0-0 1-5 2-9 3-5 4-6 5-9 6-4 7-9 8-9 9-9 10-9 11-9 12-12 13-13 14-14 15-14 16-13 17-13 18-13 19-17 20-17 21-18 22-19 23-20 24-21 25-20 26-24 27-22 28-24 
0-0 1-1 2-2 3-3 4-3 5-4 6-6 7-10 8-9 9-8 10-5 11-14 12-13 13-16 14-20 15-17 16-15 17-20 
0-0 1-1 2-5 3-4 4-4 5-7 6-2 7-4 8-5 9-4 10-3 11-7 12-12 13-10 14-11 15-5 16-12 17-13 18-7 19-18 20-14 21-20 22-5 23-20 24-22 25-23 26-24 
0-1 1-3 2-0 3-1 4-1 5-1 6-2 7-3 
0-0 1-1 2-2 3-0 4-4 5-6 6-8 7-13 8-6 9-8 10-8 11-8 12-12 13-8 14-10 15-9 16-11 17-15 18-15 19-17 20-19 21-20 22-21 23-25 24-22 25-20 26-23 27-25 28-26 
0-0 1-2 2-3 3-4 4-3 5-5 6-6 7-8 8-8 9-12 10-8 11-12 12-8 13-9 14-13 15-11 16-13 17-13 18-13 19-14 20-21 21-3 22-15 23-10 24-16 25-17 26-20 27-21 
0-0 1-1 2-2 3-3 4-4 5-3 6-6 7-7 
0-2 1-14 2-2 3-15 4-4 5-2 6-4 7-4 8-7 9-8 10-7 11-9 12-7 13-10 14-2 15-9 16-0 17-11 18-14 19-11 20-14 21-17 22-17 
0-9 1-10 2-2 3-12 4-15 5-2 6-4 7-6 8-2 9-11 10-9 11-11 12-5 13-6 14-11 15-13 16-20 17-16 18-20 19-22 20-17 21-19 22-17 23-17 24-18 25-23 
0-0 1-1 2-2 3-5 4-6 5-8 6-7 7-9 8-10 9-9 10-11 11-12 
0-0 1-1 2-2 3-4 4-6 5-4 6-6 7-6 8-7 9-9 10-8 11-9 12-10 13-11 14-13 15-12 16-15 17-16 18-15 19-11 20-18 21-19 22-17 23-19 
0-0 1-1 2-0 3-2 4-0 5-4 6-3 7-3 
0-0 1-1 2-5 3-5 4-5 5-5 6-5 7-4 8-5 9-6 10-8 11-9 12-13 13-14 14-11 15-14 16-10 17-14 18-12 19-14 20-13 21-14 22-15 23-16 24-17 25-19 26-20 27-20 
0-0 1-1 2-2 3-3 4-5 5-10 6-0 7-8 8-10 9-9 10-11 
0-0 1-2 2-1 3-2 4-3 5-3 6-4 7-5 8-7 9-6 10-9 11-9 12-10 13-11 14-11 15-12 16-13 
0-0 1-3 2-5 3-6 4-7 5-8 
0-0 1-1 2-3 3-3 4-3 5-5 6-4 7-6 
0-0 1-1 2-2 3-2 4-4 5-5 6-7 7-10 8-5 9-8 10-8 11-10 12-9 13-12 
0-0 1-1 2-2 3-3 4-3 5-6 6-6 7-6 8-8 9-7 10-8 11-12 12-10 13-12 14-12 15-13 16-14 17-14 18-15 19-16 
0-0 1-1 2-1 3-3 4-3 5-4 
0-0 1-2 2-4 3-6 4-1 5-7 
0-0 1-2 2-1 3-2 4-3 5-5 6-6 7-7 8-8 
0-0 1-1 2-3 3-4 4-2 5-4 6-4 7-5 8-6 9-7 10-7 11-8 12-9 13-10 14-11 
0-0 1-1 2-2 3-2 4-3 5-2 6-8 7-6 8-7 9-8 10-9 11-8 12-13 13-11 14-15 15-13 16-14 17-18 
0-0 1-9 2-0 3-2 4-3 5-0 6-6 7-5 8-9 9-0 10-1 11-10 12-10 13-7 14-5 15-8 16-10 
0-0 1-2 2-1 3-2 4-3 5-5 6-6 7-6 8-7 9-9 10-8 11-9 12-10 13-11 14-12 15-11 16-11 17-14 18-15 19-17 
0-2 1-2 2-11 3-0 4-2 5-1 6-11 7-4 8-6 9-10 10-7 11-11 12-9 13-11 14-11 15-13 16-14 17-11 18-12 19-14 
0-0 1-1 2-2 3-3 4-4 
0-7 1-2 2-1 3-3 4-3 5-4 6-5 7-6 8-7 9-7 10-8 11-10 
0-0 1-1 2-3 3-2 4-4 5-5 6-5 7-7 8-7 9-6 10-9 11-19 12-11 13-12 14-10 15-13 16-9 17-10 18-13 19-19 20-18 21-16 22-19 23-17 24-19 25-19 26-21 27-20 28-21 
0-0 1-1 2-2 3-3 4-4 5-5 6-6 7-7 8-8 9-10 10-9 11-11 
0-3 1-2 2-4 3-5 4-3 5-11 6-7 7-7 8-8 9-10 10-7 11-8 12-12 13-14 14-15 15-16 16-17 
0-0 1-1 2-2 3-2 4-4 5-5 6-3 7-6 8-5 9-7 10-9 11-11 12-11 13-13 14-11 15-12 16-11 17-18 18-11 19-20 
0-1 1-1 2-0 3-1 4-5 5-3 6-5 7-5 8-5 9-8 10-8 11-9 12-10 13-8 14-13 15-12 16-14 17-14 18-18 19-16 20-15 21-14 22-19 23-20 
0-0 1-1 2-2 3-6 4-3 5-6 6-4 7-5 8-11 9-8 10-6 11-7 12-10 13-11 14-12 15-13 16-14 
0-2 1-2 2-3 3-3 4-5 5-3 
0-0 1-4 2-0 3-3 4-6 5-4 6-4 7-9 8-10 9-8 10-8 11-3 12-10 13-11 
0-7 1-3 2-0 3-1 4-2 5-6 6-8 7-8 8-11 
0-0 1-2 2-3 3-2 4-2 5-8 6-5 7-7 8-6 9-9 10-9 11-10 12-13 13-10 14-10 15-18 16-15 17-16 18-17 19-19 20-20 21-22 22-21 23-23 
0-2 1-3 2-6 3-12 4-10 5-9 6-2 7-7 8-16 
0-0 1-1 2-3 3-4 4-5 5-4 6-6 7-7 8-4 9-7 10-8 11-9 12-6 13-9 14-13 15-13 16-12 17-13 
0-0 1-0 2-3 3-3 4-8 5-9 6-10 7-6 8-12 9-9 10-3 11-13 12-13 13-13 
0-0 1-8 2-1 3-2 4-3 5-7 6-8 7-9 8-10 
0-0 1-1 2-3 3-3 4-3 5-0 6-4 7-6 
0-0 1-1 2-2 3-19 4-8 5-4 6-2 7-3 8-5 9-8 10-9 11-10 12-11 13-12 14-12 15-18 16-11 17-16 18-12 19-14 20-12 21-12 22-15 23-19 
0-0 1-1 2-1 3-1 4-4 5-6 6-7 7-7 8-5 9-5 10-7 11-7 12-8 13-8 14-9 
0-0 1-1 2-7 3-5 4-2 5-3 6-7 7-10 8-11 
0-2 1-3 2-2 3-2 4-8 5-9 6-6 7-7 8-7 9-9 10-9 11-11 
0-0 1-1 2-2 3-4 4-5 5-7 6-6 7-7 8-9 9-10 10-11 11-12 
0-1 1-0 2-1 
0-0 1-12 2-1 3-2 4-3 5-5 6-4 7-6 8-2 9-6 10-8 11-8 12-9 13-13 
0-2 1-1 2-4 3-3 4-5 5-6 6-7 7-7 8-8 9-9 10-9 11-12 12-14 13-13 14-6 15-15 16-15 17-18 18-17 19-20 20-20 21-19 22-20 23-21 24-22 
0-3 1-6 2-3 3-11 4-13 5-12 6-8 7-6 8-11 9-11 10-15 11-14 12-17 13-16 14-17 
0-0 1-2 2-2 3-3 4-4 5-5 6-6 7-7 8-8 9-9 10-14 11-10 12-14 13-20 14-14 15-11 16-13 17-13 18-18 19-20 20-18 21-19 22-20 23-21 24-23 25-24 26-25 
0-0 1-1 2-2 3-4 
0-0 1-1 2-1 3-1 4-1 5-1 6-2 7-3 8-4 9-5 10-1 11-11 12-7 13-8 14-9 15-10 16-11 17-12 18-13 
0-0 1-1 2-2 3-2 4-4 5-4 6-2 7-5 8-7 9-11 10-10 11-11 12-12 13-13 14-4 15-15 16-14 17-17 18-18 19-19 
0-0 1-1 2-1 3-2 4-3 5-4 6-5 7-4 8-6 9-5 10-5 11-1 12-7 13-8 14-8 15-5 16-12 17-11 18-12 19-12 20-12 
0-0 1-5 2-1 3-2 4-21 5-2 6-8 7-11 8-13 9-22 10-8 11-16 12-17 13-12 14-10 15-16 16-15 17-16 18-16 19-0 20-19 21-21 22-22 23-3 24-21 25-21 26-21 27-22 28-22 29-25 
0-0 1-2 2-0 3-4 4-1 5-2 6-2 7-3 8-4 
0-0 1-3 2-1 3-2 4-3 5-23 6-20 7-7 8-12 9-4 10-5 11-6 12-7 13-8 14-9 15-15 16-11 17-19 18-19 19-17 20-19 21-23 22-22 23-3 24-25 25-26 
0-0 1-2 2-1 3-3 4-2 5-6 6-6 7-8 8-9 9-8 10-10 
0-0 1-1 2-2 3-3 4-4 5-7 6-7 7-7 8-5 9-15 10-9 11-11 12-10 13-13 14-15 15-13 16-15 17-15 18-16 19-15 20-18 
0-0 1-1 2-4 3-17 4-7 5-8 6-6 7-7 8-8 9-7 10-9 11-6 12-13 13-11 14-7 15-6 16-14 17-15 18-17 19-16 20-16 21-16 22-17 23-19 24-22 25-21 26-19 27-19 28-23 29-24 
0-0 1-1 2-1 3-8 4-3 5-5 6-4 7-5 8-5 9-8 10-8 11-6 12-7 13-5 14-11 15-11 16-13 17-11 18-14 19-14 20-15 21-17 
0-0 1-5 2-5 3-0 4-1 5-3 6-3 7-11 8-4 9-8 10-15 11-10 12-11 13-11 14-11 15-11 16-15 17-13 18-11 19-9 20-19 21-13 22-17 23-19 24-18 25-18 26-19 
0-0 1-3 2-4 3-6 4-7 5-2 6-6 7-9 8-10 9-6 10-12 11-13 12-14 13-15 14-11 15-8 16-11 17-5 18-11 19-11 20-14 21-20 22-6 23-23 
0-1 1-2 2-1 3-3 4-4 5-5 6-6 7-6 8-6 9-6 10-8 11-10 12-9 13-12 14-14 15-13 16-9 17-15 18-13 19-15 20-16 21-17 22-19 23-18 24-21 25-23 26-23 27-25 28-24 29-26 
0-0 1-2 2-0 3-0 4-1 5-3 6-5 7-3 8-5 9-4 10-6 11-5 12-7 13-8 14-8 15-10 16-8 17-8 18-9 19-11 
0-0 1-1 2-2 3-15 4-22 5-5 6-6 7-8 8-18 9-9 10-10 11-18 12-12 13-12 14-12 15-21 16-15 17-15 18-19 19-18 20-23 21-24 22-16 23-22 24-22 25-25 26-20 27-21 28-27 
0-0 1-1 2-3 3-0 4-2 5-3 6-4 7-5 8-7 9-18 10-8 11-9 12-9 13-11 14-12 15-14 16-15 17-15 18-17 19-18 20-11 21-18 
0-0 1-1 2-2 3-3 4-6 5-22 6-7 7-7 8-8 9-9 10-11 11-9 12-9 13-13 14-14 15-16 16-17 17-15 18-19 19-13 20-16 21-20 22-22 23-21 24-22 25-20 26-22 27-22 28-20 29-25 
0-1 1-1 2-0 3-2 4-4 5-5 6-6 7-7 8-8 9-7 10-11 11-10 12-13 13-14 14-15 15-16 16-11 17-17 18-18 19-20 20-19 21-21 
0-10 1-1 2-2 3-3 4-4 5-5 6-6 7-7 8-8 9-9 10-10 11-9 12-9 13-12 14-13 15-14 16-15 17-16 18-14 19-14 20-18 21-21 22-19 23-20 24-21 
0-0 1-6 2-2 3-0 4-6 5-0 6-4 7-11 8-9 9-11 10-9 11-10 12-0 13-6 14-6 15-0 16-11 17-0 18-8 19-11 20-1 21-9 22-11 
0-0 1-1 2-2 3-5 4-5 5-8 6-5 7-7 8-9 9-11 10-12 11-14 12-16 13-16 
0-19 1-10 2-18 3-0 4-2 5-3 6-4 7-5 8-6 9-24 10-19 11-20 12-19 13-14 14-23 15-22 16-24 17-21 18-14 19-26 20-14 21-7 22-27 
0-0 1-1 2-2 3-13 4-4 5-6 6-11 7-7 8-6 9-8 10-11 11-11 12-12 13-11 14-11 15-11 16-15 17-16 
0-4 1-1 2-4 3-0 4-4 5-5 6-10 7-7 8-8 9-10 10-11 11-11 12-12 13-13 14-15 15-17 
0-0 1-1 2-5 3-6 4-5 5-5 6-5 7-8 8-8 9-10 10-10 11-12 12-10 13-10 14-14 15-15 
0-0 1-1 2-2 3-2 4-3 5-5 6-6 7-7 
0-0 1-1 2-2 3-2 4-6 5-6 6-10 7-5 8-10 9-4 10-13 11-17 12-14 13-21 14-17 15-18 16-17 17-17 18-23 19-23 20-20 21-23 
0-0 1-3 2-1 3-2 4-3 5-3 6-5 7-5 8-6 9-7 10-8 11-9 12-10 13-12 14-13 15-14 16-15 
0-6 1-3 2-1 3-2 4-3 5-3 6-2 7-3 8-3 9-3 10-4 11-6 12-6 13-6 14-6 
0-0 1-1 2-3 3-4 4-3 5-5 6-6 7-4 8-7 9-6 10-9 11-9 12-9 
0-0 1-1 2-1 3-1 4-4 5-5 6-8 7-5 8-8 9-8 10-9 11-11 12-6 13-10 14-16 15-14 16-16 17-13 18-16 19-13 20-16 21-16 22-15 23-16 24-22 25-20 26-19 27-21 28-23 
0-0 1-1 2-2 3-2 4-4 5-3 6-2 7-6 8-7 9-8 10-9 11-10 12-11 13-14 14-12 15-9 16-13 17-19 18-15 19-20 20-18 21-20 22-18 23-20 
0-0 1-1 2-0 3-2 4-2 5-2 6-5 
0-7 1-1 2-9 3-0 4-2 5-5 6-7 7-7 8-7 9-7 10-7 11-8 12-7 13-6 14-5 15-9 
0-9 1-8 2-9 3-10 4-5 5-11 6-7 7-6 8-9 9-12 10-12 11-12 
0-0 1-1 2-2 3-4 4-4 5-8 6-8 7-4 8-15 9-6 10-20 11-12 12-10 13-13 14-18 15-23 16-17 17-11 18-13 19-13 20-18 21-17 22-13 23-18 24-22 25-24 
0-0 1-1 2-2 3-20 4-6 5-5 6-12 7-10 8-5 9-4 10-6 11-12 12-7 13-20 14-13 15-6 16-19 17-10 18-13 19-11 20-24 21-19 22-22 23-24 
0-0 1-0 2-2 3-3 4-4 5-4 6-6 7-3 8-1 9-7 10-7 11-3 12-7 
0-0 1-2 2-0 3-2 4-2 5-3 6-4 
0-0 1-1 2-2 3-3 4-7 5-4 6-5 7-6 8-7 9-8 10-9 11-12 12-14 13-12 14-14 15-13 16-14 17-15 18-9 19-18 20-21 21-24 22-25 23-22 24-25 25-26 
0-0 1-4 2-2 3-4 4-8 5-2 6-0 7-3 8-8 9-8 10-9 11-10 12-11 13-11 14-8 15-17 16-11 17-16 18-15 19-17 20-17 21-16 22-19 
0-0 1-2 2-3 3-2 4-6 5-5 6-3 7-6 8-6 9-14 10-13 11-11 12-12 13-13 14-15 15-17 16-19 17-16 18-21 19-20 20-23 21-24 
0-0 1-1 2-2 3-2 4-3 5-4 6-5 7-6 8-7 9-8 10-9 
0-5 1-0 2-1 3-4 4-5 
0-7 1-10 2-6 3-2 4-0 5-2 6-1 7-2 8-7 9-3 10-4 11-10 12-5 13-7 14-7 15-9 16-10 17-8 18-6 19-7 20-12 21-10 22-12 23-11 24-12 
0-1 1-1 2-1 3-4 4-4 5-3 6-5 7-5 8-6 9-7 10-8 11-8 12-9 13-10 14-11 15-12 16-14 
0-0 1-1 2-1 3-8 4-6 5-6 6-10 7-6 8-3 9-9 10-11 11-12 12-13 13-15 14-14 15-17 16-11 17-18 18-19 19-20 20-21 
0-0 1-1 2-2 3-2 4-3 5-9 6-11 7-6 8-8 9-6 10-9 11-12 12-12 13-6 14-4 15-16 16-13 17-15 18-17 19-14 20-17 21-17 22-7 23-19 
0-0 1-19 2-3 3-2 4-3 5-4 6-7 7-5 8-6 9-7 10-7 11-8 12-7 13-9 14-11 15-11 16-11 17-12 18-13 19-11 20-15 21-14 22-14 23-18 24-18 25-19 
0-2 1-1 2-0 3-3 4-4 5-5 6-6 7-4 8-7 9-8 10-4 11-10 12-9 13-10 14-12 15-13 16-12 17-16 18-14 19-14 20-16 21-17 22-16 23-19 24-20 25-20 26-21 
0-0 1-1 2-3 3-3 4-4 5-5 6-6 7-7 8-8 9-9 10-11 11-10 12-12 13-13 14-14 15-15 16-16 17-17 18-18 19-19 
0-0 1-1 2-1 3-13 4-4 5-2 6-3 7-4 8-5 9-7 10-8 11-10 12-13 13-11 14-13 15-16 16-14 17-16 
0-0 1-4 2-1 3-4 4-4 5-6 6-4 7-7 8-7 9-8 10-10 
0-0 1-1 2-1 3-4 4-3 5-6 6-7 7-6 8-9 9-11 10-11 11-12 12-13 13-12 14-14 15-15 16-17 17-16 18-17 19-18 20-21 21-18 22-18 23-20 24-19 25-22 
0-0 1-8 2-1 3-2 4-2 5-4 6-5 7-4 8-7 9-8 10-9 11-10 
0-2 1-4 2-3 3-4 4-5 5-0 6-6 7-7 8-8 9-9 10-7 11-13 12-9 13-10 14-11 15-9 16-12 17-14 18-16 19-15 20-17 21-18 22-22 23-20 24-22 25-22 26-11 27-22 28-2 29-22 
0-0 1-1 2-2 3-3 4-4 5-20 6-16 7-26 8-6 9-8 10-9 11-11 12-16 13-20 14-2 15-19 16-24 17-27 18-23 19-24 20-28 21-28 
0-0 1-3 2-1 3-3 4-4 5-5 6-6 7-7 8-9 9-8 10-10 11-11 12-9 13-12 14-14 15-15 16-17 17-11 18-18 19-18 20-18 21-18 22-18 
0-0 1-4 2-1 3-2 4-3 5-5 6-3 7-4 8-7 9-7 10-9 11-4 12-5 13-10 14-11 15-13 16-12 17-15 18-12 19-17 20-18 
0-0 1-2 2-4 3-2 4-1 5-1 6-3 7-5 8-6 9-7 10-8 11-9 12-11 13-11 14-12 15-13 16-10 17-11 18-14 19-15 20-16 21-11 22-17 23-18 
0-0 1-1 2-14 3-1 4-2 5-7 6-4 7-7 8-3 9-7 10-8 11-6 12-11 13-14 14-11 15-10 16-12 17-16 18-14 19-15 20-14 21-15 22-18 23-18 24-18 25-4 26-20 27-21 28-22 
0-0 1-1 2-7 3-8 4-10 5-4 6-6 7-6 8-2 9-3 10-9 11-10 12-12 
0-0 1-4 2-2 3-2 4-12 5-3 6-26 7-19 8-25 9-10 10-9 11-11 12-12 13-14 14-11 15-17 16-17 17-18 18-19 19-19 20-19 21-25 22-19 23-25 24-27 
0-0 1-1 2-1 3-2 4-4 5-5 
0-0 1-1 2-2 3-4 4-6 5-7 6-5 7-7 8-8 9-9 10-10 11-8 12-13 13-10 14-14 15-10 16-15 17-15 18-17 19-18 20-1 21-19 22-17 23-8 24-22 25-21 26-23 
0-0 1-0 2-2 3-3 4-0 5-1 6-4 7-5 
0-0 1-1 2-0 3-16 4-3 5-4 6-5 7-5 8-9 9-9 10-10 11-13 12-9 13-15 14-14 15-13 16-12 17-3 18-16 
0-0 1-4 2-2 3-5 4-5 5-7 6-10 7-5 8-6 9-13 10-13 11-18 12-15 13-16 14-18 
0-0 1-1 2-5 3-3 4-8 5-7 6-9 7-10 8-9 9-10 10-9 11-14 12-15 13-13 14-16 15-20 16-19 17-21 18-24 19-25 20-26 
0-0 1-1 2-1 3-1 4-8 5-2 6-0 7-6 8-8 9-8 10-5 11-8 12-7 13-8 14-8 15-10 16-9 17-16 
0-0 1-1 2-2 3-3 4-5 5-5 6-8 7-5 8-5 9-5 10-8 11-14 12-5 13-14 14-14 15-10 16-11 17-12 18-12 19-14 20-5 21-17 22-18 
0-0 1-1 2-3 3-3 4-1 5-1 6-3 7-9 8-6 9-8 10-7 11-4 12-8 13-12 14-14 15-12 16-13 17-19 18-21 19-17 20-24 21-21 22-21 23-23 24-22 25-29 
0-0 1-1 2-0 3-17 4-4 5-1 6-5 7-3 8-7 9-17 10-0 11-10 12-5 13-17 14-9 15-8 16-0 17-10 18-12 19-17 20-14 21-16 22-15 23-17 
0-0 1-2 2-0 3-2 4-0 5-3 6-3 7-6 8-7 9-8 10-8 11-9 12-10 13-11 14-12 
0-0 1-1 2-3 3-4 4-8 5-6 6-7 7-8 8-10 9-8 10-5 11-9 12-5 13-12 14-15 15-13 16-7 17-15 18-20 19-19 20-18 21-21 
0-0 1-1 2-4 3-0 4-1 5-3 6-4 7-4 8-6 9-5 10-7 
0-0 1-1 2-1 3-1 4-2 5-6 6-6 7-4 8-6 9-6 10-6 11-7 
0-0 1-1 2-1 3-2 4-3 5-4 6-6 7-8 8-7 9-7 10-12 11-12 12-16 13-12 14-12 15-12 16-12 17-16 
0-0 1-1 2-3 3-2 4-3 5-4 6-5 7-7 8-8 9-9 
0-0 1-1 2-4 3-4 4-4 5-5 6-6 7-5 8-7 9-9 
0-0 1-1 2-6 3-6 4-5 5-7 6-8 7-9 
0-0 1-1 2-2 3-2 4-6 5-4 6-4 7-1 8-5 9-6 
0-5 1-1 2-1 3-13 4-0 5-3 6-4 7-3 8-5 9-9 10-5 11-7 12-10 13-5 14-4 15-8 16-10 17-5 18-10 19-13 20-13 21-12 22-13 
0-0 1-3 2-6 3-0 4-3 5-1 6-6 7-6 8-6 9-8 10-8 11-10 12-11 13-9 14-11 
0-4 1-4 2-2 3-2 4-4 5-7 6-2 7-10 8-8 9-6 10-9 11-13 12-14 13-12 14-16 15-17 16-17 17-21 
0-0 1-1 2-1 3-1 4-1 5-2 6-5 7-4 8-10 9-1 10-3 11-6 12-7 13-10 14-12 15-15 16-10 17-10 18-20 19-14 20-16 21-14 22-20 23-18 24-20 
0-0 1-1 2-2 3-1 4-4 5-0 6-1 7-0 8-6 
0-1 1-1 2-2 3-4 4-4 5-10 6-9 7-4 8-8 9-8 10-8 11-11 12-10 13-11 
0-4 1-0 2-1 3-2 4-4 5-4 6-6 7-4 8-9 9-6 10-10 11-12 12-13 13-13 14-13 15-12 16-13 
0-0 1-1 2-2 3-3 4-4 
0-0 1-1 2-2 3-3 4-4 
0-0 1-1 2-2 3-3 4-4 5-5 6-6 7-7 8-8 9-9 10-10 11-12 12-12 13-11 14-15 
0-0 1-1 2-5 3-5 4-3 5-4 6-5 7-6 8-7 9-8 10-11 11-8 12-8 13-10 14-9 15-12 
0-0 1-5 2-4 3-7 4-7 5-8 6-9 
0-0 1-8 2-2 3-4 4-0 5-3 6-8 7-8 8-14 9-8 10-9 11-7 12-14 13-8 14-11 15-14 16-14 17-8 18-18 19-18 
0-0 1-11 2-13 3-2 4-9 5-9 6-14 7-12 8-13 9-14 10-9 11-14 12-16 13-16 14-16 
0-2 1-1 2-1 3-2 4-3 5-4 6-5 7-5 8-7 9-8 10-9 11-9 12-9 13-12 14-12 15-13 16-14 17-15 18-13 19-13 20-16 21-17 
0-3 1-4 2-2 3-0 4-2 5-1 6-9 7-5 8-10 9-8 10-10 11-10 12-10 13-10 14-13 15-15 16-16 17-19 18-18 19-19 20-19 21-0 22-15 23-19 
0-0 1-6 2-1 3-2 4-7 5-4 6-10 7-4 8-4 9-8 10-11 11-13 12-12 13-14 
0-0 1-1 2-2 3-2 4-5 5-7 6-6 7-7 8-9 9-10 10-11 11-11 12-12 13-12 14-10 15-13 16-17 17-19 
0-0 1-1 2-2 3-3 4-3 5-5 6-4 7-6 
0-0 1-1 2-2 3-2 4-3 5-13 6-15 7-6 8-12 9-13 10-16 11-17 12-18 13-16 14-19 15-16 16-8 17-20 18-20 19-11 20-20 
0-0 1-4 2-3 3-3 4-8 5-7 6-6 7-5 8-16 9-10 10-15 11-11 12-12 13-13 14-14 15-15 16-16 17-10 18-17 19-16 20-18 21-19 22-20 23-21 24-22 25-22 26-27 27-24 28-25 29-27 
0-0 1-1 2-7 3-26 4-2 5-5 6-6 7-3 8-6 9-8 10-11 11-17 12-13 13-1 14-13 15-14 16-8 17-21 18-17 19-16 20-26 21-23 22-26 
0-0 1-13 2-2 3-3 4-17 5-0 6-9 7-9 8-0 9-7 10-5 11-5 12-7 13-10 14-11 15-17 16-13 17-13 18-14 19-15 20-16 21-17 22-18 23-20 24-21 25-7 26-18 27-25 28-13 29-25 
0-0 1-1 2-2 3-2 4-1 5-7 6-0 7-7 8-5 9-5 10-7 11-8 12-5 13-9 14-10 
0-0 1-1 2-12 3-3 4-5 5-5 6-7 7-5 8-3 9-4 10-4 11-7 12-9 13-2 14-13 15-10 16-9 17-13 18-9 19-7 20-9 21-14 22-5 23-16 24-16 25-12 26-16 
0-0 1-1 2-5 3-2 4-4 5-7 6-9 7-10 8-12 9-12 10-13 11-14 12-15 13-18 
0-0 1-2 2-1 3-2 4-3 5-4 6-2 7-7 8-7 9-7 10-7 11-8 12-8 13-6 14-2 15-2 16-17 17-17 18-10 19-12 20-17 21-17 22-14 23-17 24-17 25-13 26-17 27-17 
0-9 1-1 2-0 3-3 4-9 5-4 6-5 7-9 8-7 9-9 10-2 11-7 12-9 13-9 14-10 15-11 16-14 17-11 18-12 19-13 20-14 
0-0 1-2 2-1 3-2 4-5 5-4 6-5 7-5 8-6 9-7 
0-0 1-1 2-2 3-3 4-0 5-3 6-5 7-3 8-3 9-6 10-0 11-4 12-0 13-0 14-9 15-7 16-10 
0-0 1-1 2-2 3-4 4-5 5-6 6-7 7-6 8-8 9-9 10-9 11-12 12-6 13-8 14-12 15-8 16-15 17-16 18-6 19-19 20-16 21-21 22-20 23-17 24-18 25-19 26-21 
0-0 1-2 2-1 3-2 4-4 5-2 6-3 7-5 
0-1 1-2 2-3 3-4 4-5 5-5 6-7 7-6 8-9 9-10 
0-0 1-4 2-3 3-3 4-4 5-4 6-10 7-6 8-8 9-9 10-9 11-14 12-4 13-19 14-17 15-4 16-18 17-20 
0-1 1-2 2-1 3-3 4-7 5-6 6-6 7-9 8-8 9-11 10-12 11-13 12-14 13-11 14-16 15-16 
0-2 1-3 2-0 3-4 4-4 5-4 6-5 7-13 8-9 9-5 10-7 11-6 12-0 13-8 14-14 
0-0 1-1 2-3 3-4 4-5 5-4 6-7 7-4 8-7 9-10 
0-0 1-1 2-1 3-2 4-5 5-4 6-4 7-4 8-4 9-4 10-9 11-9 12-11 13-15 14-16 15-11 16-11 17-7 18-2 19-3 20-17 
0-0 1-0 2-1 3-2 4-4 5-5 6-6 7-7 8-7 9-15 10-10 11-8 12-9 13-9 14-13 15-14 16-20 17-21 18-21 19-15 20-16 21-17 22-23 
0-0 1-7 2-2 3-0 4-1 5-2 6-4 7-3 8-5 9-6 10-8 11-0 12-9 13-10 14-11 15-13 16-0 17-13 18-14 19-15 20-17 21-11 22-19 23-17 24-20 
0-0 1-1 2-3 3-4 4-6 5-8 
0-0 1-1 2-5 3-4 4-3 5-5 6-8 7-5 8-10 9-7 10-10 11-12 12-9 13-14 14-10 15-16 16-17 17-7 18-19 
0-0 1-1 2-0 3-0 4-3 5-2 6-4 7-5 8-6 
0-1 1-0 2-1 3-1 4-3 5-2 6-2 7-4 8-5 
0-0 1-1 2-0 3-1 
0-4 1-15 2-1 3-3 4-6 5-6 6-5 7-8 8-6 9-21 10-5 11-8 12-10 13-10 14-17 15-13 16-19 17-12 18-4 19-1 20-18 21-15 22-19 23-14 24-16 25-19 26-18 27-20 28-21 
0-0 1-1 2-2 3-2 4-3 5-6 6-4 7-10 
0-3 1-3 2-3 3-4 4-3 5-5 6-7 7-7 8-7 9-3 10-7 11-3 12-9 13-8 14-13 15-10 16-17 17-14 18-16 19-17 20-12 21-17 
0-1 1-2 2-7 3-10 4-8 5-6 6-1 7-13 8-14 
0-0 1-8 2-1 3-2 4-2 5-6 6-7 7-7 8-7 9-7 10-4 11-9 12-9 13-14 14-11 15-11 16-12 17-15 18-15 19-16 20-18 21-18 22-19 23-20 24-22 25-22 26-16 27-22 
0-0 1-1 2-2 3-3 4-23 5-4 6-19 7-12 8-15 9-14 10-12 11-12 12-11 13-15 14-18 15-19 16-23 17-21 18-12 19-18 20-23 21-14 22-28 23-22 24-27 25-28 
0-0 1-3 2-4 3-2 4-5 5-7 
0-0 1-1 2-2 3-12 4-4 5-5 6-6 7-8 8-8 9-7 10-8 11-9 12-12 13-11 14-17 15-12 16-10 17-12 18-13 19-17 20-16 21-17 
0-0 1-2 2-1 3-2 4-7 5-8 6-9 7-8 8-6 9-15 10-12 11-14 12-15 13-17 
0-0 1-1 2-2 3-2 4-4 5-5 6-6 7-7 
0-0 1-1 2-4 3-12 4-6 5-4 6-5 7-7 8-8 9-5 10-6 11-9 12-10 13-11 14-12 15-12 16-14 17-15 18-13 19-14 20-15 
0-14 1-3 2-2 3-3 4-1 5-2 6-7 7-8 8-8 9-10 10-11 11-8 12-13 13-8 14-12 15-14 
0-0 1-1 2-2 3-2 4-2 5-2 6-3 7-5 8-6 9-6 10-7 11-12 12-14 13-10 14-9 15-10 16-10 17-14 18-15 19-16 
0-0 1-0 2-0 3-2 4-0 5-12 6-9 7-2 8-7 9-6 10-9 11-9 12-10 13-11 14-6 15-14 16-5 17-6 18-7 19-8 20-12 21-2 22-15 23-14 24-7 25-16 26-14 27-17 28-18 
0-0 1-1 2-2 3-3 4-4 5-4 6-14 7-9 8-10 9-8 10-20 11-14 12-17 13-15 14-16 15-21 
0-0 1-1 2-3 3-4 4-6 5-0 6-7 7-13 8-9 9-11 10-11 11-9 12-12 13-10 14-11 15-9 16-13 
0-0 1-1 2-3 3-3 4-4 5-5 6-3 7-7 8-3 9-8 10-8 11-9 12-9 13-11 14-10 15-12 16-13 17-10 18-13 19-3 20-8 21-21 22-21 23-3 24-16 25-15 26-19 27-20 28-21 
0-9 1-0 2-1 3-3 4-12 5-12 6-9 7-10 8-10 9-2 10-10 11-12 12-13 13-14 
0-1 1-2 2-3 3-5 4-6 5-7 6-8 7-9 
0-4 1-1 2-1 3-1 4-4 5-3 6-4 7-5 8-6 9-4 10-8 11-9 
0-3 1-2 2-3 3-3 4-1 5-4 6-7 7-7 8-7 9-9 10-8 11-10 12-11 13-12 14-13 
0-0 1-1 2-5 3-2 4-4 5-5 6-6 7-7 
0-0 1-1 2-5 3-1 4-1 5-4 6-0 7-4 8-2 9-4 10-5 11-5 12-5 13-6 14-7 
0-0 1-1 2-1 3-2 4-4 5-7 6-8 7-14 8-8 9-0 10-12 11-12 12-10 13-14 14-12 15-17 16-12 17-11 18-13 19-14 20-15 21-18 
0-0 1-8 2-1 3-2 4-4 5-4 6-5 7-6 8-6 9-9 10-10 
0-0 1-2 2-0 3-1 4-3 5-3 6-3 7-4 8-5 9-6 10-5 11-3 12-8 
0-0 1-1 
0-0 1-1 2-2 3-1 4-3 5-4 6-4 7-7 8-6 9-7 
0-0 1-1 2-3 3-1 4-4 5-4 6-1 7-4 8-7 9-7 10-7 11-6 12-7 13-11 14-10 15-10 16-15 17-10 18-10 19-14 20-16 21-13 22-16 
0-0 1-4 2-1 3-2 4-5 5-3 6-4 7-5 8-8 9-5 10-16 11-7 12-9 13-12 14-8 15-10 16-12 17-13 18-15 19-14 20-15 21-22 22-18 23-23 24-24 25-25 26-26 27-27 
0-3 1-1 2-3 3-3 4-4 5-5 6-5 7-5 8-7 9-8 10-13 11-9 12-10 13-8 14-15 15-7 16-12 17-14 18-16 19-16 20-11 21-16 
0-0 1-1 2-3 3-2 4-3 5-4 6-5 7-7 8-11 9-10 10-7 11-7 12-9 13-12 14-12 15-8 16-12 
0-0 1-1 2-4 3-3 4-5 5-5 6-5 7-6 8-7 
0-0 1-1 2-1 3-5 4-2 5-4 6-3 7-5 
0-0 1-2 2-4 3-2 4-4 5-10 6-6 7-9 8-9 9-6 10-11 11-12 12-13 13-5 14-16 15-16 16-18 17-16 18-17 19-20 20-21 21-23 22-22 23-23 
0-5 1-1 2-2 3-2 4-5 5-4 6-7 7-5 8-9 9-8 10-5 11-12 12-8 13-22 14-13 15-12 16-2 17-5 18-11 19-22 
0-0 1-1 2-2 3-2 4-3 5-5 6-2 7-4 8-5 9-5 10-2 11-9 12-10 13-9 14-11 15-12 
0-0 1-1 2-1 3-3 4-3 5-4 6-2 7-7 8-8 9-8 10-8 11-10 12-8 13-10 14-10 
0-0 1-0 2-1 3-2 4-3 5-4 6-5 7-6 8-5 9-9 10-6 11-8 12-9 13-9 14-11 15-12 
0-6 1-1 2-7 3-5 4-3 5-4 6-3 7-5 8-8 9-8 
0-0 1-1 2-2 3-3 4-0 5-3 6-4 
0-0 1-3 2-1 3-2 4-3 5-6 6-6 7-7 8-10 9-13 10-13 11-13 12-15 13-16 14-17 15-16 16-0 17-19 18-25 19-15 20-21 21-22 22-25 23-25 24-25 25-26 26-27 
0-0 1-2 2-3 3-0 4-2 5-3 6-5 7-15 8-8 9-8 10-6 11-7 12-8 13-9 14-9 15-10 16-11 17-8 18-13 19-14 20-16 21-15 22-16 23-16 24-19 25-20 26-18 27-20 
0-0 1-1 2-2 3-2 4-4 5-4 6-7 7-6 8-8 9-8 10-8 11-8 12-8 13-10 14-11 15-12 16-13 17-13 18-16 19-16 20-14 21-16 
0-0 1-1 2-3 3-4 4-2 5-5 6-5 7-7 8-6 9-7 10-8 11-9 12-10 13-11 14-7 15-13 16-12 17-15 18-17 19-18 20-19 
0-0 1-2 2-1 3-2 4-2 5-3 6-4 7-5 8-5 9-18 10-9 11-10 12-5 13-6 14-7 15-10 16-10 17-8 18-13 19-8 20-13 21-13 22-11 23-15 24-19 25-15 26-15 27-18 28-19 
0-0 1-2 2-1 3-2 4-4 5-4 6-4 7-6 8-7 9-8 10-7 11-10 12-7 13-9 14-11 15-13 
0-0 1-1 2-2 3-3 4-3 5-5 6-7 7-6 8-1 9-7 10-7 11-8 12-9 13-10 14-11 15-13 16-16 17-10 18-15 19-16 
0-11 1-1 2-0 3-5 4-5 5-9 6-10 7-5 8-7 9-5 10-6 11-1 12-1 13-2 14-8 15-9 16-9 17-8 18-9 19-3 20-11 
0-6 1-0 2-1 3-2 4-3 5-5 6-6 7-7 8-8 9-12 10-12 11-15 12-14 13-14 14-12 15-27 16-20 17-21 18-12 19-25 20-23 21-12 22-19 23-26 24-29 
0-0 1-1 2-15 3-3 4-2 5-3 6-4 7-6 8-5 9-6 10-7 11-0 12-8 13-11 14-9 15-9 16-11 17-4 18-11 19-0 20-11 21-12 22-0 23-11 24-9 25-15 26-11 27-13 28-17 
0-0 1-1 2-3 3-4 4-5 5-4 6-6 7-7 8-10 
0-0 1-1 2-3 3-3 4-4 5-5 6-7 7-6 8-8 9-3 10-13 11-10 12-13 13-9 14-12 15-13 
0-0 1-2 2-3 3-6 4-3 5-1 6-3 7-3 8-6 9-5 10-6 
0-0 1-2 2-2 3-0 4-20 5-8 6-9 7-7 8-9 9-10 10-1 11-9 12-10 13-12 14-11 15-13 16-15 17-17 18-16 19-17 20-17 21-18 22-19 23-20 24-21 25-20 26-26 27-27 28-28 
0-0 1-1 2-1 3-7 4-2 5-4 6-1 7-4 8-3 9-4 10-5 11-6 12-7 
0-0 1-2 2-3 3-4 4-0 5-6 6-7 7-4 8-14 9-5 10-9 11-10 12-12 13-11 14-15 15-13 16-11 17-4 18-16 19-11 20-11 21-17 22-20 23-11 24-18 25-20 
0-0 1-1 2-1 3-3 4-2 5-3 6-9 7-2 8-4 9-6 10-9 11-7 12-10 13-11 
0-0 1-1 2-2 3-1 4-1 5-4 6-5 7-6 8-7 9-4 10-8 11-9 12-9 13-10 14-11 15-12 16-13 
0-1 1-1 2-3 3-1 4-3 5-5 6-5 7-6 8-7 
0-0 1-3 2-0 3-1 4-2 5-0 6-4 7-5 8-11 9-7 10-8 11-9 12-11 13-11 14-11 15-11 16-12 17-13 18-15 19-16 20-14 21-16 
0-0 1-0 2-0 3-0 4-0 5-1 6-3 
0-0 1-2 2-2 3-2 4-2 5-5 6-7 
0-0 1-1 2-2 3-2 4-4 5-3 6-7 7-11 8-12 9-13 10-14 11-15 12-16 13-6 14-18 15-19 
0-0 1-3 2-1 3-2 4-4 5-4 6-7 7-9 8-9 9-10 10-11 11-12 12-13 13-14 14-15 15-16 16-4 17-17 18-20 19-21 20-22 
0-0 1-1 2-1 3-22 4-5 5-6 6-5 7-2 8-5 9-7 10-9 11-9 12-10 13-12 14-5 15-11 16-13 17-17 18-12 19-14 20-15 21-16 22-16 23-21 24-19 25-20 26-23 27-18 28-23 
0-0 1-11 2-0 3-2 4-6 5-4 6-6 7-2 8-11 9-3 10-6 11-6 12-11 13-13 14-13 15-7 16-8 17-11 18-13 19-11 20-14 21-13 22-2 23-11 24-12 25-15 
0-0 1-4 2-2 3-2 4-3 5-3 6-15 7-13 8-5 9-9 10-10 11-11 12-12 13-13 14-15 15-15 16-13 17-16 18-17 19-18 20-23 21-2 22-22 23-23 
0-0 1-0 2-2 3-2 4-3 5-9 6-5 7-7 8-8 9-5 10-8 11-8 12-3 13-11 
0-0 1-4 2-2 3-3 4-3 5-5 6-3 7-7 8-7 9-15 10-12 11-5 12-9 13-0 14-11 15-7 16-12 17-3 18-7 19-9 20-17 21-17 22-15 23-14 24-17 
0-0 1-2 2-1 3-3 4-4 5-5 6-5 7-6 8-11 9-10 10-13 11-11 12-14 13-15 14-16 
0-9 1-2 2-5 3-11 4-9 5-5 6-5 7-5 8-7 9-6 10-11 11-11 12-11 13-12 14-11 15-12 16-14 17-22 18-12 19-23 20-17 21-23 22-19 23-23 24-15 25-16 26-20 27-23 28-26 29-26 
0-9 1-1 2-0 3-3 4-3 5-22 6-7 7-10 8-10 9-10 10-13 11-14 12-12 13-10 14-10 15-12 16-10 17-15 18-10 19-18 20-18 21-17 22-20 23-22 24-21 25-22 
0-0 1-1 2-2 3-3 4-3 5-7 6-10 7-7 8-6 9-7 10-5 11-9 12-10 13-12 14-14 15-13 16-14 17-15 18-20 19-19 20-20 
0-0 1-1 2-3 3-4 4-5 5-2 6-3 7-7 8-7 9-6 10-7 11-7 12-8 13-9 14-10 15-11 
0-0 1-1 2-3 3-2 4-1 5-4 6-5 7-6 8-6 9-9 10-6 11-6 12-7 13-11 14-12 15-13 16-12 17-12 18-14 19-17 20-14 21-15 22-16 23-17 24-18 25-20 26-19 27-20 28-19 29-22 
0-0 1-2 2-2 3-4 4-5 5-5 6-7 7-10 8-8 9-9 10-12 11-8 12-13 13-14 
0-0 1-2 2-1 3-2 4-3 5-3 6-5 7-4 8-7 9-7 10-7 11-8 12-9 13-10 14-10 15-11 16-12 
0-0 1-2 2-1 3-2 4-3 5-2 6-4 7-2 8-2 9-2 10-5 11-5 12-5 13-6 14-7 
0-0 1-1 2-0 3-3 4-3 5-2 6-3 7-5 8-4 9-5 10-7 11-9 12-10 13-11 14-6 15-14 16-11 17-14 18-15 19-15 20-18 21-18 22-19 23-26 24-19 25-19 26-24 27-23 28-22 29-26 
0-0 1-1 2-2 3-3 4-2 5-4 6-4 7-14 8-5 9-8 10-9 11-8 12-14 13-12 14-15 15-6 16-9 17-10 18-11 19-2 20-2 21-19 22-18 23-20 
0-0 1-1 2-2 3-3 4-3 5-6 6-5 7-6 8-11 9-13 10-12 11-11 12-11 13-14 14-15 15-15 16-18 17-19 18-11 19-17 20-16 21-19 
0-0 1-1 2-1 3-2 4-4 5-3 6-5 
0-1 1-7 2-1 3-8 4-9 5-6 6-10 7-5 8-4 9-5 10-14 11-15 12-7 13-8 14-7 15-9 16-1 17-5 18-0 19-10 20-16 21-16 22-4 23-15 24-16 
0-0 1-1 2-2 3-3 4-4 5-5 6-6 7-5 8-6 9-5 10-2 11-9 12-4 13-5 14-10 15-11 16-12 
0-0 1-3 2-2 3-3 4-4 5-5 6-6 7-8 8-2 9-7 10-10 11-12 12-15 13-15 14-14 15-16 
0-0 1-0 2-0 3-2 4-3 5-4 6-5 7-6 8-8 9-7 10-6 11-9 
0-0 1-2 2-2 3-4 
0-0 1-1 2-2 3-2 4-4 5-6 6-5 7-8 8-8 9-8 10-9 11-10 12-12 13-12 14-14 15-16 16-13 17-16 18-13 19-16 
0-0 1-0 2-2 3-6 4-6 5-6 6-4 7-6 8-5 9-6 10-7 11-8 12-9 13-10 14-11 15-13 16-14 17-14 18-14 19-14 20-20 21-18 22-19 23-20 24-21 25-20 26-23 
0-0 1-0 2-4 3-4 4-4 5-4 6-2 7-3 8-4 9-5 10-6 11-10 12-10 13-21 14-10 15-11 16-12 17-16 18-13 19-16 20-17 21-18 22-18 23-19 24-20 25-21 
0-5 1-5 2-1 3-5 4-5 5-5 6-3 7-5 8-5 9-8 10-9 11-9 12-12 13-10 14-11 15-13 16-16 
0-0 1-7 2-1 3-2 4-3 5-4 6-5 7-6 8-7 9-8 10-9 11-10 12-11 13-12 14-13 15-14 16-15 17-16 18-17 
0-1 1-3 2-2 3-4 4-4 5-4 6-6 7-7 8-7 9-11 10-7 11-4 12-13 13-13 
0-0 1-2 2-3 3-4 4-2 5-2 6-7 7-7 8-8 9-6 10-7 11-1 12-7 13-9 14-10 15-11 16-13 17-14 18-15 
0-0 1-24 2-1 3-2 4-8 5-10 6-6 7-24 8-24 9-16 10-13 11-3 12-20 13-5 14-22 15-26 
0-0 1-1 2-1 3-1 4-5 5-0 6-5 7-7 8-7 9-8 10-11 11-11 12-1 13-12 14-13 15-16 16-18 17-18 18-17 19-18 
0-0 1-3 2-1 3-2 4-3 5-7 6-5 7-6 8-6 9-10 10-10 11-10 12-11 13-13 14-14 15-15 
0-0 1-24 2-2 3-3 4-4 5-6 6-7 7-8 8-9 9-22 10-11 11-20 12-12 13-14 14-21 15-16 16-15 17-17 18-17 19-19 20-18 21-22 22-25 23-23 24-24 25-25 26-26 27-27 28-28 
0-0 1-1 2-2 3-3 4-4 5-6 6-9 7-7 8-10 9-11 10-12 11-13 12-14 13-5 14-16 15-15 16-18 17-19 18-20 19-21 20-22 21-20 22-21 23-23 24-25 
0-0 1-1 2-1 3-2 4-1 5-4 6-8 7-5 8-5 9-6 10-1 11-7 12-1 13-8 14-8 15-9 
0-0 1-1 2-0 3-2 4-3 5-5 6-3 7-4 8-6 
0-0 1-1 2-2 3-3 4-4 
0-1 1-1 2-3 3-2 4-5 
0-0 1-1 2-2 3-4 4-5 
0-0 1-1 2-1 3-2 
0-0 1-1 2-2 3-2 4-4 
0-0 1-1 2-2 
0-0 1-1 2-0 3-3 4-4 5-5 6-6 
0-0 1-1 2-1 3-2 
0-0 1-1 2-0 3-3 4-4 5-5 6-6 
0-0 1-1 2-0 3-0 
0-0 1-1 2-0 3-3 4-4 5-5 6-6 
0-0 1-1 2-1 3-2 
0-1 1-1 2-0 3-0 
0-0 1-1 2-1 3-2 
0-0 1-1 2-0 3-0 
0-0 1-1 2-0 3-3 4-4 5-5 6-6 
0-0 1-1 2-1 3-2 
0-0 1-1 2-0 3-0 
0-0 1-1 2-0 3-3 4-4 5-5 6-6 
0-0 1-0 2-1 3-2 
0-0 1-1 2-1 3-2 
0-0 1-1 2-1 3-3 
0-0 1-1 2-2 3-3 4-4 
0-0 1-1 2-2 
0-1 1-1 2-3 3-2 4-5 
0-0 1-1 2-2 3-4 4-5 
0-0 1-2 2-0 3-29 4-3 5-4 6-5 7-29 8-17 9-33 10-8 11-9 12-7 13-8 14-33 15-10 16-13 17-12 18-15 19-16 20-17 21-33 22-20 23-19 24-20 25-21 26-45 27-2 28-24 29-33 30-26 31-25 32-50 33-5 34-46 35-32 36-33 37-36 38-35 39-33 40-36 41-33 42-38 43-41 44-40 45-15 46-22 47-14 48-50 49-47 50-39 51-50 52-39 53-37 54-33 55-51 56-42 57-52 
0-0 1-1 2-3 3-2 4-5 5-4 
0-2 1-6 2-2 3-2 4-3 5-4 6-4 7-2 8-17 9-9 10-10 11-11 12-15 13-12 14-14 15-13 16-16 17-17 18-14 19-18 20-19 21-20 22-23 23-22 24-26 25-23 26-24 27-25 28-29 29-27 30-31 31-32 32-33 
0-4 1-68 2-0 3-1 4-4 5-5 6-6 7-55 8-15 9-63 10-9 11-66 12-54 13-16 14-17 15-59 16-14 17-36 18-36 19-54 20-19 21-40 22-25 23-44 24-28 25-51 26-16 27-30 28-21 29-39 30-63 31-35 32-38 33-59 34-29 35-13 36-51 37-24 38-41 39-2 40-23 41-66 42-22 43-55 44-60 45-54 46-46 47-47 48-55 49-62 50-65 51-64 52-4 53-42 54-13 55-67 56-4 57-49 58-50 59-59 60-52 61-53 62-54 63-7 64-57 65-23 66-56 67-58 68-68 
0-9 1-2 2-4 3-5 4-5 5-7 6-12 7-8 8-9 9-1 10-13 11-14 
0-0 1-1 2-2 3-3 4-4 5-4 6-5 7-6 
0-0 1-1 2-2 3-3 4-4 5-5 6-5 7-7 8-7 9-13 10-10 11-12 12-11 13-14 14-12 15-18 16-19 17-20 18-17 19-29 20-23 21-15 22-32 23-22 24-24 25-30 26-21 27-28 28-25 29-29 30-31 31-32 
0-0 1-2 2-2 3-3 4-4 5-5 6-7 7-7 8-7 9-9 10-8 11-8 12-11 13-12 
0-0 1-1 2-21 3-36 4-7 5-73 6-9 7-13 8-10 9-12 10-66 11-14 12-36 13-62 14-32 15-18 16-15 17-18 18-5 19-21 20-25 21-5 22-8 23-64 24-67 25-9 26-28 27-38 28-71 29-69 30-40 31-18 32-57 33-44 34-34 35-35 36-21 37-5 38-62 39-48 40-45 41-39 42-43 43-21 44-37 45-1 46-19 47-21 48-41 49-62 50-74 51-64 52-50 53-9 54-2 55-62 56-24 57-51 58-69 59-53 60-56 61-55 62-58 63-64 64-5 65-60 66-59 67-52 68-75 
0-0 1-1 2-2 3-3 4-4 5-5 6-6 7-2 8-6 9-6 10-7 11-9 
0-0 1-1 2-2 3-3 4-3 5-5 
0-0 1-1 2-1 3-3 4-4 5-5 6-5 7-16 8-10 9-6 10-7 11-9 12-10 13-11 14-16 15-13 16-16 17-16 18-17 19-18 20-19 21-23 22-19 23-19 24-21 25-26 26-22 27-19 28-28 29-25 30-26 31-26 32-27 33-28 34-29 35-30 36-31 
0-0 1-1 2-2 
0-0 1-1 2-0 3-3 4-4 5-5 6-6 7-7 
0-0 1-3 2-1 3-6 4-6 5-4 6-3 7-4 8-5 9-6 10-9 11-10 12-10 13-11 14-12 
0-30 1-1 2-2 3-3 4-4 5-4 6-33 7-6 8-7 9-8 10-21 11-12 12-13 13-14 14-20 15-16 16-21 17-32 18-21 19-19 20-15 21-21 22-22 23-20 24-25 25-35 26-18 27-1 28-32 29-17 30-34 31-4 32-28 33-39 34-40 35-41 
0-0 1-5 2-1 3-2 4-3 5-4 6-5 7-7 8-5 9-10 10-7 11-10 12-5 13-7 14-7 15-6 16-6 17-7 18-9 19-8 20-10 21-10 22-11 23-13 
0-0 1-1 2-0 3-2 4-4 5-7 6-7 7-8 8-10 9-11 10-14 11-13 12-15 13-16 14-17 15-13 16-23 17-14 18-20 19-22 20-22 21-20 22-24 23-25 24-14 25-27 26-22 27-20 28-29 29-30 30-22 31-20 32-22 33-31 
0-0 1-1 2-1 3-2 4-3 5-4 6-4 7-6 8-8 9-2 10-9 11-10 12-16 13-29 14-11 15-12 16-13 17-14 18-16 19-17 20-18 21-19 22-20 23-21 24-30 25-23 26-23 27-41 28-12 29-25 30-21 31-31 32-27 33-25 34-23 35-23 36-29 37-32 38-37 39-34 40-35 41-21 42-15 43-36 44-37 45-38 46-38 47-40 48-39 49-42 
0-0 1-1 2-2 3-2 4-4 5-3 6-0 7-2 8-7 9-5 10-6 11-7 12-10 13-9 14-13 15-13 16-15 17-10 18-11 19-15 
0-0 1-1 2-2 3-3 4-4 5-5 6-6 7-6 8-1 9-8 10-12 11-9 12-11 13-12 
0-0 1-1 2-2 3-10 4-15 5-5 6-6 7-7 8-8 9-9 10-10 11-12 12-13 13-19 14-20 15-21 16-23 17-14 18-0 19-24 
0-0 1-1 2-2 3-3 4-18 5-5 6-7 7-8 8-9 9-11 10-5 11-12 12-13 13-14 14-12 15-15 16-15 17-14 18-17 19-16 20-19 21-17 22-25 23-22 24-23 25-24 26-26 27-25 28-21 29-25 30-26 31-27 32-22 33-25 34-29 
0-0 1-1 2-2 3-27 4-3 5-4 6-5 7-28 8-7 9-8 10-10 11-9 12-10 13-9 14-12 15-13 16-14 17-15 18-16 19-14 20-17 21-15 22-19 23-21 24-24 25-12 26-18 27-22 28-26 29-18 30-28 31-32 32-7 33-21 34-34 35-29 36-33 37-30 38-27 39-36 
0-0 1-1 2-2 3-4 4-8 5-4 6-5 7-6 8-10 
0-0 1-1 2-1 3-1 4-1 5-3 6-4 7-11 8-6 9-5 10-6 11-6 12-10 13-11 
0-0 1-1 2-3 3-4 4-5 5-6 6-6 7-7 8-8 
0-0 1-0 2-3 3-4 4-3 5-5 6-6 7-1 8-6 
0-0 1-1 2-1 3-2 4-7 5-4 6-5 7-12 8-5 9-5 10-7 11-6 12-9 13-10 14-9 15-9 16-12 17-11 18-14 
0-0 1-1 2-0 3-3 4-4 5-5 6-6 7-7 
0-15 1-5 2-6 3-8 4-7 5-8 6-9 7-10 8-6 9-11 10-21 11-13 12-6 13-19 14-20 15-21 
0-0 1-17 2-1 3-2 4-3 5-4 6-5 7-6 8-11 9-9 10-10 11-9 12-12 13-11 14-14 15-15 16-16 17-14 18-15 19-17 20-17 21-17 22-20 23-21 24-22 25-23 26-24 27-25 28-12 29-25 
0-0 1-1 2-1 3-2 
0-0 1-1 2-0 3-3 4-4 5-5 6-6 7-7 
0-0 1-3 2-2 3-23 4-4 5-31 6-6 7-7 8-8 9-16 10-13 11-14 12-9 13-15 14-34 15-33 16-22 17-11 18-21 19-16 20-19 21-18 22-23 23-23 24-31 25-37 26-33 27-26 28-27 29-24 30-38 31-9 32-13 33-25 34-42 35-32 36-16 37-36 38-40 39-41 40-42 
0-0 1-1 2-2 3-3 4-4 5-4 6-5 7-5 8-7 9-8 10-9 11-10 
0-0 1-1 2-2 3-1 4-3 5-4 6-4 7-6 8-7 9-9 10-1 11-11 
0-0 1-1 2-0 3-0 
0-0 1-1 2-2 3-0 4-0 5-3 6-4 7-3 
0-0 1-1 2-0 3-3 4-4 5-5 6-6 7-7 
0-0 1-1 2-1 3-3 4-4 5-5 6-6 7-7 8-8 9-9 10-10 11-11 12-9 13-11 14-12 15-14 16-15 
0-0 1-2 2-4 3-0 4-0 5-7 6-8 7-6 8-6 9-3 10-6 11-8 12-9 
0-0 1-30 2-13 3-30 4-30 5-20 6-21 7-5 8-7 9-15 10-4 11-9 12-11 13-26 14-27 15-19 16-21 17-12 18-3 19-13 20-20 21-10 22-16 23-30 24-16 25-31 26-30 27-26 28-12 29-16 
0-0 1-1 2-0 3-0 4-2 5-0 6-2 7-2 8-5 9-6 10-7 11-8 12-6 13-5 14-9 
0-0 1-1 2-2 3-4 4-4 5-5 6-6 7-9 8-4 9-12 10-9 11-9 12-10 13-13 
0-0 1-4 2-5 3-1 4-3 5-1 6-0 7-3 8-1 9-7 
0-0 1-1 2-1 3-2 4-3 5-5 6-4 7-8 8-6 9-8 10-32 11-7 12-12 13-11 14-8 15-15 16-14 17-15 18-16 19-17 20-18 21-20 22-21 23-23 24-22 25-24 26-25 27-26 28-27 29-28 30-28 31-29 32-30 33-30 34-31 35-8 36-33 37-34 38-26 39-9 40-35 41-36 42-36 43-38 44-39 45-41 46-42 
0-0 1-1 2-2 3-3 4-4 5-4 6-8 7-7 8-8 9-7 10-12 11-8 12-10 13-4 14-12 15-14 
0-0 1-1 2-3 3-4 4-5 5-6 
0-0 1-1 2-1 3-2 4-7 5-4 6-5 7-12 8-5 9-5 10-7 11-6 12-9 13-10 14-9 15-9 16-12 17-11 18-14 
0-0 1-1 2-0 3-3 4-4 5-5 6-6 7-7 
0-0 1-1 2-0 3-1 4-1 5-1 6-1 7-2 8-3 
0-0 1-3 2-26 3-1 4-3 5-5 6-11 7-12 8-10 9-14 10-28 11-26 12-11 13-16 14-17 15-13 16-21 17-24 18-20 19-26 20-22 21-10 22-19 23-25 24-26 25-27 26-25 27-29 
0-0 1-1 2-1 3-2 
0-0 1-1 2-0 3-3 4-4 5-5 6-6 7-7 
0-0 1-1 2-0 3-1 4-1 5-1 6-1 7-2 8-3 
0-0 1-26 2-2 3-10 4-4 5-16 6-1 7-11 8-9 9-10 10-13 11-14 12-15 13-20 14-26 15-21 16-12 17-18 18-19 19-25 20-30 21-27 22-30 23-26 24-28 25-30 26-31 27-33 28-34 29-35 30-40 31-39 32-28 33-3 34-41 35-43 36-44 37-45 
0-0 1-1 2-2 3-4 4-3 5-4 6-6 7-8 8-9 9-4 10-11 
0-0 1-1 2-0 3-0 
0-0 1-1 2-2 3-0 4-4 5-5 6-6 7-7 
0-1 1-1 2-3 3-1 4-1 5-2 6-2 7-3 
0-0 1-1 2-6 3-3 4-4 5-5 6-6 7-7 8-8 9-8 10-12 11-13 12-9 13-10 14-12 15-15 16-11 17-15 
0-0 1-2 2-1 3-2 4-6 5-4 6-5 7-6 8-7 9-8 10-12 
0-0 1-16 2-13 3-10 4-16 5-16 6-10 7-5 8-7 9-10 10-4 11-9 12-11 13-25 14-14 15-19 16-10 17-21 18-22 19-12 20-16 21-28 22-27 23-16 
0-0 1-1 2-0 3-1 4-1 5-1 6-1 7-2 8-3 
0-0 1-1 2-1 3-2 4-3 5-5 6-4 7-5 8-14 9-1 10-18 11-7 12-9 13-10 14-38 15-13 16-11 17-25 18-16 19-6 20-28 21-18 22-15 23-25 24-17 25-34 26-28 27-18 28-3 29-28 30-21 31-23 32-22 33-24 34-12 35-16 36-27 37-30 38-16 39-31 40-3 41-36 42-38 43-39 44-41 45-42 
0-0 1-1 2-3 3-2 4-4 5-6 
0-0 1-2 2-3 3-4 4-4 5-5 6-6 7-7 8-8 
0-0 1-1 2-1 3-2 4-7 5-4 6-5 7-12 8-5 9-5 10-7 11-6 12-9 13-10 14-9 15-9 16-12 17-11 18-14 
0-0 1-1 2-0 3-3 4-4 5-5 6-6 7-7 
0-0 1-1 2-1 3-6 4-4 5-5 6-6 7-6 8-7 9-8 10-11 11-11 12-12 13-13 14-14 15-15 16-16 
0-0 1-1 2-1 3-2 
0-0 1-1 2-0 3-3 4-4 5-5 6-6 7-7 
0-0 1-29 2-19 3-2 4-3 5-20 6-4 7-6 8-6 9-15 10-12 11-13 12-20 13-14 14-13 15-31 16-36 17-9 18-16 19-10 20-18 21-21 22-21 23-20 24-23 25-35 26-31 27-24 28-25 29-22 30-27 31-29 32-26 33-28 34-21 35-40 36-10 37-34 38-38 39-39 40-40 
0-0 1-1 2-2 3-3 4-4 5-4 6-5 7-6 8-7 9-8 10-9 11-10 
0-0 1-2 2-1 3-4 4-5 5-4 6-5 7-7 8-9 9-3 10-11 
0-0 1-1 2-0 3-0 
0-0 1-1 2-2 3-0 4-3 5-3 6-4 7-3 
0-0 1-1 2-0 3-3 4-4 5-5 6-6 7-7 
0-1 1-1 2-0 3-1 
0-0 1-1 2-2 3-3 4-4 5-8 6-5 7-10 8-11 9-12 10-13 11-14 12-5 13-14 14-15 15-17 16-18 
0-0 1-1 2-2 3-2 4-3 5-4 6-5 7-6 8-7 9-8 10-9 11-10 12-9 13-10 14-11 15-12 
0-0 1-1 2-2 3-3 4-3 5-6 6-7 7-10 8-9 9-8 10-11 11-11 12-12 13-13 14-14 15-15 16-16 17-18 18-19 19-20 20-21 21-23 22-14 23-20 24-27 25-28 26-6 27-25 28-33 29-34 30-29 31-26 32-36 
0-0 1-1 2-4 3-3 4-3 5-4 6-5 7-7 8-6 9-8 
0-0 1-1 2-2 3-2 4-3 5-4 6-5 7-6 8-7 9-8 10-9 11-10 12-11 13-13 14-14 
0-0 1-1 2-2 3-4 4-2 5-4 6-3 7-4 8-3 9-4 10-5 11-7 12-8 13-6 14-7 15-9 16-10 17-11 18-12 19-13 
0-0 1-0 2-3 3-4 4-3 5-5 6-6 7-1 8-6 
0-0 1-1 2-1 3-2 4-7 5-4 6-5 7-12 8-5 9-9 10-7 11-8 12-9 13-10 14-9 15-14 16-12 17-14 18-15 
0-0 1-1 2-0 3-2 4-5 5-6 6-7 7-8 
0-0 1-1 2-2 3-2 4-2 5-7 6-5 7-6 8-8 9-7 10-8 11-12 12-9 13-10 14-12 15-11 16-15 17-12 18-15 19-15 20-15 21-20 22-10 23-2 24-21 25-20 26-12 
0-0 1-2 2-1 3-3 4-3 5-4 6-5 7-8 8-8 9-10 10-6 11-8 12-11 13-9 14-10 15-11 16-13 17-13 18-14 19-14 20-17 21-19 22-19 23-19 24-19 
0-0 1-1 2-1 3-2 
0-0 1-1 2-0 3-3 4-4 5-5 6-6 7-7 
0-0 1-17 2-22 3-9 4-3 5-4 6-6 7-7 8-31 9-18 10-21 11-29 12-13 13-24 14-18 15-19 16-26 17-28 18-43 19-23 20-18 21-25 22-17 23-27 24-17 25-32 26-12 27-8 28-2 29-33 30-36 31-8 32-28 33-39 34-41 35-42 36-43 
0-0 1-1 2-2 3-4 4-3 5-4 6-5 7-7 8-9 9-3 10-11 
0-0 1-1 2-0 3-0 
0-0 1-1 2-2 3-0 4-0 5-3 6-4 7-3 
0-1 1-2 2-3 3-4 4-5 5-6 6-11 7-8 8-8 9-9 10-12 11-10 12-12 13-13 14-14 15-15 16-16 17-17 18-26 19-22 20-20 21-21 22-22 23-16 24-25 
0-0 1-1 2-0 3-3 4-4 5-5 6-6 7-7 
0-0 1-2 2-6 3-3 4-4 5-5 6-6 7-7 8-8 9-11 10-10 11-11 12-9 13-13 14-14 15-15 16-17 17-18 
0-0 1-1 2-20 3-4 4-5 5-8 6-18 7-7 8-22 9-8 10-9 11-10 12-8 13-8 14-3 15-8 16-18 17-12 18-20 19-13 20-14 21-14 22-15 23-16 24-17 25-18 26-18 27-19 28-18 29-6 30-20 31-21 32-23 
0-0 1-2 2-2 3-3 
0-0 1-3 
0-8 1-29 2-1 3-4 4-13 5-5 6-15 7-10 8-17 9-3 10-10 11-1 12-31 13-2 14-27 15-16 16-30 17-9 18-18 19-19 20-21 21-20 
0-0 1-1 2-2 
0-0 1-3 2-4 3-5 4-9 5-4 6-9 7-9 8-10 9-11 10-9 11-14 12-18 13-9 14-17 15-18 16-19 17-9 18-12 19-18 20-20 21-1 22-21 
0-0 1-1 2-2 3-3 4-3 5-5 6-5 7-5 8-14 9-12 10-7 11-8 12-9 13-13 14-11 15-15 16-16 17-14 18-14 19-14 20-28 21-21 22-21 23-21 24-21 25-24 26-25 27-25 28-31 29-32 
0-0 1-1 2-2 3-4 4-3 5-5 6-5 7-13 8-8 9-10 10-10 11-12 12-12 13-14 14-15 
0-0 1-1 2-9 3-1 4-5 5-2 6-6 7-5 8-8 9-8 10-11 
0-0 1-1 2-1 3-2 4-10 5-4 6-5 7-5 8-3 9-7 10-8 11-11 12-9 13-11 14-11 15-6 16-11 17-11 18-10 19-11 20-5 21-13 22-14 23-15 
0-0 1-1 2-1 3-2 4-3 5-4 6-6 7-4 8-7 9-9 10-7 11-7 12-9 13-5 14-12 15-11 16-12 
0-0 1-3 2-4 3-1 4-4 5-2 6-3 7-4 8-4 9-4 10-5 
0-0 1-1 2-3 3-16 4-3 5-9 6-11 7-6 8-11 9-9 10-10 11-11 12-11 13-14 14-11 15-11 16-16 17-18 18-18 
0-0 1-1 2-3 3-7 4-3 5-3 6-3 7-7 8-8 9-6 10-10 11-11 12-13 
0-1 1-2 2-3 3-4 4-5 5-6 6-7 7-8 8-6 9-10 10-11 11-6 12-12 13-13 14-14 15-15 16-16 17-6 18-19 19-20 20-15 21-21 22-24 
0-0 1-1 2-2 3-14 4-3 5-3 6-5 7-5 8-5 9-6 10-7 11-7 12-9 13-22 14-11 15-22 16-12 17-12 18-13 19-14 20-15 21-4 22-17 23-19 24-18 25-17 26-17 27-21 28-22 29-23 30-14 31-25 32-22 33-26 
0-0 1-1 2-2 3-3 4-4 5-5 6-6 7-7 8-8 9-9 10-10 11-11 
0-0 1-2 2-1 3-1 4-0 5-4 6-4 7-5 8-6 
0-0 1-2 2-3 3-4 4-5 5-6 6-7 7-8 8-9 9-10 10-11 11-10 12-8 13-16 14-10 15-14 16-15 17-12 18-17 19-18 20-19 
0-0 1-1 2-2 3-3 4-4 5-5 6-6 7-7 8-8 9-9 10-10 11-11 12-12 13-13 14-12 15-16 16-18 17-19 18-20 19-21 
0-14 1-3 2-2 3-1 4-4 5-2 6-3 7-4 8-5 9-6 10-7 11-8 12-9 13-11 14-12 15-13 16-10 17-14 
0-0 1-1 2-2 3-3 4-4 5-5 6-6 7-6 8-8 9-9 
0-0 1-1 2-2 3-11 4-4 5-4 6-2 7-6 8-4 9-7 10-7 11-7 12-13 13-14 
0-0 1-3 2-1 3-2 4-8 5-9 6-10 7-11 8-12 9-13 10-14 11-15 12-16 13-14 14-17 15-18 
0-0 1-1 2-2 3-3 4-4 5-6 6-5 7-6 8-7 9-9 10-9 11-9 12-12 13-11 14-12 
0-0 1-1 2-2 3-3 4-2 5-2 6-4 7-2 8-12 9-11 10-11 11-9 12-9 13-9 14-9 15-19 16-9 17-13 18-11 19-16 20-11 21-14 22-13 23-17 24-19 25-20 
0-0 1-1 2-1 3-2 4-3 5-5 6-5 7-5 8-10 9-5 10-6 11-8 12-12 13-30 14-13 15-14 16-14 17-14 18-18 19-14 20-5 21-15 22-16 23-18 24-17 25-22 26-25 27-23 28-21 29-22 30-23 31-25 32-30 33-26 34-27 35-28 36-26 37-31 38-32 39-33 
0-0 1-11 2-4 3-3 4-6 5-7 6-8 7-9 8-10 9-5 10-15 11-12 12-12 13-16 14-16 15-17 
0-0 1-1 2-2 3-5 4-9 5-5 6-5 7-4 8-7 9-5 10-6 11-10 
0-0 1-2 2-1 3-4 4-5 
0-0 1-2 2-2 3-3 
0-0 1-3 
0-0 1-1 2-2 3-3 4-4 5-5 6-7 7-7 8-8 9-9 
0-0 1-10 2-1 3-2 4-3 5-4 6-6 7-5 8-6 9-9 10-8 11-11 12-10 13-11 14-12 
0-0 1-2 2-1 3-2 4-3 5-4 6-6 7-5 8-9 9-8 10-9 11-12 12-9 13-13 14-14 15-15 16-16 17-9 18-11 19-11 20-17 21-18 22-19 23-20 
0-0 1-1 2-3 3-2 4-3 5-5 6-5 7-4 8-5 9-5 10-6 11-3 12-7 13-8 14-10 15-12 16-12 17-11 18-12 19-13 20-14 
0-0 1-3 2-2 3-4 4-4 5-5 6-6 
0-0 1-1 2-2 3-3 4-3 5-5 6-6 7-8 8-9 9-8 10-10 
0-0 1-1 2-2 3-4 4-5 5-5 6-7 7-8 8-7 9-7 10-11 11-12 12-12 13-9 14-14 15-15 16-12 17-13 18-16 19-17 
0-0 1-1 2-2 
0-0 1-1 2-2 3-3 4-4 5-5 6-6 7-4 8-8 9-9 
0-7 1-1 2-2 3-4 4-4 5-4 6-8 7-9 
0-0 1-2 2-2 3-3 
0-1 1-0 2-1 
0-0 1-1 2-1 
0-0 1-1 2-1 3-2 
0-0 1-1 2-9 3-2 4-3 5-6 6-7 7-11 8-9 9-10 10-46 11-47 12-13 13-14 14-15 15-17 16-12 17-18 18-20 19-21 20-14 21-20 22-37 23-20 24-47 25-5 26-20 27-26 28-27 29-25 30-39 31-39 32-31 33-31 34-20 35-30 36-33 37-32 38-35 39-34 40-40 41-41 42-42 43-43 44-44 45-45 46-43 47-43 48-49 49-40 50-48 51-50 52-51 
0-0 1-1 2-2 
0-1 1-0 2-1 3-2 4-3 5-2 6-5 7-2 8-7 9-8 
0-0 1-1 2-2 3-1 4-3 5-1 6-1 7-6 8-5 9-1 10-7 
0-0 1-1 2-2 3-3 4-4 
0-0 1-0 2-0 
0-1 1-1 2-3 3-2 4-5 
0-0 1-2 2-3 
0-0 1-1 
0-0 1-0 2-1 3-2 
0-0 1-4 2-0 3-1 4-2 5-3 6-4 
0-0 1-1 2-2 3-3 
0-0 1-1 2-2 3-5 
0-0 1-1 2-2 3-3 
0-0 1-1 
0-0 1-1 2-2 3-5 
0-0 1-0 2-1 3-2 4-3 
0-0 1-1 
0-0 1-1 2-2 
0-0 1-1 2-3 
0-0 1-1 2-1 3-2 
0-0 1-1 2-2 3-5 
0-0 1-1 2-1 3-2 4-1 5-3 
0-0 1-1 2-2 3-5 
0-0 1-1 2-1 3-3 4-1 5-2 6-4 
0-0 1-1 2-2 3-5 
0-0 
0-0 1-0 
0-0 1-1 2-2 
0-0 1-1 2-3 
0-0 1-1 2-2 3-3 
0-0 1-1 2-2 
0-0 1-1 2-2 
0-0 1-0 2-1 3-2 
0-0 1-0 2-1 3-2 
0-0 1-0 2-1 3-2 4-3 
0-0 1-1 2-2 
0-0 1-1 2-2 
0-0 1-1 2-1 3-3 
0-0 1-1 2-2 3-3 4-4 
0-0 1-1 2-2 
0-1 1-1 2-3 3-2 4-5 
0-0 1-1 2-0 3-2 4-3 5-3 6-3 7-0 8-0 
0-0 
0-0 1-2 2-3 
0-9 1-2 2-4 3-5 4-5 5-7 6-12 7-8 8-9 9-1 10-13 11-14 
0-0 1-5 2-1 3-2 4-13 5-9 6-5 7-8 8-5 9-6 10-3 11-9 12-6 13-7 14-9 15-13 16-14 17-15 18-9 19-11 20-10 21-17 22-12 23-17 24-16 25-20 26-18 27-19 28-20 29-17 30-21 31-22 
0-1 1-0 2-1 3-5 4-3 5-5 6-5 7-4 8-5 9-5 10-6 11-9 12-9 13-9 14-10 15-11 16-13 
0-0 1-1 2-3 3-5 4-6 5-2 6-6 7-6 8-7 9-9 
0-0 1-1 2-2 
0-0 1-1 2-0 3-1 4-1 5-1 6-1 7-2 8-3 
0-0 1-1 2-2 3-3 4-2 5-5 6-6 7-8 8-9 9-8 10-10 11-11 12-4 13-15 14-20 15-12 16-19 17-35 18-19 19-16 20-25 21-19 22-16 23-17 24-22 25-23 26-23 27-24 28-26 29-13 30-27 31-23 32-32 33-32 34-35 35-31 36-36 
0-0 1-1 2-2 3-3 4-4 5-4 6-5 7-6 8-11 9-9 10-6 11-7 12-3 13-6 14-6 15-15 16-16 17-17 18-14 19-13 20-17 21-17 22-19 23-18 24-21 
0-0 1-1 2-2 3-4 4-5 5-6 6-25 7-12 8-7 9-10 10-14 11-16 12-10 13-40 14-26 15-27 16-11 17-16 18-17 19-18 20-4 21-19 22-21 23-22 24-23 25-24 26-32 27-4 28-19 29-25 30-29 31-37 32-38 33-32 34-34 35-33 36-36 37-37 38-38 39-39 40-41 41-3 42-42 
0-0 1-5 2-1 3-4 4-4 5-5 6-6 7-6 8-7 9-9 
0-0 1-1 2-1 
0-0 1-0 2-1 3-2 
0-27 1-1 2-2 3-3 4-6 5-7 6-8 7-9 8-10 9-11 10-12 11-14 12-16 13-16 14-23 15-19 16-16 17-18 18-19 19-20 20-21 21-9 22-16 23-22 24-23 25-24 26-27 27-27 28-28 29-27 30-29 31-29 
0-0 1-7 2-1 3-7 4-2 5-4 6-4 7-5 8-4 9-5 10-7 11-6 12-7 13-7 14-8 15-9 16-7 17-10 
0-0 1-1 2-1 
0-0 1-1 2-2 3-3 
0-0 1-1 2-2 
0-0 1-1 2-2 3-4 4-6 
0-0 1-1 2-1 3-1 4-1 5-3 
0-0 1-4 2-10 3-4 4-4 5-4 6-1 7-10 8-10 9-12 10-12 11-5 12-14 13-11 14-7 15-11 16-18 17-20 18-19 19-20 
0-17 1-8 2-2 3-2 4-16 5-4 6-16 7-16 8-11 9-8 10-17 11-19 12-15 13-1 14-5 15-0 16-6 17-7 18-8 19-9 20-10 21-11 22-12 23-5 24-12 25-13 26-8 27-16 28-14 29-8 30-17 31-18 32-19 
0-1 1-27 2-19 3-2 4-3 5-27 6-19 7-5 8-5 9-5 10-6 11-7 12-8 13-9 14-14 15-10 16-11 17-12 18-10 19-19 20-14 21-26 22-17 23-15 24-21 25-27 26-19 27-15 28-19 29-25 30-18 31-5 32-27 33-24 34-25 35-24 36-19 37-28 38-30 39-24 40-25 41-31 42-32 
0-0 1-0 2-2 3-3 4-5 5-4 6-7 7-8 8-9 9-10 10-8 11-6 12-17 13-17 14-11 15-13 16-14 17-16 18-17 19-15 20-19 21-20 
0-0 1-1 2-1 3-2 4-3 5-4 6-5 7-6 8-6 9-7 10-10 11-6 12-6 13-12 14-10 15-14 16-10 17-12 18-13 19-14 20-12 21-15 22-16 23-17 24-22 25-22 26-21 27-22 
0-0 1-1 2-1 3-3 4-4 5-2 6-4 7-4 8-6 9-4 10-8 11-9 12-10 13-6 14-10 15-10 16-11 17-12 18-10 19-13 20-14 21-15 
0-1 1-2 2-4 3-2 4-3 5-6 6-5 7-10 8-9 9-7 10-8 11-9 12-10 13-12 14-11 15-13 
0-8 1-1 2-7 3-6 4-4 5-7 6-20 7-23 8-0 9-11 10-1 11-1 12-3 13-8 14-8 15-27 16-13 17-18 18-32 19-14 20-14 21-15 22-16 23-18 24-32 25-12 26-32 27-3 28-23 29-32 30-21 31-20 32-15 33-29 34-27 35-27 36-22 37-22 38-32 39-31 40-28 41-22 42-31 43-32 44-38 45-18 46-32 47-35 48-39 49-32 50-33 51-35 52-39 53-35 54-37 55-36 56-39 
0-19 1-35 2-1 3-4 4-5 5-2 6-31 7-3 8-14 9-9 10-9 11-4 12-9 13-7 14-8 15-12 16-10 17-11 18-19 19-15 20-36 21-18 22-19 23-21 24-19 25-19 26-19 27-22 28-23 29-24 30-25 31-26 32-21 33-27 34-22 35-35 36-28 37-35 38-19 39-34 40-38 41-35 42-15 43-37 44-35 45-35 46-39 47-41 
0-0 1-1 2-2 3-3 
0-8 1-2 2-1 3-2 4-3 5-4 6-5 7-6 8-7 9-8 10-9 11-10 12-9 13-9 14-14 15-16 16-32 17-13 18-19 19-18 20-18 21-24 22-16 23-22 24-27 25-20 26-22 27-22 28-27 29-34 30-33 31-31 32-35 33-41 34-27 35-37 36-38 37-43 38-40 39-35 40-36 41-39 42-45 43-35 44-43 45-44 46-41 47-45 48-46 49-47 
0-0 1-2 2-1 3-4 4-3 5-6 6-7 7-6 8-8 9-11 10-12 11-11 12-11 13-15 14-16 
0-0 1-1 2-1 3-3 4-4 5-5 6-6 7-7 8-8 9-9 10-7 11-12 12-11 13-13 14-11 15-14 16-11 17-11 18-11 19-17 20-18 21-19 22-21 23-16 24-18 25-20 26-22 
0-0 1-1 2-2 3-14 4-3 5-4 6-5 7-6 8-7 9-16 10-5 11-2 12-4 13-8 14-9 15-10 16-11 17-14 18-12 19-23 20-3 21-18 22-16 23-15 24-14 25-17 26-14 27-22 28-21 29-18 30-23 31-20 32-20 33-16 34-13 35-19 36-23 
0-0 1-1 2-2 3-13 4-3 5-6 6-7 7-8 8-9 9-10 10-7 11-10 12-12 13-13 14-14 15-15 16-13 17-16 18-12 19-21 20-21 21-21 22-21 23-9 24-21 25-21 26-29 27-21 28-19 29-21 30-23 31-24 32-26 33-24 34-30 35-25 36-30 
0-0 1-1 2-2 3-3 4-4 5-6 6-3 7-10 8-10 9-10 10-3 11-10 12-10 13-11 14-13 15-11 16-14 17-15 18-16 19-17 
0-0 1-1 2-1 3-2 4-3 5-4 6-5 7-6 8-8 9-8 10-6 11-9 12-10 13-11 14-22 15-12 16-3 17-12 18-14 19-13 20-15 21-22 22-16 23-17 24-19 25-21 26-24 27-23 28-9 29-26 30-26 
0-0 1-1 2-2 3-3 4-3 5-4 6-5 7-8 8-6 9-7 10-9 11-11 12-12 13-13 
0-0 1-5 2-1 3-4 4-4 5-12 6-10 7-5 8-7 9-7 10-13 11-14 12-5 13-16 14-33 15-1 16-1 17-14 18-42 19-18 20-19 21-31 22-8 23-41 24-5 25-23 26-24 27-25 28-26 29-23 30-28 31-27 32-29 33-30 34-23 35-36 36-33 37-39 38-34 39-35 40-33 41-23 42-23 43-40 44-40 45-38 46-33 47-36 48-43 49-38 50-43 51-8 52-44 53-26 54-46 55-45 56-47 
0-4 1-0 2-1 3-5 4-3 5-4 6-5 7-7 8-6 9-8 10-5 11-10 12-11 13-12 14-13 15-14 16-11 17-11 18-0 19-11 20-13 21-18 22-18 23-16 24-18 25-17 26-18 
0-0 1-1 2-2 3-2 4-4 5-5 6-6 7-6 
0-0 1-5 2-0 3-2 4-5 5-0 6-5 7-5 8-2 9-6 10-9 11-9 12-8 13-12 14-6 15-7 16-2 17-12 18-12 19-13 20-12 21-14 22-13 23-12 24-14 25-15 26-16 27-9 28-2 29-17 30-21 31-5 32-18 33-19 34-3 35-21 
0-0 1-0 2-1 3-2 4-3 
0-0 1-4 2-0 3-3 4-5 
0-0 1-1 2-2 3-3 4-4 5-4 6-8 7-9 8-8 9-11 10-13 11-14 12-11 
0-0 1-1 2-2 3-3 4-4 5-2 6-5 7-6 8-9 9-9 10-8 11-9 
0-0 1-1 2-3 3-4 
0-0 1-0 2-1 3-3 4-3 5-3 6-3 7-5 8-4 9-6 
0-0 1-1 2-2 3-6 4-3 5-4 6-5 7-7 
0-0 1-1 2-2 3-2 4-3 5-4 6-5 7-7 8-8 9-9 10-10 11-10 12-11 13-13 
0-0 1-1 2-2 3-3 4-4 5-7 6-5 7-6 8-7 9-5 10-8 11-7 12-9 13-9 14-9 15-9 16-14 17-14 18-13 19-14 
0-0 1-1 2-2 3-3 4-4 5-3 6-4 7-5 8-6 9-7 10-8 
0-0 1-5 2-1 3-3 4-4 5-6 6-7 7-6 8-7 9-10 10-7 11-5 12-5 13-11 14-11 15-13 16-14 17-15 18-16 19-16 20-18 21-19 22-20 23-21 24-22 25-24 26-23 27-24 
0-0 1-6 2-2 3-1 4-4 5-5 6-7 7-8 8-7 9-10 10-9 11-8 12-8 13-8 14-6 15-21 16-12 17-17 18-20 19-16 20-18 21-19 22-21 
0-0 1-1 2-3 3-3 4-4 5-5 6-7 7-6 8-5 9-9 10-9 11-11 12-15 13-10 14-11 15-11 16-14 17-17 18-18 19-23 20-22 21-21 22-24 
0-18 1-1 2-1 3-3 4-2 5-4 6-5 7-7 8-6 9-8 10-9 11-10 12-10 13-10 14-11 15-12 16-10 17-13 18-10 19-14 20-15 21-16 22-17 23-18 24-18 25-19 26-20 27-18 28-21 29-22 30-23 31-4 32-23 33-25 34-28 35-18 36-27 37-28 38-31 39-29 40-30 41-31 42-31 43-32 44-33 
0-0 1-1 2-2 3-0 4-4 5-4 6-6 7-4 8-7 9-6 10-6 11-10 12-11 13-11 14-13 15-14 16-15 17-16 18-17 19-18 20-16 21-19 22-20 23-21 24-20 25-24 26-20 27-20 28-23 29-25 
0-0 1-0 2-4 3-3 4-4 5-5 6-6 7-6 8-8 
0-0 1-1 2-2 3-3 4-3 5-4 6-3 7-7 8-11 9-12 10-9 11-7 12-9 13-6 14-9 15-10 16-9 17-12 18-11 19-12 20-17 21-15 22-13 23-14 24-18 25-18 26-18 27-18 
0-0 1-2 2-0 3-4 4-2 5-3 6-0 7-4 8-5 9-6 10-7 11-6 12-8 13-10 14-12 15-6 16-11 17-17 18-12 19-14 20-15 21-16 22-17 23-17 24-17 25-17 26-18 27-19 28-20 
0-0 1-1 2-3 3-13 4-4 5-5 6-19 7-7 8-8 9-9 10-10 11-14 12-13 13-19 14-12 15-19 16-17 17-16 18-15 19-18 20-21 21-19 22-20 23-21 24-23 25-19 26-23 27-11 28-28 29-27 30-26 31-25 
0-0 1-20 2-17 3-1 4-2 5-3 6-4 7-5 8-6 9-6 10-8 11-8 12-7 13-10 14-9 15-8 16-12 17-11 18-31 19-15 20-16 21-17 22-19 23-18 24-27 25-17 26-30 27-17 28-21 29-22 30-24 31-25 32-28 33-17 34-30 35-17 36-29 37-13 38-35 39-33 40-36 41-35 42-25 43-36 44-38 45-42 46-41 47-40 48-42 
0-0 1-3 2-3 3-10 4-2 5-1 6-4 7-3 8-9 9-5 10-9 11-6 12-7 13-10 14-8 15-10 16-10 17-11 18-11 19-10 20-13 21-14 22-15 
0-0 1-3 2-2 3-14 4-1 5-3 6-22 7-5 8-4 9-6 10-11 11-7 12-16 13-18 14-15 15-19 16-19 17-21 18-22 19-20 20-23 21-24 
0-0 1-1 2-2 3-2 4-4 5-5 6-6 7-5 8-8 9-5 10-9 11-11 12-11 13-12 14-12 15-15 16-12 17-15 18-15 19-17 20-16 21-18 22-19 23-20 24-21 25-22 26-23 27-24 28-21 29-25 30-26 
0-0 1-1 2-3 3-3 4-9 5-5 6-0 7-6 8-34 9-9 10-8 11-16 12-9 13-10 14-14 15-11 16-12 17-13 18-15 19-14 20-16 21-17 22-18 23-19 24-21 25-22 26-24 27-23 28-25 29-26 30-27 31-26 32-22 33-28 34-29 35-33 36-30 37-31 38-4 39-34 
0-0 1-1 2-2 3-4 4-4 5-5 6-15 7-6 8-7 9-11 10-13 11-15 12-12 13-15 14-18 15-14 16-15 17-16 18-14 
0-0 1-1 2-1 3-3 4-3 5-5 6-6 7-3 8-4 9-6 10-3 11-8 12-7 13-9 14-11 15-11 16-11 17-14 18-15 
0-0 1-1 2-3 3-4 4-3 5-3 6-7 7-6 8-5 9-3 10-9 11-8 12-10 13-11 14-12 15-13 
0-0 1-1 2-4 3-10 4-3 5-6 6-3 7-9 8-9 9-9 10-5 11-10 12-8 13-7 14-9 15-15 16-11 17-15 18-27 19-15 20-15 21-11 22-15 23-19 24-21 25-6 26-16 27-23 28-21 29-6 30-24 31-32 32-21 33-32 34-6 35-23 36-25 37-32 38-4 39-4 40-28 41-26 42-32 43-27 44-30 45-36 46-32 47-33 48-35 49-36 
0-1 1-1 2-1 3-1 4-1 5-4 6-6 7-2 8-0 9-5 10-6 11-8 12-7 13-8 
0-0 1-1 2-2 3-3 4-4 5-5 6-6 7-5 8-5 9-7 10-8 11-10 12-11 13-11 14-12 15-11 16-14 17-14 18-13 19-16 20-18 21-19 22-19 23-17 24-19 
0-22 1-3 2-2 3-4 4-0 5-1 6-4 7-5 8-9 9-8 10-9 11-8 12-7 13-12 14-22 15-11 16-10 17-22 18-12 19-14 20-22 21-18 22-21 23-22 24-16 25-21 26-22 27-20 28-21 29-22 30-24 31-23 32-26 
0-0 1-1 2-2 3-2 4-4 5-33 6-6 7-8 8-5 9-7 10-37 11-18 12-15 13-13 14-20 15-12 16-44 17-10 18-27 19-18 20-19 21-20 22-23 23-22 24-21 25-17 26-13 27-25 28-20 29-30 30-29 31-31 32-41 33-33 34-24 35-35 36-33 37-43 38-8 39-4 40-38 41-18 42-40 43-39 44-33 45-33 46-48 47-15 48-41 49-44 50-47 51-46 52-16 53-48 
0-0 1-1 2-9 3-4 4-6 5-2 6-3 7-4 8-5 9-9 10-7 11-6 12-9 13-8 14-9 15-9 16-10 17-16 18-15 19-14 20-15 21-16 22-16 
0-0 1-1 2-2 3-3 4-0 5-4 6-7 7-4 8-4 9-9 10-8 11-6 12-11 13-12 14-16 15-11 16-15 17-22 18-14 19-18 20-16 21-17 22-21 23-19 24-19 25-19 26-30 27-4 28-22 29-32 30-22 31-25 32-23 33-23 34-32 35-27 36-22 37-4 38-3 39-28 40-30 41-31 42-32 43-34 44-35 45-32 46-34 47-37 48-37 
0-0 1-1 2-2 3-3 4-4 5-4 6-6 7-8 8-7 9-9 10-11 11-10 12-12 13-9 14-15 15-14 16-13 17-12 18-4 19-17 20-16 21-22 22-17 23-16 24-17 25-19 26-20 27-22 28-25 29-24 30-21 31-26 32-23 33-26 34-26 35-30 36-27 37-29 38-28 39-30 
0-0 1-4 2-1 3-3 4-3 5-3 6-7 7-6 8-7 9-7 10-7 11-9 12-8 13-11 14-12 15-15 16-13 17-15 18-14 19-15 20-16 21-17 
0-0 1-0 2-2 3-4 4-8 5-4 6-6 7-7 8-8 9-8 10-8 11-8 12-9 13-13 
0-0 1-8 2-2 3-7 4-8 5-10 6-9 7-11 
0-0 1-1 2-2 3-3 4-4 5-5 6-2 7-6 8-10 9-9 10-7 11-11 12-11 13-12 14-11 15-27 16-14 17-13 18-15 19-11 20-27 21-16 22-3 23-29 24-22 25-22 26-22 27-22 28-27 29-25 30-26 31-27 32-24 33-26 34-27 35-28 36-30 37-30 38-32 
0-3 1-1 2-3 3-3 4-0 
0-0 1-1 2-3 3-3 4-12 5-4 6-3 7-4 8-3 9-5 10-5 11-6 12-8 13-8 14-9 15-12 16-12 17-14 18-12 19-15 20-12 21-13 22-13 23-16 
0-0 1-1 2-2 3-3 4-3 5-4 6-19 7-0 8-6 9-21 10-22 11-14 12-29 13-10 14-10 15-11 16-12 17-3 18-13 19-14 20-0 21-15 22-32 23-0 24-17 25-23 26-29 27-26 28-5 29-29 30-20 31-21 32-12 33-29 34-32 35-14 36-24 37-29 38-25 39-26 40-27 41-28 42-3 43-3 44-0 45-30 46-14 47-16 48-3 49-26 50-33 51-45 52-42 53-34 54-40 55-36 56-37 57-39 58-40 59-41 60-38 61-29 62-43 63-42 64-44 65-45 
0-0 1-0 2-1 3-3 4-4 5-5 6-6 7-7 8-8 9-9 10-10 
0-0 1-6 2-1 3-2 4-4 5-2 6-3 7-7 
0-0 1-1 2-3 3-2 4-3 
0-0 1-6 2-1 3-2 4-3 5-4 6-5 7-9 8-9 9-2 10-9 11-20 12-9 13-12 14-10 15-12 16-11 17-2 18-12 19-12 20-12 21-15 22-14 23-17 24-17 25-19 26-20 27-18 28-19 29-20 30-21 31-22 
0-0 1-4 2-5 3-2 4-3 5-5 6-6 7-7 8-8 9-9 10-12 11-6 12-13 13-5 14-6 15-11 16-13 
0-0 1-2 2-2 3-5 4-2 5-5 6-5 7-8 8-9 9-10 10-11 
0-0 1-0 2-1 3-3 4-4 5-13 6-12 7-6 8-4 9-2 10-10 11-6 12-11 13-11 14-11 15-11 16-7 17-15 18-11 19-11 20-18 21-17 22-18 23-19 24-20 
0-0 1-1 2-2 3-3 4-6 5-7 6-4 7-4 8-8 9-2 10-11 11-7 12-10 13-9 14-11 15-11 16-22 17-12 18-14 19-2 20-22 21-27 22-19 23-19 24-16 25-17 26-17 27-23 28-23 29-25 30-23 31-23 32-24 33-26 34-27 35-25 36-19 37-20 38-28 39-29 
0-6 1-6 2-1 3-2 4-6 5-4 6-3 7-16 8-6 9-4 10-9 11-9 12-10 13-11 14-12 15-14 16-13 17-16 18-19 19-17 20-22 21-21 22-24 23-22 24-23 25-26 26-24 27-27 28-28 29-25 30-27 31-30 32-29 33-30 
0-0 1-1 2-1 3-4 4-3 5-4 6-4 7-4 8-5 9-6 
0-0 1-1 2-1 3-2 4-0 5-4 6-5 
0-0 1-9 2-0 3-0 4-1 5-2 6-9 7-4 8-3 9-5 10-6 11-9 12-14 13-23 14-8 15-16 16-10 17-12 18-11 19-8 20-20 21-1 22-15 23-22 24-18 25-22 26-23 27-21 28-22 29-24 30-28 31-26 32-25 33-25 34-22 35-27 36-26 37-26 38-30 39-28 40-29 41-31 42-34 43-34 44-33 45-32 46-34 
0-0 1-1 2-3 3-2 4-3 5-3 6-11 7-10 8-3 9-6 10-9 11-9 12-6 13-3 14-3 15-8 16-7 17-12 18-13 19-12 20-14 21-15 22-16 23-17 24-17 25-18 26-19 27-14 28-0 29-20 30-19 31-21 32-27 33-16 34-23 35-23 36-24 37-25 38-26 39-27 
0-0 1-3 2-2 3-4 4-5 5-5 6-7 7-5 8-9 9-10 10-11 11-12 12-13 13-13 14-14 15-5 16-12 17-12 18-19 19-22 20-21 21-5 22-21 23-23 24-19 25-19 26-25 27-20 28-26 29-30 30-5 31-29 32-30 33-5 34-28 35-27 36-30 
0-0 1-10 2-7 3-13 4-4 5-15 6-7 7-10 8-1 9-2 10-10 11-9 12-12 13-12 14-14 15-16 
0-0 1-1 2-2 3-3 4-10 5-4 6-4 7-4 8-6 9-6 10-6 11-14 12-8 13-10 14-8 15-9 16-10 17-10 18-10 19-6 20-6 21-14 22-14 23-12 24-13 25-14 
0-0 1-1 2-2 3-4 4-5 5-15 6-7 7-6 8-7 9-8 10-9 11-7 12-10 13-11 14-12 15-13 16-14 17-15 18-15 19-17 20-16 21-18 
0-0 1-0 2-2 3-1 4-5 5-4 6-5 7-5 8-5 9-8 10-7 11-9 12-5 13-6 14-12 15-13 
0-0 1-0 2-2 3-3 4-6 5-0 6-4 7-6 8-11 9-7 10-9 11-9 12-11 13-10 14-13 15-14 16-15 17-16 18-15 19-15 20-17 21-18 22-19 23-20 24-21 25-22 
0-0 1-1 2-3 3-0 4-4 5-9 6-5 7-6 8-7 9-10 10-10 11-9 12-12 13-10 14-10 15-14 16-16 17-8 18-16 19-15 20-16 
0-0 1-1 2-2 3-2 4-3 5-2 6-4 7-12 8-10 9-11 10-9 11-9 12-10 13-9 14-15 15-16 16-18 17-1 18-21 19-16 20-22 21-19 22-21 23-20 24-1 25-17 26-7 27-17 28-23 
0-0 1-1 2-1 3-3 4-4 5-3 6-5 7-6 8-9 9-6 10-7 11-7 12-7 13-8 14-10 15-14 16-11 17-8 18-19 19-15 20-12 21-16 22-15 23-17 24-10 25-18 26-19 27-15 28-20 29-13 30-22 31-24 32-26 33-22 34-25 35-27 
0-3 1-1 2-3 3-4 4-5 5-4 6-10 7-5 8-12 9-8 10-9 11-10 12-11 13-13 14-14 15-10 16-15 17-16 18-13 19-16 
0-0 1-1 2-3 3-0 4-4 5-5 6-36 7-9 8-6 9-7 10-8 11-10 12-10 13-28 14-13 15-7 16-13 17-16 18-31 19-17 20-20 21-6 22-19 23-13 24-22 25-21 26-40 27-24 28-23 29-10 30-26 31-38 32-25 33-28 34-27 35-31 36-35 37-28 38-36 39-36 40-29 41-30 42-31 43-36 44-33 45-35 46-10 47-28 48-37 49-38 50-38 51-39 52-43 53-40 54-42 55-41 56-43 57-40 58-45 59-44 60-46 
0-0 1-0 2-2 3-4 4-4 5-6 6-5 7-4 8-8 9-9 10-4 11-7 12-12 13-12 14-4 15-20 16-19 17-16 18-0 19-18 20-21 21-21 
0-0 1-1 2-1 3-2 
0-0 1-1 2-2 3-3 4-4 5-5 6-6 7-7 8-17 9-9 10-10 11-11 12-12 13-2 14-11 15-16 16-13 17-14 18-18 19-19 
0-0 1-10 2-1 3-2 4-3 5-4 6-5 7-6 8-8 9-10 10-12 11-11 12-13 
0-0 1-1 2-2 3-3 4-4 5-4 6-11 7-6 8-7 9-8 10-9 11-11 12-10 13-11 14-12 15-11 16-15 17-16 18-15 19-20 20-20 21-20 22-12 23-16 24-14 25-20 26-16 27-6 28-1 29-20 30-22 31-24 32-25 
0-0 1-1 2-19 3-3 4-5 5-5 6-6 7-3 8-4 9-11 10-9 11-10 12-14 13-15 14-13 15-13 16-18 17-16 18-16 19-19 20-16 21-6 22-21 23-22 
0-0 1-3 2-3 3-16 4-3 5-1 6-7 7-16 8-8 9-14 10-7 11-7 12-7 13-11 14-14 15-11 16-13 17-15 18-13 19-9 20-19 21-18 22-15 23-10 24-19 
0-0 1-1 2-0 3-3 4-7 5-2 6-3 7-4 8-3 9-4 10-7 11-4 12-7 13-6 14-7 15-7 16-8 17-9 
0-0 1-1 2-2 3-3 4-2 5-6 6-7 7-7 8-8 9-9 10-10 11-10 12-17 13-10 14-26 15-13 16-15 17-13 18-14 19-10 20-18 21-16 22-17 23-26 24-18 25-19 26-20 27-26 28-22 29-23 30-26 31-26 32-24 33-25 34-26 35-27 36-23 37-26 38-30 39-9 40-26 41-31 42-33 43-34 
0-0 1-1 2-2 3-2 4-3 5-4 6-5 7-6 8-8 9-8 10-8 11-12 12-13 13-14 14-15 15-16 16-20 17-16 18-17 19-19 20-16 21-22 22-23 23-24 
0-1 1-1 2-1 3-0 4-3 5-1 6-16 7-10 8-14 9-8 10-8 11-15 12-2 13-14 14-15 15-7 16-15 17-4 18-6 19-15 20-15 21-17 22-17 23-9 24-17 
0-3 1-5 2-0 3-1 4-2 5-3 6-4 7-8 8-9 9-16 10-12 11-8 12-18 13-13 14-10 15-15 16-16 17-16 18-17 19-18 20-18 21-22 22-25 23-19 24-21 25-23 26-23 27-16 28-24 29-16 
0-7 1-0 2-1 3-1 4-4 5-3 6-5 7-5 8-5 9-10 10-9 11-5 12-13 13-10 14-7 15-8 16-13 
0-0 1-1 2-2 3-3 4-2 5-15 6-4 7-8 8-5 9-7 10-8 11-8 12-9 13-9 14-8 15-12 16-15 17-23 18-24 19-15 20-22 21-11 22-26 23-5 24-14 25-8 26-16 27-21 28-23 29-31 30-38 31-27 32-27 33-16 34-30 35-28 36-31 37-16 38-32 39-33 40-16 41-35 42-35 43-34 44-37 45-38 
0-0 1-1 2-22 3-2 4-4 5-5 6-9 7-6 8-7 9-8 10-10 11-11 12-13 13-15 14-14 15-16 16-17 17-22 18-20 19-19 20-21 21-0 22-24 23-27 24-21 25-41 26-36 27-10 28-36 29-28 30-33 31-34 32-36 33-32 34-31 35-21 36-38 37-35 38-38 39-39 40-40 41-41 
0-0 1-1 2-2 3-3 4-5 5-0 6-7 7-8 8-6 9-9 10-10 11-12 12-11 13-12 14-18 15-15 16-13 17-6 18-29 19-18 20-19 21-20 22-36 23-24 24-20 25-28 26-24 27-25 28-26 29-18 30-20 31-30 32-31 33-32 34-33 35-18 36-20 37-18 38-0 39-6 40-38 41-41 42-35 43-37 44-39 45-41 46-41 47-40 48-41 
0-0 1-0 2-5 3-2 4-6 5-7 6-6 7-7 8-8 9-10 10-11 11-12 
0-5 1-2 2-0 3-7 4-3 5-5 6-5 7-5 8-7 9-9 10-24 11-13 12-1 13-9 14-13 15-18 16-6 17-6 18-7 19-8 20-17 21-18 22-18 23-7 24-14 25-9 26-16 27-15 28-21 29-5 30-23 31-21 32-24 33-20 34-24 35-7 36-20 37-24 
0-0 1-9 2-2 3-2 4-4 5-6 6-1 7-2 8-3 9-4 10-5 11-11 12-7 13-14 14-15 15-13 16-16 17-17 18-17 19-16 20-16 21-18 22-22 23-23 24-25 25-24 26-35 27-26 28-27 29-28 30-29 31-30 32-26 33-32 34-32 35-36 36-37 
0-14 1-5 2-0 3-1 4-2 5-3 6-4 7-6 8-9 9-7 10-9 11-10 12-11 13-13 14-12 15-9 16-16 17-9 18-9 19-16 20-15 21-16 22-21 23-21 24-17 25-26 26-26 27-18 28-23 29-23 30-23 31-24 32-26 33-25 34-26 
0-0 1-7 2-1 3-2 4-3 5-5 6-4 7-6 8-7 9-9 10-7 11-7 12-2 13-10 14-0 15-15 16-12 17-14 18-13 19-15 
0-0 1-1 2-4 3-4 4-4 5-4 6-3 7-8 8-6 9-7 10-8 11-9 12-10 13-10 14-14 15-15 16-12 17-10 18-16 19-17 20-20 21-20 22-20 23-11 24-24 25-19 26-24 27-21 28-22 29-23 30-26 31-25 32-26 33-27 34-28 35-29 
0-0 1-1 2-19 3-17 4-9 5-17 6-7 7-6 8-23 9-10 10-10 11-10 12-10 13-17 14-14 15-17 16-10 17-17 18-19 19-19 20-13 21-19 22-15 23-4 24-24 25-19 26-24 27-17 28-22 29-21 30-24 31-17 32-25 33-26 
0-0 1-1 2-7 3-3 4-8 5-9 6-20 7-11 8-3 9-1 10-9 11-7 12-18 13-15 14-16 15-12 16-9 17-19 18-22 19-21 20-17 21-22 22-16 23-17 24-27 25-28 26-1 27-27 28-30 29-22 30-27 31-30 32-31 
0-0 1-1 2-1 3-1 4-1 5-4 6-4 7-4 8-4 9-4 10-6 11-1 12-5 
0-0 1-1 2-1 3-8 4-3 5-3 6-13 7-10 8-10 9-8 10-10 11-10 12-10 13-9 14-11 15-13 16-14 17-14 18-15 19-16 20-14 21-19 22-16 23-19 24-16 25-20 26-20 
0-6 1-5 2-0 3-2 4-4 5-5 6-8 7-6 8-7 9-8 10-13 11-17 12-15 13-11 14-16 15-17 16-8 17-5 18-18 19-20 
0-0 1-1 2-4 3-6 4-6 5-5 6-3 7-8 8-9 9-10 10-11 11-12 12-10 13-13 14-14 15-14 16-15 17-20 18-17 19-19 20-22 21-23 
0-0 1-2 2-0 3-0 4-4 5-3 6-4 7-5 8-6 9-7 10-8 11-9 12-10 13-23 14-11 15-29 16-16 17-13 18-14 19-2 20-15 21-18 22-23 23-22 24-21 25-22 26-23 27-24 28-23 29-23 30-22 31-29 32-28 33-26 34-29 
0-0 1-1 2-17 3-3 4-4 5-3 6-11 7-6 8-5 9-7 10-6 11-7 12-12 13-16 14-12 15-8 16-14 17-13 18-12 19-12 20-12 21-18 22-19 23-17 24-12 25-20 26-19 27-22 28-22 29-21 30-22 31-22 32-27 33-23 34-28 35-22 36-28 37-25 38-25 39-25 40-28 41-25 42-28 
0-5 1-1 2-22 3-3 4-44 5-2 6-6 7-7 8-8 9-8 10-10 11-17 12-30 13-17 14-12 15-13 16-14 17-18 18-16 19-9 20-26 21-0 22-24 23-1 24-23 25-20 26-25 27-22 28-18 29-32 30-29 31-34 32-18 33-28 34-31 35-18 36-38 37-40 38-5 39-36 40-23 41-44 42-26 43-35 44-40 45-26 46-42 47-43 48-44 
0-0 1-0 2-1 3-2 4-3 5-4 6-5 7-4 8-6 9-7 10-8 11-6 12-9 13-11 14-13 15-12 16-13 17-16 18-14 19-15 20-13 21-18 22-17 23-16 24-16 25-22 26-19 27-21 28-23 29-6 30-17 31-21 32-23 33-28 34-24 35-25 36-27 37-21 38-26 39-28 
0-0 1-1 2-2 3-3 4-4 5-5 6-4 7-6 8-13 9-5 10-12 11-18 12-11 13-10 14-9 15-8 16-9 17-26 18-19 19-13 20-9 21-14 22-19 23-18 24-26 25-23 26-0 27-22 28-26 29-27 30-25 31-26 32-27 33-6 34-17 35-16 36-26 37-26 38-26 39-21 40-28 41-19 42-20 43-28 
0-0 1-1 2-2 3-3 4-5 5-0 6-0 7-6 8-6 9-6 10-6 11-7 12-8 13-9 14-8 15-10 16-11 17-10 18-11 
0-0 1-1 2-2 3-2 4-4 5-3 6-5 7-6 8-10 9-5 10-11 11-12 12-12 13-13 14-15 15-14 16-16 
0-0 1-1 2-4 3-5 4-6 5-7 6-8 7-9 8-10 9-11 10-9 11-12 12-13 13-15 14-14 15-15 
0-4 1-5 2-9 3-3 4-11 5-8 6-9 7-7 8-9 9-12 10-11 11-14 12-11 13-15 14-11 15-6 16-4 17-16 18-14 19-16 
0-0 1-13 2-1 3-3 4-3 5-3 6-3 7-5 8-6 9-7 10-2 11-15 12-9 13-8 14-9 15-13 16-11 17-13 18-10 19-9 20-10 21-13 22-12 23-13 24-16 25-14 26-16 27-16 28-17 29-18 
0-0 1-1 2-3 3-2 4-3 5-6 6-7 7-4 8-9 
0-1 1-1 2-1 3-2 4-3 5-4 6-5 7-6 8-7 9-9 10-9 11-10 12-12 
0-0 1-1 2-10 3-6 4-7 5-4 6-4 7-9 8-8 9-9 10-10 11-12 12-11 13-10 14-15 15-4 16-14 17-16 18-19 19-18 20-17 21-19 
0-0 1-1 2-3 3-5 4-4 5-6 6-3 7-7 8-8 9-9 10-11 11-10 12-18 13-12 14-18 15-12 16-12 17-14 18-12 19-18 20-16 21-17 22-18 23-18 24-21 25-20 26-22 
0-0 1-1 2-3 3-4 4-5 5-3 6-6 7-7 8-7 9-39 10-7 11-8 12-10 13-18 14-14 15-11 16-3 17-13 18-14 19-17 20-18 21-19 22-18 23-20 24-20 25-27 26-20 27-38 28-25 29-27 30-19 31-25 32-22 33-21 34-18 35-26 36-34 37-25 38-24 39-27 40-20 41-42 42-28 43-40 44-43 45-34 46-36 47-32 48-35 49-12 50-37 51-37 52-39 53-40 54-43 55-43 56-37 57-25 58-42 59-18 60-41 61-43 62-20 63-12 64-40 65-44 66-45 
0-0 1-0 2-1 3-2 4-2 5-4 6-6 7-6 8-7 9-8 10-9 11-12 12-12 13-11 14-10 15-12 
0-0 1-0 2-1 3-2 4-3 5-4 6-5 7-7 8-8 9-9 10-10 11-11 12-9 13-13 14-14 
0-0 1-5 2-3 3-3 4-1 5-4 6-2 7-3 8-6 9-7 10-8 11-9 12-10 13-9 14-9 15-11 16-13 17-12 18-11 19-13 
0-0 1-1 2-2 3-4 4-5 5-8 6-5 7-0 8-6 9-14 10-8 11-9 12-12 13-10 14-11 15-10 16-13 17-14 
0-3 1-1 2-2 3-10 4-3 5-5 6-12 7-7 8-8 9-9 10-10 11-11 12-12 13-10 14-17 15-12 16-13 17-14 18-18 19-19 20-20 21-21 22-22 23-20 24-26 25-23 26-24 27-25 28-27 29-24 30-28 31-20 32-29 33-30 
0-0 1-1 2-2 3-6 4-1 5-5 6-2 7-3 8-7 9-8 10-8 11-10 12-10 13-13 14-12 15-12 16-13 
0-0 1-1 2-2 3-2 4-4 5-4 6-10 7-5 8-6 9-7 10-4 11-10 12-9 13-8 14-9 
0-3 1-0 2-3 3-1 4-2 5-3 6-3 7-5 8-3 9-5 10-7 11-6 12-8 13-5 14-8 15-8 16-9 17-10 18-12 19-11 20-12 21-16 22-14 23-14 24-15 
0-2 1-0 2-2 3-1 4-2 5-4 6-3 7-4 8-6 9-8 10-9 11-5 12-7 13-8 14-9 15-10 16-11 17-11 18-13 19-13 20-15 21-14 22-20 23-20 24-15 25-20 26-20 27-19 28-20 29-20 30-5 31-20 32-20 33-17 34-20 
0-0 1-1 2-2 3-0 4-5 5-7 6-6 7-24 8-4 9-28 10-9 11-11 12-10 13-12 14-28 15-13 16-18 17-8 18-17 19-14 20-12 21-16 22-12 23-0 24-15 25-18 26-14 27-18 28-18 29-18 30-20 31-24 32-21 33-22 34-28 35-25 36-24 37-28 38-26 39-29 40-30 41-28 42-30 43-30 
0-0 1-2 2-0 3-1 4-1 5-0 
0-10 1-6 2-6 3-3 4-0 5-6 6-4 7-9 8-8 9-4 10-4 11-4 12-4 13-7 14-2 15-10 16-0 17-4 18-7 19-1 20-10 
0-0 1-1 2-1 3-4 4-1 5-3 6-2 7-5 8-6 9-1 10-1 11-10 12-11 13-11 14-8 15-10 16-10 17-11 18-12 19-13 20-14 21-15 22-16 23-17 
0-0 1-1 2-2 3-3 4-4 5-4 6-4 7-6 8-6 9-6 10-7 11-6 12-9 13-10 14-11 15-15 16-12 17-20 18-13 19-15 20-18 21-15 22-16 23-18 24-15 25-20 26-19 27-25 
0-0 1-0 2-0 3-1 4-4 5-0 6-5 7-7 8-4 9-9 10-6 11-9 12-15 13-9 14-15 15-15 16-11 17-13 18-14 19-15 
0-0 1-0 2-2 3-2 4-3 5-3 6-4 7-4 8-4 9-2 10-2 11-2 12-12 13-12 14-12 15-12 16-11 17-6 18-12 19-10 20-12 
0-2 1-1 2-2 3-12 4-13 5-10 6-11 7-7 8-15 9-10 10-1 11-10 12-10 13-9 14-3 15-10 16-8 17-10 18-10 19-6 20-10 
0-2 1-1 2-2 3-2 4-6 5-2 6-24 7-2 8-8 9-6 10-8 11-8 12-12 13-9 14-11 15-2 16-7 17-13 18-10 19-13 20-14 21-15 22-18 23-18 24-17 25-27 26-18 27-20 28-18 29-16 30-23 31-23 32-16 33-23 34-22 35-27 36-21 37-19 38-2 39-26 40-18 41-27 42-2 43-27 44-24 45-27 46-25 47-2 
0-7 1-1 2-3 3-2 4-3 5-4 6-3 7-7 8-1 9-7 10-4 11-7 12-5 13-11 14-11 15-10 16-11 17-9 18-8 19-11 
0-0 1-2 2-2 3-1 4-2 5-2 6-4 7-4 
0-8 1-3 2-0 3-4 4-5 5-6 6-7 7-8 8-8 9-10 10-4 11-12 12-13 13-14 
0-0 1-1 2-4 3-5 4-6 5-5 6-9 7-10 8-7 9-5 10-13 11-11 12-13 13-10 14-13 15-14 16-15 17-16 
0-0 1-1 2-2 3-3 4-4 5-5 6-4 7-9 8-7 9-11 10-12 11-9 12-14 13-11 14-15 15-17 16-18 
0-0 1-6 2-1 3-2 4-3 5-4 6-5 7-8 8-9 9-9 10-11 11-12 12-13 13-14 14-13 15-15 16-16 17-17 18-14 19-19 20-18 21-21 22-21 23-22 24-23 25-27 26-28 27-31 28-29 29-30 30-31 
0-0 1-1 2-54 3-3 4-23 5-16 6-6 7-42 8-8 9-10 10-9 11-11 12-26 13-12 14-57 15-52 16-21 17-5 18-12 19-17 20-53 21-54 22-25 23-23 24-24 25-27 26-7 27-26 28-40 29-53 30-23 31-15 32-54 33-30 34-47 35-33 36-35 37-34 38-37 39-38 40-39 41-34 42-24 43-41 44-28 45-43 46-44 47-57 48-58 49-59 50-11 51-18 52-36 53-47 54-32 55-54 56-48 57-50 58-54 59-11 60-40 61-57 62-53 63-53 64-54 65-25 66-40 67-54 68-27 69-60 
0-0 1-5 2-5 3-5 4-4 5-3 6-0 7-5 8-1 9-7 10-7 11-8 12-10 13-6 14-5 15-9 16-10 
0-0 1-2 2-3 3-3 4-4 5-9 6-6 7-10 8-9 9-11 10-12 11-13 12-14 13-15 
0-0 1-1 2-4 3-0 4-3 5-9 6-6 7-4 8-5 9-6 10-9 11-10 12-9 13-13 14-11 15-12 16-13 17-14 18-15 19-14 20-16 21-16 22-17 23-18 24-21 
0-0 1-1 2-3 3-2 4-3 5-3 6-24 7-8 8-8 9-32 10-31 11-11 12-6 13-8 14-25 15-4 16-14 17-3 18-20 19-12 20-28 21-30 22-18 23-19 24-18 25-21 26-19 27-18 28-22 29-19 30-24 31-25 32-25 33-33 34-24 35-25 36-24 37-28 38-25 39-30 40-29 41-33 42-34 43-24 44-30 45-34 46-36 
0-0 1-1 2-2 3-3 4-4 5-5 6-6 7-10 8-7 9-8 10-9 11-10 12-12 13-11 14-13 15-10 16-14 17-15 18-15 19-17 20-18 21-18 22-18 23-24 24-21 25-24 26-18 27-23 28-18 29-24 30-26 31-24 32-25 33-26 
0-7 1-8 2-1 3-3 4-11 5-10 6-6 7-8 8-16 9-15 10-5 11-6 12-2 13-1 14-12 15-12 16-12 17-4 18-17 
0-0 1-0 2-1 3-3 4-4 5-4 6-5 7-7 8-12 9-6 10-7 11-12 12-9 13-8 14-11 15-7 16-12 17-14 18-4 19-18 20-16 21-18 22-18 23-17 24-18 
0-0 1-11 2-12 3-13 4-14 5-15 6-6 7-6 8-1 9-6 10-2 11-6 12-10 13-5 14-4 15-10 16-11 17-10 18-10 19-8 20-9 21-16 
0-0 1-2 2-2 3-5 4-4 5-6 6-15 7-7 8-11 9-8 10-7 11-13 12-36 13-29 14-14 15-4 16-16 17-17 18-17 19-15 20-19 21-15 22-16 23-25 24-21 25-24 26-12 27-16 28-23 29-7 30-16 31-25 32-26 33-49 34-35 35-24 36-32 37-1 38-28 39-29 40-49 41-27 42-32 43-36 44-31 45-32 46-41 47-16 48-34 49-40 50-37 51-21 52-44 53-7 54-43 55-38 56-47 57-43 58-7 59-33 60-0 61-48 62-47 63-0 64-46 65-49 
0-0 1-1 2-3 3-4 4-5 5-7 6-7 7-6 8-7 9-8 10-9 11-11 12-12 13-21 14-16 15-17 16-15 17-13 18-21 19-18 20-19 21-21 22-24 23-22 24-24 25-21 26-21 27-25 28-26 29-27 30-29 31-29 32-13 33-29 
0-0 1-1 2-2 3-4 4-5 5-6 6-7 7-5 8-8 9-27 10-0 11-10 12-7 13-12 14-16 15-29 16-12 17-13 18-17 19-35 20-25 21-18 22-21 23-22 24-20 25-20 26-25 27-14 28-22 29-23 30-24 31-29 32-31 33-26 34-35 35-36 36-25 37-28 38-29 39-30 40-34 41-11 42-35 43-36 44-37 45-38 46-39 47-41 48-42 49-25 50-43 51-33 52-45 53-16 54-47 55-48 56-49 57-50 58-50 
0-0 1-1 2-2 3-3 4-3 5-4 6-6 7-12 8-10 9-11 10-12 11-13 12-12 13-12 14-15 15-16 16-17 17-18 18-14 19-14 20-19 21-20 22-12 23-22 24-14 25-21 26-21 27-25 28-26 29-27 30-28 31-12 32-33 33-24 34-30 35-31 36-33 37-12 38-7 39-31 40-31 41-36 42-38 
0-0 1-1 2-2 3-2 4-7 5-5 6-7 7-7 8-7 9-7 10-10 11-9 12-10 13-10 14-12 15-14 16-15 17-18 18-18 19-19 20-20 21-18 22-21 23-14 24-20 25-22 26-21 27-16 28-22 
0-12 1-1 2-2 3-2 4-6 5-6 6-4 7-6 8-6 9-6 10-6 11-9 12-10 13-12 14-12 15-12 16-12 
0-0 1-15 2-14 3-5 4-18 5-16 6-10 7-9 8-1 9-2 10-6 11-4 12-3 13-5 14-6 15-8 16-8 17-19 
0-0 1-1 2-24 3-3 4-4 5-5 6-5 7-6 8-33 9-5 10-7 11-8 12-7 13-10 14-11 15-12 16-14 17-15 18-16 19-24 20-20 21-17 22-22 23-30 24-24 25-22 26-5 27-24 28-24 29-24 30-24 31-26 32-30 33-31 34-29 35-7 36-30 37-31 38-31 39-32 40-33 41-28 42-34 43-10 44-30 45-35 46-36 47-39 48-37 49-33 50-38 51-39 52-39 53-40 54-41 
0-0 1-9 2-2 3-18 4-17 5-4 6-13 7-23 8-23 9-11 10-11 11-11 12-10 13-25 14-30 15-8 16-15 17-20 18-24 19-20 20-15 21-29 22-28 23-22 24-18 25-23 26-27 27-30 
0-0 1-1 2-2 3-4 4-5 5-4 6-6 7-7 8-7 9-8 10-9 11-7 12-14 13-10 14-11 15-14 16-14 17-12 18-13 19-19 20-15 21-7 22-18 23-24 24-20 25-23 26-24 27-24 28-16 29-24 
0-0 1-1 2-1 3-1 4-3 5-3 6-4 
0-0 1-1 2-2 3-3 4-4 5-3 6-3 7-4 8-5 9-5 10-3 11-6 12-9 13-10 14-12 15-11 16-12 17-13 18-14 19-13 20-13 21-21 22-18 23-18 24-17 25-18 26-18 27-18 28-21 29-21 30-19 31-21 
0-11 1-0 2-1 3-2 4-4 5-5 6-5 7-5 8-7 9-9 10-17 11-9 12-5 13-11 14-14 15-11 16-11 17-16 18-12 19-17 20-17 21-20 22-21 23-18 24-18 25-18 26-15 27-18 28-18 29-13 30-22 
0-0 1-17 2-12 3-3 4-14 5-18 6-8 7-14 8-18 9-13 10-15 11-18 12-19 13-10 14-20 
0-0 1-11 2-1 3-2 4-4 5-7 6-8 7-10 8-7 9-15 10-9 11-10 12-12 13-10 14-10 15-13 16-16 17-16 18-18 19-19 20-24 21-20 22-23 23-16 24-19 25-21 26-25 
0-0 1-1 2-2 3-15 4-7 5-6 6-15 7-8 8-9 9-18 10-11 11-10 12-15 13-13 14-14 15-15 16-16 17-17 18-18 19-19 20-21 21-22 
0-0 1-1 2-2 3-3 4-4 5-4 6-6 7-4 8-8 9-10 10-7 11-9 12-10 13-13 14-10 15-10 16-11 17-17 18-10 19-17 20-18 21-19 22-17 23-21 24-20 25-17 26-22 27-28 28-22 29-27 30-26 31-25 32-22 33-22 34-23 35-29 
0-0 1-1 2-1 3-22 4-4 5-3 6-5 7-6 8-7 9-7 10-8 11-13 12-13 13-9 14-11 15-15 16-12 17-13 18-15 19-21 20-17 21-20 22-18 23-19 24-22 25-22 26-24 
0-0 1-1 2-2 3-3 4-4 5-5 6-6 7-8 8-9 9-10 10-11 11-12 12-8 13-13 14-14 15-15 16-18 17-8 18-19 19-20 20-11 21-19 22-24 23-22 24-23 25-24 
0-0 1-1 2-2 3-20 4-6 5-5 6-6 7-6 8-0 9-7 10-4 11-13 12-12 13-15 14-12 15-14 16-20 17-20 18-16 19-12 20-17 21-19 22-18 23-20 
0-0 1-1 2-3 3-4 4-5 5-5 6-6 7-7 8-11 9-8 10-7 11-10 12-12 13-12 14-10 15-13 16-12 17-15 18-14 19-15 
0-8 1-3 2-2 3-7 4-8 5-10 6-20 7-12 8-11 9-13 10-14 11-16 12-15 13-16 14-24 15-17 16-9 17-20 18-2 19-22 20-23 21-20 22-29 23-25 24-28 25-30 26-20 27-26 28-30 
0-1 1-0 2-1 3-2 4-4 5-3 6-5 7-6 8-5 9-8 10-14 11-9 12-10 13-14 14-11 15-13 16-14 17-15 18-16 19-14 20-17 21-18 
0-0 1-9 2-2 3-2 4-4 5-7 6-8 7-9 8-7 9-8 10-10 11-9 12-11 13-8 14-36 15-19 16-13 17-14 18-15 19-16 20-18 21-17 22-20 23-16 24-21 25-22 26-20 27-23 28-19 29-26 30-27 31-8 32-31 33-27 34-29 35-35 36-29 37-34 38-33 39-35 40-36 41-35 42-32 43-37 
0-0 1-2 2-2 3-4 4-3 5-7 6-10 7-14 8-7 9-12 10-13 11-14 12-11 13-16 14-17 
0-6 1-5 2-1 3-6 4-2 5-3 6-4 7-6 8-4 9-9 10-9 11-5 12-6 13-6 14-8 15-7 16-9 
0-8 1-1 2-2 3-3 4-4 5-3 6-6 7-6 8-11 9-8 10-10 11-9 12-11 13-13 14-11 15-11 16-16 17-11 18-16 19-18 20-16 21-18 22-18 23-17 24-18 
0-0 1-1 2-2 3-0 4-3 5-4 6-22 7-7 8-6 9-22 10-36 11-19 12-15 13-12 14-22 15-9 16-12 17-22 18-11 19-13 20-22 21-16 22-17 23-20 24-21 25-25 26-20 27-25 28-26 29-27 30-25 31-29 32-25 33-33 34-25 35-32 36-31 37-34 38-34 39-35 40-36 
0-0 1-0 2-1 3-2 4-3 5-4 6-2 7-5 8-7 9-10 10-9 11-10 12-11 13-13 14-11 15-11 16-15 17-1 18-34 19-19 20-19 21-15 22-22 23-19 24-19 25-2 26-21 27-19 28-25 29-28 30-24 31-25 32-26 33-28 34-27 35-4 36-31 37-33 38-31 39-35 40-30 41-34 42-18 43-29 44-28 45-37 46-36 47-37 
0-0 1-1 2-3 3-7 4-3 5-3 6-4 7-5 8-9 9-3 10-6 11-9 12-13 13-8 14-13 15-10 16-13 17-11 18-13 19-12 20-13 21-14 22-15 23-16 24-20 25-20 26-1 27-20 28-25 29-19 30-25 31-23 32-25 33-27 34-25 35-22 36-27 37-25 38-25 39-26 40-27 
0-0 1-4 2-18 3-4 4-5 5-4 6-44 7-7 8-8 9-10 10-9 11-41 12-11 13-12 14-21 15-13 16-17 17-14 18-22 19-17 20-34 21-18 22-20 23-19 24-22 25-23 26-25 27-24 28-25 29-26 30-1 31-34 32-25 33-28 34-29 35-25 36-31 37-34 38-44 39-33 40-37 41-41 42-32 43-44 44-32 45-37 46-44 47-36 48-37 49-44 50-35 51-39 52-40 53-40 54-41 55-42 56-44 
0-0 1-1 2-2 3-3 4-4 5-6 6-11 7-6 8-6 9-10 10-7 11-6 12-12 13-12 14-12 15-14 16-12 17-17 18-13 19-20 20-18 21-19 22-20 23-26 24-21 25-23 26-24 27-24 28-22 29-31 30-26 31-28 32-20 33-19 34-29 35-20 36-26 37-30 38-32 
0-0 1-2 2-3 3-1 4-3 5-7 6-3 7-3 8-0 9-4 10-3 11-0 12-8 13-7 14-6 15-7 16-11 17-8 18-9 19-11 20-10 21-11 
0-0 1-1 2-2 3-3 4-4 5-4 6-6 7-7 8-8 9-9 10-10 11-11 12-12 13-9 14-10 15-13 16-16 17-14 18-14 19-15 20-16 21-16 22-16 23-20 24-27 25-16 26-10 27-24 28-25 29-16 30-28 31-26 32-5 33-23 34-2 35-28 36-28 
0-0 1-1 2-2 3-3 4-4 5-5 6-6 7-6 8-7 9-8 10-9 11-10 12-9 13-12 14-11 15-12 
0-0 1-1 2-2 3-0 4-4 5-5 6-6 7-8 8-7 9-8 10-8 11-8 12-8 13-8 14-10 15-11 16-17 17-16 18-13 19-15 20-16 21-17 22-18 23-19 24-20 25-22 26-22 27-29 28-25 29-24 30-23 31-27 32-27 33-30 34-30 
0-0 1-1 2-2 3-3 4-16 5-0 6-5 7-7 8-7 9-6 10-7 11-8 12-13 13-9 14-10 15-13 16-11 17-12 18-12 19-18 20-13 21-14 22-16 23-15 24-16 25-16 26-33 27-18 28-0 29-19 30-20 31-32 32-22 33-23 34-24 35-26 36-30 37-8 38-33 39-33 40-29 41-33 42-28 43-33 44-31 45-32 46-33 
0-0 1-2 2-0 3-1 4-2 5-2 6-4 7-3 
0-1 1-3 2-1 3-1 4-1 5-0 6-1 7-2 8-4 9-1 10-6 11-6 12-9 13-7 14-14 15-10 16-14 17-12 18-13 19-14 20-14 21-9 22-14 
0-0 1-0 2-1 3-2 4-3 5-4 6-6 7-5 8-7 9-8 10-10 11-11 12-12 13-13 14-13 15-11 16-11 17-15 18-13 19-17 20-16 21-18 22-18 23-19 24-20 
0-0 1-0 2-1 3-2 
0-0 1-2 2-2 3-4 4-4 5-7 6-7 7-6 8-5 9-6 10-7 11-8 12-9 13-9 14-10 15-13 16-9 17-9 18-16 19-11 20-15 21-7 22-14 23-15 24-11 25-15 26-16 27-17 
0-0 1-1 2-2 3-3 4-6 5-5 6-4 7-3 8-9 9-7 10-9 11-11 12-12 13-3 14-14 15-15 16-3 17-15 18-17 19-17 20-18 21-18 22-19 
0-0 1-1 2-2 3-1 4-3 5-8 6-5 7-6 8-4 9-6 10-5 11-9 
0-0 1-0 2-1 3-2 4-3 5-4 6-7 7-7 8-8 9-9 10-10 11-23 12-9 13-24 14-11 15-12 16-12 17-14 18-12 19-17 20-16 21-18 22-15 23-20 24-19 25-25 
0-0 1-0 2-0 3-0 
0-0 1-2 2-2 3-3 4-4 5-5 6-3 7-9 8-10 9-11 10-15 11-6 12-26 13-16 14-14 15-18 16-12 17-14 18-15 19-6 20-17 21-18 22-22 23-24 24-21 25-26 26-23 27-24 28-25 29-26 
0-0 1-0 2-1 3-4 4-2 5-3 6-5 7-7 8-8 9-9 10-4 11-10 12-18 13-11 14-12 15-15 16-15 17-14 18-7 19-15 20-16 21-15 22-18 23-15 24-15 25-15 26-15 27-20 28-20 29-21 
0-0 1-17 2-2 3-1 4-3 5-4 6-6 7-7 8-8 9-6 10-17 11-12 12-17 13-17 14-3 15-13 16-18 17-16 18-17 19-10 20-14 21-15 22-16 23-17 24-23 25-18 26-26 27-20 28-25 29-23 30-26 
0-0 1-2 2-1 3-11 4-4 5-11 6-11 7-10 8-24 9-3 10-36 11-11 12-14 13-14 14-14 15-18 16-20 17-20 18-19 19-16 20-20 21-21 22-26 23-24 24-25 25-26 26-6 27-29 28-28 29-30 30-31 31-26 32-32 33-33 34-32 35-37 
0-0 1-1 2-2 3-3 4-4 5-5 6-4 7-8 8-4 9-8 10-10 11-11 12-12 13-14 14-13 15-4 16-10 17-12 18-12 19-17 20-18 21-18 22-17 23-16 24-18 
0-3 1-1 2-1 3-3 4-3 5-3 6-6 7-6 8-8 9-29 10-6 11-10 12-8 13-9 14-11 15-11 16-18 17-13 18-14 19-15 20-16 21-21 22-20 23-25 24-6 25-10 26-22 27-23 28-31 29-25 30-26 31-27 32-29 33-30 34-31 35-32 36-33 37-10 38-34 39-35 
0-4 1-1 2-3 3-2 4-3 5-4 6-5 7-6 8-7 9-7 10-4 11-12 12-11 13-12 14-12 15-11 16-12 
0-0 1-1 2-2 3-2 4-4 5-3 6-5 7-5 8-6 9-7 10-4 11-8 12-9 13-10 14-12 15-11 16-14 17-13 18-15 
0-5 1-6 2-7 3-4 4-3 5-9 
0-0 1-1 2-2 3-2 4-3 5-4 6-5 7-7 8-7 9-8 10-8 11-10 12-11 13-7 14-13 15-12 16-14 17-15 18-10 19-15 20-15 21-18 22-17 23-19 24-15 25-22 26-19 27-21 28-20 29-25 30-23 31-25 32-23 33-0 34-27 35-10 36-27 37-29 38-28 39-29 40-32 41-32 42-31 43-30 44-32 
0-0 1-1 2-10 3-2 4-6 5-9 6-8 7-7 8-10 9-6 10-13 11-14 
0-0 1-1 2-2 3-3 4-3 5-3 6-3 7-1 8-4 9-7 10-8 11-7 12-7 13-7 14-7 15-11 16-9 17-12 18-13 19-14 
0-0 1-1 2-2 3-5 4-5 5-4 6-8 7-8 8-8 9-0 10-7 11-8 12-9 13-10 14-12 15-14 16-13 17-15 
0-0 1-1 2-20 3-2 4-6 5-6 6-4 7-3 8-5 9-6 10-8 11-7 12-9 13-12 14-13 15-20 16-17 17-18 18-14 19-18 20-15 21-18 22-20 23-16 24-20 25-21 26-22 27-23 28-18 29-24 30-23 31-27 32-26 33-28 
0-0 1-1 2-3 3-4 4-7 5-5 6-6 7-7 8-7 9-7 10-8 11-9 12-10 13-7 14-12 15-9 16-13 17-11 18-13 19-13 20-15 21-18 22-18 23-14 24-16 25-18 26-17 27-18 
0-0 1-1 2-3 3-2 4-3 5-13 6-12 7-5 8-18 9-4 10-11 11-11 12-7 13-6 14-10 15-15 16-21 17-19 18-17 19-18 20-19 21-17 22-22 23-26 24-24 25-25 26-14 27-35 28-28 29-29 30-8 31-27 32-5 33-27 34-30 35-31 36-27 37-29 38-34 39-35 40-31 41-35 42-36 43-38 44-37 45-39 
0-0 1-1 2-1 3-2 4-4 5-4 6-4 7-4 8-8 9-4 10-7 11-10 12-9 13-8 14-10 15-11 16-12 17-11 18-15 19-11 20-25 21-22 22-11 23-4 24-16 25-17 26-17 27-19 28-18 29-26 30-24 31-26 32-20 33-21 34-22 35-26 
0-0 1-1 2-3 3-3 4-3 5-6 6-8 7-9 8-9 9-11 10-10 11-12 
0-0 1-1 2-3 3-4 4-5 5-5 6-5 7-8 8-7 9-8 
0-10 1-1 2-4 3-4 4-3 5-2 6-4 7-23 8-7 9-10 10-8 11-10 12-10 13-10 14-11 15-13 16-10 17-12 18-15 19-16 20-10 21-18 22-21 23-20 24-17 25-21 26-23 27-23 28-24 29-25 30-23 31-27 32-29 33-28 34-29 
0-0 1-1 2-1 3-1 4-2 
0-3 1-4 2-3 3-3 4-7 5-8 6-6 7-13 8-6 9-1 10-18 11-12 12-11 13-13 14-14 15-13 16-16 17-20 18-23 19-21 20-24 21-22 22-23 23-24 24-25 25-26 
0-0 1-1 2-2 3-5 4-2 5-13 6-6 7-7 8-6 9-6 10-10 11-10 12-9 13-10 14-12 15-14 16-14 17-12 18-11 19-12 20-15 21-14 22-15 23-16 24-17 25-18 26-19 27-20 28-25 29-22 30-21 31-24 32-25 33-30 34-26 35-32 36-29 37-29 38-32 39-34 40-35 41-36 
0-0 1-1 2-2 3-0 4-3 5-5 6-5 7-6 8-7 9-15 10-8 11-9 12-11 13-10 14-11 15-15 16-12 17-15 18-14 19-15 20-16 21-15 22-16 23-17 24-18 
0-0 1-0 2-1 3-2 4-5 5-5 6-4 7-5 8-7 9-7 10-6 11-9 12-10 13-9 14-10 15-10 16-8 17-10 
0-18 1-7 2-18 3-9 4-6 5-10 6-11 7-4 8-8 9-11 10-5 11-16 12-12 13-16 14-18 15-16 16-16 17-16 18-18 19-16 20-19 21-20 
0-3 1-3 2-3 3-3 4-3 5-5 6-6 
0-4 1-3 2-4 3-0 4-19 5-1 6-2 7-9 8-5 9-6 10-7 11-10 12-19 13-17 14-13 15-14 16-16 17-17 18-19 19-17 20-20 21-21 22-22 23-22 24-24 25-25 
0-0 1-1 2-2 3-3 
0-0 1-0 2-1 3-2 4-3 5-4 6-5 7-4 8-6 9-8 10-9 11-10 12-12 13-13 14-7 15-13 16-16 17-15 18-13 19-13 20-18 21-20 22-21 23-19 24-19 25-23 
0-0 1-5 2-2 3-2 4-4 5-5 6-5 7-6 8-8 9-8 10-7 11-8 12-8 13-10 14-11 15-12 16-13 17-13 18-15 19-16 20-14 21-18 
0-1 1-6 2-2 3-7 4-4 5-9 6-16 7-11 8-12 9-13 10-4 11-14 12-15 13-16 
0-0 1-11 2-1 3-2 4-3 5-4 6-5 7-6 8-7 9-8 10-9 11-10 12-11 13-9 14-13 15-12 16-11 17-15 18-9 19-15 20-17 21-17 22-18 
0-0 1-1 2-2 3-3 4-4 5-5 6-6 7-7 8-6 9-6 10-9 11-10 12-11 13-12 14-14 15-15 16-16 17-17 18-12 19-18 20-19 21-21 22-17 23-20 24-22 
0-0 1-0 2-1 3-3 4-3 5-7 6-6 7-8 8-9 9-10 10-11 11-12 12-13 13-14 14-15 15-16 16-17 17-23 18-20 19-21 20-22 21-23 22-24 
0-0 1-1 2-3 3-6 4-3 5-4 6-5 7-8 8-7 9-9 10-10 11-11 12-11 13-14 14-15 15-16 
0-0 1-9 2-3 3-6 4-0 5-11 6-12 7-6 8-10 9-23 10-17 11-10 12-3 13-4 14-5 15-13 16-26 17-13 18-15 19-18 20-19 21-18 22-22 23-21 24-22 25-24 26-24 27-6 28-30 29-28 30-26 31-30 32-22 33-30 34-30 35-32 36-31 37-33 38-28 39-10 40-40 41-36 42-37 43-38 44-40 
0-0 1-1 2-7 3-2 4-3 5-4 6-7 7-8 8-9 
0-0 1-1 2-1 3-2 4-0 5-4 
0-0 1-1 2-3 3-4 4-4 5-6 6-7 7-8 8-9 9-9 10-12 11-13 12-14 13-12 14-15 15-16 16-17 17-12 18-18 19-19 
0-0 1-1 2-2 3-3 4-3 5-5 6-3 7-7 8-8 9-9 10-10 
0-0 1-5 2-1 3-2 4-4 5-3 6-5 7-6 8-7 9-8 
0-11 1-1 2-2 3-3 4-6 5-7 6-8 7-9 8-10 9-11 10-12 11-13 12-14 
0-0 1-1 2-2 3-3 4-6 5-2 6-6 7-6 8-5 9-6 10-10 11-28 12-14 13-14 14-17 15-18 16-19 17-20 18-17 19-21 20-9 21-24 22-22 23-23 24-29 25-27 26-28 27-28 28-29 
0-0 1-3 2-1 3-3 4-3 5-4 
0-0 1-1 2-1 
0-0 1-0 2-1 3-2 4-3 
0-0 1-1 2-2 
0-0 1-1 2-2 3-3 4-37 5-5 6-6 7-7 8-8 9-9 10-16 11-10 12-12 13-13 14-14 15-11 16-52 17-18 18-19 19-17 20-19 21-22 22-54 23-18 24-24 25-25 26-26 27-31 28-27 29-30 30-24 31-29 32-17 33-28 34-39 35-34 36-35 37-39 38-31 39-35 40-36 41-49 42-49 43-53 44-43 45-41 46-42 47-48 48-2 49-45 50-56 51-51 52-44 53-52 54-31 55-53 56-37 57-55 58-54 59-56 60-43 61-48 62-33 63-43 64-8 65-58 
0-0 1-53 2-1 3-3 4-4 5-5 6-6 7-7 8-8 9-13 10-10 11-8 12-8 13-11 14-43 15-16 16-44 17-18 18-19 19-47 20-21 21-49 22-50 23-42 24-49 25-50 26-24 27-26 28-28 29-30 30-31 31-32 32-33 33-34 34-35 35-36 36-47 37-38 38-49 39-50 40-42 41-41 42-43 43-15 44-46 45-47 46-48 47-49 48-40 49-51 50-52 51-53 
0-0 1-1 2-1 
0-0 1-1 
0-0 1-1 2-2 3-3 4-4 5-5 6-6 7-7 8-8 9-9 10-10 11-11 12-12 13-13 
0-0 1-2 2-1 3-2 4-3 5-4 6-10 7-9 8-6 9-7 10-8 11-9 12-10 13-11 14-13 15-14 16-15 17-16 18-17 
0-0 1-1 2-8 3-2 4-3 5-4 6-9 7-10 8-11 9-9 10-9 11-10 12-13 13-16 14-15 15-25 16-21 17-21 18-21 19-22 20-23 21-24 22-25 23-26 
0-0 1-1 2-1 3-3 4-8 5-8 6-15 7-10 8-11 9-5 10-6 11-7 12-15 13-15 14-15 15-15 16-16 17-18 
0-0 1-1 2-2 3-3 4-5 5-4 6-7 7-6 8-26 9-7 10-10 11-11 12-40 13-35 14-36 15-37 16-21 17-11 18-39 19-34 20-17 21-20 22-21 23-12 24-38 25-24 26-32 27-39 28-11 29-16 30-18 31-19 32-20 33-11 34-43 35-33 36-26 37-38 38-24 39-6 40-25 41-21 42-44 43-46 
0-5 1-2 2-1 3-2 4-5 5-5 6-5 7-3 8-5 9-5 10-1 11-7 12-5 13-5 14-6 15-7 16-8 17-10 18-10 19-11 20-12 
0-0 1-2 2-4 3-2 4-4 5-4 6-5 7-4 8-6 9-6 10-9 11-8 12-10 13-10 14-11 15-12 
0-0 1-2 2-3 3-2 4-3 5-3 6-4 7-3 8-5 9-6 10-7 11-8 12-9 
0-0 1-2 2-4 3-2 4-4 5-4 6-3 7-4 8-4 9-4 10-5 11-6 12-8 13-8 14-9 15-10 
0-0 1-2 2-4 3-2 4-4 5-4 6-3 7-4 8-4 9-4 10-6 11-4 12-8 13-5 14-7 15-9 16-9 17-10 18-11 
0-0 1-2 2-0 3-2 4-0 5-3 6-3 7-4 8-5 9-6 10-7 11-8 
0-0 1-2 2-4 3-2 4-4 5-4 6-3 7-4 8-4 9-4 10-5 11-6 12-8 13-8 14-9 15-10 
0-0 1-11 2-0 3-2 4-5 5-5 6-5 7-4 8-5 9-5 10-5 11-5 12-7 13-8 14-10 15-10 16-11 17-12 
0-0 1-2 2-1 3-2 4-1 5-1 6-3 7-4 8-5 9-1 10-7 11-8 
0-0 1-2 2-7 3-2 4-7 5-7 6-5 7-7 8-7 9-5 10-4 11-6 12-9 13-9 14-12 15-9 16-7 17-9 18-11 19-13 20-15 21-15 22-16 23-17 
0-0 1-2 2-3 3-2 4-3 5-3 6-3 7-4 8-5 9-6 10-7 11-8 
0-1 1-2 2-4 3-2 4-4 5-4 6-3 7-4 8-4 9-4 10-6 11-4 12-4 13-5 14-7 15-9 16-9 17-10 18-11 
0-0 1-2 2-5 3-2 4-5 5-5 6-4 7-3 8-5 9-5 10-5 11-6 12-6 13-8 14-9 15-10 16-11 17-12 
